
----------../modules/order/controllers/order/scanBarcodeProduk----------
administrator - Tanggal/Waktu : 07-Aug-2021/09:20:28 AM => 
 --> 
    SELECT p.* , ps.stock 
    FROM product p 
    LEFT     JOIN ( 
    SELECT max( id)  id, product 
    FROM product_stock 
    GROUP     BY product)  ps_max on ps_max.product = p.id 
    LEFT     JOIN product_stock ps on ps.id = ps_max.id 
    LEFT     JOIN product_satuan pst on ps.product_satuan = pst.id 
    LEFT     JOIN satuan s on s.id = pst.satuan 
    WHERE p.deleted = 0 
    AND pst.satuan_terkecil = 1 
    AND p.kodebarcode = '000000001'
 --> Execution Time: 0.0012259483337402, Seconds : 1.2259483337402
