
----------../modules/template/controllers/pegawai/index----------
admin - Tanggal/Waktu : 06-Aug-2021/10:17:37 AM => 
 --> 
    SELECT `p`.* 
    FROM `pegawai` `p` 
    WHERE `p`.`deleted` =0 
    OR `p`.`deleted` 
    IS     NULL     LIMIT 10
 --> Execution Time: 0.00054383277893066, Seconds : 0.54383277893066
admin - Tanggal/Waktu : 06-Aug-2021/10:17:37 AM => 
 --> 
    SELECT COUNT( *)  AS `numrows` 
    FROM `pegawai` `p` 
    WHERE `p`.`deleted` =0 
    OR `p`.`deleted` 
    IS null
 --> Execution Time: 0.0003509521484375, Seconds : 0.3509521484375
admin - Tanggal/Waktu : 06-Aug-2021/10:17:37 AM => 
 --> 
    SELECT * 
    FROM `general` 
    LIMIT 1000
 --> Execution Time: 0.00037503242492676, Seconds : 0.37503242492676
admin - Tanggal/Waktu : 06-Aug-2021/10:17:37 AM => 
 --> 
    SELECT i.* 
    FROM invoice i 
    JOIN ( 
    SELECT max( id)  id, invoice 
    FROM invoice_status 
    GROUP     BY invoice)  iss on iss.invoice = i.id 
    JOIN invoice_status isa on isa.id = iss.id 
    WHERE isa.status = 'DRAFT' 
    AND i.deleted = 0 
    ORDER     BY i.id 
    DESC     LIMIT 5 
    OFFSET 0
 --> Execution Time: 0.00067806243896484, Seconds : 0.67806243896484
admin - Tanggal/Waktu : 06-Aug-2021/10:17:37 AM => 
 --> 
    SELECT o.* 
    FROM `order` o 
    JOIN ( 
    SELECT max( id)  id, `order` 
    FROM order_status 
    GROUP     BY `order`)  oss on oss.order = o.id 
    JOIN order_status os on os.id = oss.id 
    WHERE os.status = 'DRAFT' 
    AND o.deleted = 0 
    ORDER     BY o.id 
    DESC     LIMIT 5 
    OFFSET 0
 --> Execution Time: 0.0006411075592041, Seconds : 0.6411075592041
admin - Tanggal/Waktu : 06-Aug-2021/10:17:37 AM => 
 --> 
    SELECT ro.* 
    FROM retur_order ro 
    JOIN `order` o on o.id = ro.id 
    JOIN ( 
    SELECT max( id)  id, `order` 
    FROM order_status 
    GROUP     BY `order`)  oss on oss.order = o.id 
    JOIN order_status os on os.id = oss.id 
    WHERE ro.deleted = 0 
    AND os.status = 'DRAFT' 
    AND ro.deleted = 0 
    ORDER     BY ro.id 
    DESC     LIMIT 5 
    OFFSET 0
 --> Execution Time: 0.00065183639526367, Seconds : 0.65183639526367
