
----------../modules/template/controllers/produk/index----------
admin - Tanggal/Waktu : 08-Aug-2021/13:06:51 PM => 
 --> 
    SELECT `r`.*, `tr`.`tipe`, `kr`.`kategori` 
    FROM `product` `r` 
    JOIN `kategori_product` `kr` ON `r`.`kategori_product` = `kr`.`id` 
    JOIN `tipe_product` `tr` ON `r`.`tipe_product` = `tr`.`id` 
    WHERE `r`.`deleted` =0 
    OR `r`.`deleted` 
    IS     NULL     LIMIT 10
 --> Execution Time: 0.050748109817505, Seconds : 50.748109817505
admin - Tanggal/Waktu : 08-Aug-2021/13:06:51 PM => 
 --> 
    SELECT COUNT( *)  AS `numrows` 
    FROM `product` `r` 
    JOIN `kategori_product` `kr` ON `r`.`kategori_product` = `kr`.`id` 
    JOIN `tipe_product` `tr` ON `r`.`tipe_product` = `tr`.`id` 
    WHERE `r`.`deleted` =0 
    OR `r`.`deleted` 
    IS null
 --> Execution Time: 0.0018360614776611, Seconds : 1.8360614776611
admin - Tanggal/Waktu : 08-Aug-2021/13:06:51 PM => 
 --> 
    SELECT * 
    FROM `general` 
    LIMIT 1000
 --> Execution Time: 0.00046300888061523, Seconds : 0.46300888061523
admin - Tanggal/Waktu : 08-Aug-2021/13:06:51 PM => 
 --> 
    SELECT i.* 
    FROM invoice i 
    JOIN ( 
    SELECT max( id)  id, invoice 
    FROM invoice_status 
    GROUP     BY invoice)  iss on iss.invoice = i.id 
    JOIN invoice_status isa on isa.id = iss.id 
    WHERE isa.status = 'DRAFT' 
    AND i.deleted = 0 
    ORDER     BY i.id 
    DESC     LIMIT 5 
    OFFSET 0
 --> Execution Time: 0.0009920597076416, Seconds : 0.9920597076416
admin - Tanggal/Waktu : 08-Aug-2021/13:06:51 PM => 
 --> 
    SELECT o.* 
    FROM `order` o 
    JOIN ( 
    SELECT max( id)  id, `order` 
    FROM order_status 
    GROUP     BY `order`)  oss on oss.order = o.id 
    JOIN order_status os on os.id = oss.id 
    WHERE os.status = 'DRAFT' 
    AND o.deleted = 0 
    ORDER     BY o.id 
    DESC     LIMIT 5 
    OFFSET 0
 --> Execution Time: 0.00078105926513672, Seconds : 0.78105926513672
admin - Tanggal/Waktu : 08-Aug-2021/13:06:51 PM => 
 --> 
    SELECT ro.* 
    FROM retur_order ro 
    JOIN `order` o on o.id = ro.id 
    JOIN ( 
    SELECT max( id)  id, `order` 
    FROM order_status 
    GROUP     BY `order`)  oss on oss.order = o.id 
    JOIN order_status os on os.id = oss.id 
    WHERE ro.deleted = 0 
    AND os.status = 'DRAFT' 
    AND ro.deleted = 0 
    ORDER     BY ro.id 
    DESC     LIMIT 5 
    OFFSET 0
 --> Execution Time: 0.00075197219848633, Seconds : 0.75197219848633
