
----------../modules/jadwal/controllers/jadwal/simpanSpbjl----------
 - Tanggal/Waktu : 11-Nov-2021/12:19:24 PM => 
 --> 
    SELECT * 
    FROM type_transaction 
    WHERE term_id = 'SUB_SPBJL'
 --> Execution Time: 0.00049805641174316, Seconds : 0.49805641174316
 - Tanggal/Waktu : 11-Nov-2021/12:19:24 PM => 
 --> 
    INSERT     INTO `schedule` ( `type_transaction`, `uraian_pekerjaan`, `no_dokumen`, `standard`, `cepat`, `manual`, `createddate`)  
    VALUES ( '1', 'asdasd', 'asd', '1', '1', '1', '2021-11-11 12:19:24') 
 --> Execution Time: 0.0041849613189697, Seconds : 4.1849613189697
