
----------../modules/template/controllers/lappembelian/index----------
administrator - Tanggal/Waktu : 01-Aug-2021/09:57:30 AM => 
 --> 
    SELECT `p`.*, `v`.`nama_vendor`, `pi`.`harga`, `pi`.`qty`, `s`.`nama_satuan`, `pd`.`product` 
    FROM `procurement` `p` 
    JOIN `vendor` `v` ON `v`.`id` = `p`.`vendor` 
    JOIN `procurement_item` `pi` ON `pi`.`procurement` = `p`.`id` 
    JOIN `product` `pd` ON `pd`.`id` = `pi`.`product` 
    JOIN `satuan` `s` ON `s`.`id` = `pi`.`satuan` 
    WHERE `p`.`deleted` 
    IS     NULL     OR `p`.`deleted` =0 
    ORDER     BY `p`.`id` 
    DESC     LIMIT 1, 1
 --> Execution Time: 0.0014040470123291, Seconds : 1.4040470123291
administrator - Tanggal/Waktu : 01-Aug-2021/09:57:30 AM => 
 --> 
    SELECT COUNT( *)  AS `numrows` 
    FROM `procurement` `p` 
    JOIN `vendor` `v` ON `v`.`id` = `p`.`vendor` 
    JOIN `procurement_item` `pi` ON `pi`.`procurement` = `p`.`id` 
    JOIN `product` `pd` ON `pd`.`id` = `pi`.`product` 
    JOIN `satuan` `s` ON `s`.`id` = `pi`.`satuan` 
    WHERE `p`.`deleted` 
    IS     NULL     OR `p`.`deleted` =0
 --> Execution Time: 0.0006711483001709, Seconds : 0.6711483001709
administrator - Tanggal/Waktu : 01-Aug-2021/09:57:30 AM => 
 --> 
    SELECT * 
    FROM `general` 
    LIMIT 1000
 --> Execution Time: 0.00045299530029297, Seconds : 0.45299530029297
administrator - Tanggal/Waktu : 01-Aug-2021/09:57:30 AM => 
 --> 
    SELECT i.* 
    FROM invoice i 
    JOIN ( 
    SELECT max( id)  id, invoice 
    FROM invoice_status 
    GROUP     BY invoice)  iss on iss.invoice = i.id 
    JOIN invoice_status isa on isa.id = iss.id 
    WHERE isa.status = 'DRAFT' 
    AND i.deleted = 0 
    ORDER     BY i.id 
    DESC     LIMIT 5 
    OFFSET 0
 --> Execution Time: 0.0008399486541748, Seconds : 0.8399486541748
administrator - Tanggal/Waktu : 01-Aug-2021/09:57:30 AM => 
 --> 
    SELECT o.* 
    FROM `order` o 
    JOIN ( 
    SELECT max( id)  id, `order` 
    FROM order_status 
    GROUP     BY `order`)  oss on oss.order = o.id 
    JOIN order_status os on os.id = oss.id 
    WHERE os.status = 'DRAFT' 
    AND o.deleted = 0 
    ORDER     BY o.id 
    DESC     LIMIT 5 
    OFFSET 0
 --> Execution Time: 0.0011298656463623, Seconds : 1.1298656463623
administrator - Tanggal/Waktu : 01-Aug-2021/09:57:30 AM => 
 --> 
    SELECT ro.* 
    FROM retur_order ro 
    JOIN `order` o on o.id = ro.id 
    JOIN ( 
    SELECT max( id)  id, `order` 
    FROM order_status 
    GROUP     BY `order`)  oss on oss.order = o.id 
    JOIN order_status os on os.id = oss.id 
    WHERE ro.deleted = 0 
    AND os.status = 'DRAFT' 
    AND ro.deleted = 0 
    ORDER     BY ro.id 
    DESC     LIMIT 5 
    OFFSET 0
 --> Execution Time: 0.000640869140625, Seconds : 0.640869140625
