
----------../modules/template/controllers/order/index----------
administrator - Tanggal/Waktu : 07-Aug-2021/09:46:44 AM => 
 --> 
    SELECT `o`.*, `isa`.`status`, `pb`.`nama` as `nama_pembeli` 
    FROM `order` `o` 
    JOIN ( 
    SELECT max( id)  id, `order` 
    FROM order_status 
    GROUP     BY `order`)  iss ON `iss`.`order` = `o`.`id` 
    JOIN `order_status` `isa` ON `isa`.`id` = `iss`.`id` 
    JOIN `pembeli` `pb` ON `pb`.`id` = `o`.`pembeli` 
    WHERE `o`.`deleted` 
    IS     NULL     OR `o`.`deleted` =0 
    ORDER     BY `o`.`id` 
    DESC     LIMIT 10
 --> Execution Time: 0.0018980503082275, Seconds : 1.8980503082275
administrator - Tanggal/Waktu : 07-Aug-2021/09:46:44 AM => 
 --> 
    SELECT COUNT( *)  AS `numrows` 
    FROM `order` `o` 
    JOIN ( 
    SELECT max( id)  id, `order` 
    FROM order_status 
    GROUP     BY `order`)  iss ON `iss`.`order` = `o`.`id` 
    JOIN `order_status` `isa` ON `isa`.`id` = `iss`.`id` 
    JOIN `pembeli` `pb` ON `pb`.`id` = `o`.`pembeli` 
    WHERE `o`.`deleted` 
    IS     NULL     OR `o`.`deleted` =0
 --> Execution Time: 0.0013628005981445, Seconds : 1.3628005981445
administrator - Tanggal/Waktu : 07-Aug-2021/09:46:44 AM => 
 --> 
    SELECT * 
    FROM `general` 
    LIMIT 1000
 --> Execution Time: 0.00046086311340332, Seconds : 0.46086311340332
administrator - Tanggal/Waktu : 07-Aug-2021/09:46:44 AM => 
 --> 
    SELECT i.* 
    FROM invoice i 
    JOIN ( 
    SELECT max( id)  id, invoice 
    FROM invoice_status 
    GROUP     BY invoice)  iss on iss.invoice = i.id 
    JOIN invoice_status isa on isa.id = iss.id 
    WHERE isa.status = 'DRAFT' 
    AND i.deleted = 0 
    ORDER     BY i.id 
    DESC     LIMIT 5 
    OFFSET 0
 --> Execution Time: 0.0010809898376465, Seconds : 1.0809898376465
administrator - Tanggal/Waktu : 07-Aug-2021/09:46:44 AM => 
 --> 
    SELECT o.* 
    FROM `order` o 
    JOIN ( 
    SELECT max( id)  id, `order` 
    FROM order_status 
    GROUP     BY `order`)  oss on oss.order = o.id 
    JOIN order_status os on os.id = oss.id 
    WHERE os.status = 'DRAFT' 
    AND o.deleted = 0 
    ORDER     BY o.id 
    DESC     LIMIT 5 
    OFFSET 0
 --> Execution Time: 0.0013570785522461, Seconds : 1.3570785522461
administrator - Tanggal/Waktu : 07-Aug-2021/09:46:44 AM => 
 --> 
    SELECT ro.* 
    FROM retur_order ro 
    JOIN `order` o on o.id = ro.id 
    JOIN ( 
    SELECT max( id)  id, `order` 
    FROM order_status 
    GROUP     BY `order`)  oss on oss.order = o.id 
    JOIN order_status os on os.id = oss.id 
    WHERE ro.deleted = 0 
    AND os.status = 'DRAFT' 
    AND ro.deleted = 0 
    ORDER     BY ro.id 
    DESC     LIMIT 5 
    OFFSET 0
 --> Execution Time: 0.00069403648376465, Seconds : 0.69403648376465
