
----------../modules/template/controllers/lappembelian/search----------
administrator - Tanggal/Waktu : 01-Aug-2021/09:59:35 AM => 
 --> 
    SELECT `p`.*, `v`.`nama_vendor`, `pi`.`harga`, `pi`.`qty`, `s`.`nama_satuan`, `pd`.`product` 
    FROM `procurement` `p` 
    JOIN `vendor` `v` ON `v`.`id` = `p`.`vendor` 
    JOIN `procurement_item` `pi` ON `pi`.`procurement` = `p`.`id` 
    JOIN `product` `pd` ON `pd`.`id` = `pi`.`product` 
    JOIN `satuan` `s` ON `s`.`id` = `pi`.`satuan` 
    WHERE `p`.`deleted` 
    IS     NULL     OR `p`.`deleted` =0 
    AND `p`.`no_faktur` 
    LIKE '%tic tac%' 
    ESCAPE '!' 
    OR `v`.`nama_vendor` 
    LIKE '%tic tac%' 
    ESCAPE '!' 
    OR `pd`.`product` 
    LIKE '%tic tac%' 
    ESCAPE '!' 
    OR `s`.`nama_satuan` 
    LIKE '%tic tac%' 
    ESCAPE '!' 
    ORDER     BY `p`.`id` 
    DESC     LIMIT 1, 1
 --> Execution Time: 0.0010330677032471, Seconds : 1.0330677032471
administrator - Tanggal/Waktu : 01-Aug-2021/09:59:35 AM => 
 --> 
    SELECT COUNT( *)  AS `numrows` 
    FROM `procurement` `p` 
    JOIN `vendor` `v` ON `v`.`id` = `p`.`vendor` 
    JOIN `procurement_item` `pi` ON `pi`.`procurement` = `p`.`id` 
    JOIN `product` `pd` ON `pd`.`id` = `pi`.`product` 
    JOIN `satuan` `s` ON `s`.`id` = `pi`.`satuan` 
    WHERE `p`.`deleted` 
    IS     NULL     OR `p`.`deleted` =0 
    AND `p`.`no_faktur` 
    LIKE '%tic tac%' 
    ESCAPE '!' 
    OR `v`.`nama_vendor` 
    LIKE '%tic tac%' 
    ESCAPE '!' 
    OR `pd`.`product` 
    LIKE '%tic tac%' 
    ESCAPE '!' 
    OR `s`.`nama_satuan` 
    LIKE '%tic tac%' 
    ESCAPE '!'
 --> Execution Time: 0.00090193748474121, Seconds : 0.90193748474121
administrator - Tanggal/Waktu : 01-Aug-2021/09:59:35 AM => 
 --> 
    SELECT * 
    FROM `general` 
    LIMIT 1000
 --> Execution Time: 0.00039815902709961, Seconds : 0.39815902709961
administrator - Tanggal/Waktu : 01-Aug-2021/09:59:35 AM => 
 --> 
    SELECT i.* 
    FROM invoice i 
    JOIN ( 
    SELECT max( id)  id, invoice 
    FROM invoice_status 
    GROUP     BY invoice)  iss on iss.invoice = i.id 
    JOIN invoice_status isa on isa.id = iss.id 
    WHERE isa.status = 'DRAFT' 
    AND i.deleted = 0 
    ORDER     BY i.id 
    DESC     LIMIT 5 
    OFFSET 0
 --> Execution Time: 0.00083303451538086, Seconds : 0.83303451538086
administrator - Tanggal/Waktu : 01-Aug-2021/09:59:35 AM => 
 --> 
    SELECT o.* 
    FROM `order` o 
    JOIN ( 
    SELECT max( id)  id, `order` 
    FROM order_status 
    GROUP     BY `order`)  oss on oss.order = o.id 
    JOIN order_status os on os.id = oss.id 
    WHERE os.status = 'DRAFT' 
    AND o.deleted = 0 
    ORDER     BY o.id 
    DESC     LIMIT 5 
    OFFSET 0
 --> Execution Time: 0.0010781288146973, Seconds : 1.0781288146973
administrator - Tanggal/Waktu : 01-Aug-2021/09:59:35 AM => 
 --> 
    SELECT ro.* 
    FROM retur_order ro 
    JOIN `order` o on o.id = ro.id 
    JOIN ( 
    SELECT max( id)  id, `order` 
    FROM order_status 
    GROUP     BY `order`)  oss on oss.order = o.id 
    JOIN order_status os on os.id = oss.id 
    WHERE ro.deleted = 0 
    AND os.status = 'DRAFT' 
    AND ro.deleted = 0 
    ORDER     BY ro.id 
    DESC     LIMIT 5 
    OFFSET 0
 --> Execution Time: 0.00056004524230957, Seconds : 0.56004524230957
