
----------../modules/general/controllers/faktur_pelanggan/printFaktur----------
administrator - Tanggal/Waktu : 08-Aug-2021/10:45:49 AM => 
 --> 
    SELECT * 
    FROM `invoice_print` 
    WHERE `invoice` = '32' 
    ORDER     BY `id` 
    DESC     LIMIT 1000
 --> Execution Time: 0.0025720596313477, Seconds : 2.5720596313477
administrator - Tanggal/Waktu : 08-Aug-2021/10:45:49 AM => 
 --> 
    SELECT `i`.*, `p`.`nama` as `nama_pembeli`, `ist`.`status`, `o`.`no_order`, `p`.`alamat`, `pt`.`potongan` as `jenis_potongan`, `jp`.`metode`, `pg`.`nama` as `sales` 
    FROM `invoice` `i` 
    JOIN `pembeli` `p` ON `i`.`pembeli` = `p`.`id` 
    JOIN ( 
    SELECT max( id)  id, invoice 
    FROM invoice_status 
    GROUP     BY invoice)  iss ON `iss`.`invoice` = `i`.`id` 
    JOIN `invoice_status` `ist` ON `ist`.`id` = `iss`.`id` 
    LEFT     JOIN `order` `o` ON `o`.`id` = `i`.`ref` 
    LEFT     JOIN `metode_bayar` `jp` ON `jp`.`id` = `i`.`metode_bayar` 
    LEFT     JOIN `potongan` `pt` ON `pt`.`id` = `i`.`potongan` 
    LEFT     JOIN `user` `usr` ON `usr`.`id` = `o`.`createdby` 
    LEFT     JOIN `pegawai` `pg` ON `pg`.`id` = `usr`.`pegawai` 
    WHERE `i`.`id` = '32' 
    LIMIT 1000
 --> Execution Time: 0.0012540817260742, Seconds : 1.2540817260742
administrator - Tanggal/Waktu : 08-Aug-2021/10:45:49 AM => 
 --> 
    SELECT `ip`.*, `ps`.`satuan`, `ps`.`harga`, `p`.`product` as `nama_product`, `p`.`kode_product`, `b`.`nama_bank`, `b`.`akun`, `b`.`no_rekening`, `s`.`nama_satuan` 
    FROM `invoice_product` `ip` 
    JOIN `product_satuan` `ps` ON `ps`.`id` = `ip`.`product_satuan` 
    JOIN `product` `p` ON `p`.`id` = `ps`.`product` 
    LEFT     JOIN `bank` `b` ON `b`.`id` = `ip`.`bank` 
    LEFT     JOIN `satuan` `s` ON `s`.`id` = `ps`.`satuan` 
    WHERE `ip`.`invoice` = '32' 
    AND `ip`.`deleted` =0 
    ORDER     BY `ip`.`id` 
    LIMIT 1000
 --> Execution Time: 0.0016689300537109, Seconds : 1.6689300537109
administrator - Tanggal/Waktu : 08-Aug-2021/10:45:49 AM => 
 --> 
    SELECT `ipp`.*, `pt`.`potongan` as `jenis_potongan` 
    FROM `invoice_pot_product` `ipp` 
    LEFT     JOIN `potongan` `pt` ON `pt`.`id` = `ipp`.`potongan` 
    WHERE `ipp`.`deleted` =0 
    AND `ipp`.`invoice_product` = '32' 
    LIMIT 1000
 --> Execution Time: 0.00093603134155273, Seconds : 0.93603134155273
administrator - Tanggal/Waktu : 08-Aug-2021/10:45:49 AM => 
 --> 
    SELECT `ipp`.*, `pt`.`potongan` as `jenis_potongan` 
    FROM `invoice_pot_product` `ipp` 
    LEFT     JOIN `potongan` `pt` ON `pt`.`id` = `ipp`.`potongan` 
    WHERE `ipp`.`deleted` =0 
    AND `ipp`.`invoice_product` = '33' 
    LIMIT 1000
 --> Execution Time: 0.00092005729675293, Seconds : 0.92005729675293
administrator - Tanggal/Waktu : 08-Aug-2021/10:45:49 AM => 
 --> 
    SELECT `ipp`.*, `pt`.`potongan` as `jenis_potongan` 
    FROM `invoice_pot_product` `ipp` 
    LEFT     JOIN `potongan` `pt` ON `pt`.`id` = `ipp`.`potongan` 
    WHERE `ipp`.`deleted` =0 
    AND `ipp`.`invoice_product` = '34' 
    LIMIT 1000
 --> Execution Time: 0.0008080005645752, Seconds : 0.8080005645752
administrator - Tanggal/Waktu : 08-Aug-2021/10:45:49 AM => 
 --> 
    SELECT `ipp`.*, `pt`.`potongan` as `jenis_potongan` 
    FROM `invoice_pot_product` `ipp` 
    LEFT     JOIN `potongan` `pt` ON `pt`.`id` = `ipp`.`potongan` 
    WHERE `ipp`.`deleted` =0 
    AND `ipp`.`invoice_product` = '35' 
    LIMIT 1000
 --> Execution Time: 0.00072813034057617, Seconds : 0.72813034057617
administrator - Tanggal/Waktu : 08-Aug-2021/10:45:49 AM => 
 --> 
    SELECT `kr`.*, `kr`.`title` as `nama_perusahaan` 
    FROM `general` `kr` 
    WHERE `kr`.`id` = '1' 
    LIMIT 1000
 --> Execution Time: 0.00068116188049316, Seconds : 0.68116188049316
