
----------../modules/database/controllers/satuan/delete----------
admin - Tanggal/Waktu : 01-Nov-2021/19:55:55 PM => 
 --> 
    UPDATE `product_satuan` 
    SET `deleted` = 1, `updateddate` = '2021-11-01 19:55:55', `updatedby` = '3' 
    WHERE `id` = '2511'
 --> Execution Time: 0.00045919418334961, Seconds : 0.45919418334961
