
----------../modules/order/controllers/order/chooseProduk----------
administrator - Tanggal/Waktu : 07-Aug-2021/09:21:30 AM => 
 --> 
    SELECT ps.* , s.nama_satuan , ps.qty as konversi , ps.ket_harga as keterangan 
    FROM product_satuan ps 
    JOIN satuan s on s.id = ps.satuan 
    WHERE ps.product = 3160
 --> Execution Time: 0.00063800811767578, Seconds : 0.63800811767578
