
----------../modules/template/controllers/order/index----------
admin - Tanggal/Waktu : 08-Aug-2021/15:57:02 PM => 
 --> 
    SELECT `o`.*, `isa`.`status`, `pb`.`nama` as `nama_pembeli` 
    FROM `order` `o` 
    JOIN ( 
    SELECT max( id)  id, `order` 
    FROM order_status 
    GROUP     BY `order`)  iss ON `iss`.`order` = `o`.`id` 
    JOIN `order_status` `isa` ON `isa`.`id` = `iss`.`id` 
    JOIN `pembeli` `pb` ON `pb`.`id` = `o`.`pembeli` 
    WHERE `o`.`deleted` 
    IS     NULL     OR `o`.`deleted` =0 
    ORDER     BY `o`.`id` 
    DESC     LIMIT 10
 --> Execution Time: 0.0013399124145508, Seconds : 1.3399124145508
admin - Tanggal/Waktu : 08-Aug-2021/15:57:02 PM => 
 --> 
    SELECT COUNT( *)  AS `numrows` 
    FROM `order` `o` 
    JOIN ( 
    SELECT max( id)  id, `order` 
    FROM order_status 
    GROUP     BY `order`)  iss ON `iss`.`order` = `o`.`id` 
    JOIN `order_status` `isa` ON `isa`.`id` = `iss`.`id` 
    JOIN `pembeli` `pb` ON `pb`.`id` = `o`.`pembeli` 
    WHERE `o`.`deleted` 
    IS     NULL     OR `o`.`deleted` =0
 --> Execution Time: 0.000701904296875, Seconds : 0.701904296875
admin - Tanggal/Waktu : 08-Aug-2021/15:57:02 PM => 
 --> 
    SELECT * 
    FROM `general` 
    LIMIT 1000
 --> Execution Time: 0.00048184394836426, Seconds : 0.48184394836426
admin - Tanggal/Waktu : 08-Aug-2021/15:57:02 PM => 
 --> 
    SELECT i.* 
    FROM invoice i 
    JOIN ( 
    SELECT max( id)  id, invoice 
    FROM invoice_status 
    GROUP     BY invoice)  iss on iss.invoice = i.id 
    JOIN invoice_status isa on isa.id = iss.id 
    WHERE isa.status = 'DRAFT' 
    AND i.deleted = 0 
    ORDER     BY i.id 
    DESC     LIMIT 5 
    OFFSET 0
 --> Execution Time: 0.00087594985961914, Seconds : 0.87594985961914
admin - Tanggal/Waktu : 08-Aug-2021/15:57:02 PM => 
 --> 
    SELECT o.* 
    FROM `order` o 
    JOIN ( 
    SELECT max( id)  id, `order` 
    FROM order_status 
    GROUP     BY `order`)  oss on oss.order = o.id 
    JOIN order_status os on os.id = oss.id 
    WHERE os.status = 'DRAFT' 
    AND o.deleted = 0 
    ORDER     BY o.id 
    DESC     LIMIT 5 
    OFFSET 0
 --> Execution Time: 0.00064802169799805, Seconds : 0.64802169799805
admin - Tanggal/Waktu : 08-Aug-2021/15:57:02 PM => 
 --> 
    SELECT ro.* 
    FROM retur_order ro 
    JOIN `order` o on o.id = ro.id 
    JOIN ( 
    SELECT max( id)  id, `order` 
    FROM order_status 
    GROUP     BY `order`)  oss on oss.order = o.id 
    JOIN order_status os on os.id = oss.id 
    WHERE ro.deleted = 0 
    AND os.status = 'DRAFT' 
    AND ro.deleted = 0 
    ORDER     BY ro.id 
    DESC     LIMIT 5 
    OFFSET 0
 --> Execution Time: 0.00077509880065918, Seconds : 0.77509880065918
