
----------../modules/template/controllers/produk/index----------
admin - Tanggal/Waktu : 08-Aug-2021/13:06:29 PM => 
 --> 
    SELECT `r`.*, `tr`.`tipe`, `kr`.`kategori` 
    FROM `product` `r` 
    JOIN `kategori_product` `kr` ON `r`.`kategori_product` = `kr`.`id` 
    JOIN `tipe_product` `tr` ON `r`.`tipe_product` = `tr`.`id` 
    WHERE `r`.`deleted` =0 
    OR `r`.`deleted` 
    IS     NULL     LIMIT 830, 10
 --> Execution Time: 0.0033388137817383, Seconds : 3.3388137817383
admin - Tanggal/Waktu : 08-Aug-2021/13:06:29 PM => 
 --> 
    SELECT COUNT( *)  AS `numrows` 
    FROM `product` `r` 
    JOIN `kategori_product` `kr` ON `r`.`kategori_product` = `kr`.`id` 
    JOIN `tipe_product` `tr` ON `r`.`tipe_product` = `tr`.`id` 
    WHERE `r`.`deleted` =0 
    OR `r`.`deleted` 
    IS null
 --> Execution Time: 0.0013620853424072, Seconds : 1.3620853424072
admin - Tanggal/Waktu : 08-Aug-2021/13:06:29 PM => 
 --> 
    SELECT * 
    FROM `general` 
    LIMIT 1000
 --> Execution Time: 0.00042486190795898, Seconds : 0.42486190795898
admin - Tanggal/Waktu : 08-Aug-2021/13:06:29 PM => 
 --> 
    SELECT i.* 
    FROM invoice i 
    JOIN ( 
    SELECT max( id)  id, invoice 
    FROM invoice_status 
    GROUP     BY invoice)  iss on iss.invoice = i.id 
    JOIN invoice_status isa on isa.id = iss.id 
    WHERE isa.status = 'DRAFT' 
    AND i.deleted = 0 
    ORDER     BY i.id 
    DESC     LIMIT 5 
    OFFSET 0
 --> Execution Time: 0.001168966293335, Seconds : 1.168966293335
admin - Tanggal/Waktu : 08-Aug-2021/13:06:29 PM => 
 --> 
    SELECT o.* 
    FROM `order` o 
    JOIN ( 
    SELECT max( id)  id, `order` 
    FROM order_status 
    GROUP     BY `order`)  oss on oss.order = o.id 
    JOIN order_status os on os.id = oss.id 
    WHERE os.status = 'DRAFT' 
    AND o.deleted = 0 
    ORDER     BY o.id 
    DESC     LIMIT 5 
    OFFSET 0
 --> Execution Time: 0.00066304206848145, Seconds : 0.66304206848145
admin - Tanggal/Waktu : 08-Aug-2021/13:06:29 PM => 
 --> 
    SELECT ro.* 
    FROM retur_order ro 
    JOIN `order` o on o.id = ro.id 
    JOIN ( 
    SELECT max( id)  id, `order` 
    FROM order_status 
    GROUP     BY `order`)  oss on oss.order = o.id 
    JOIN order_status os on os.id = oss.id 
    WHERE ro.deleted = 0 
    AND os.status = 'DRAFT' 
    AND ro.deleted = 0 
    ORDER     BY ro.id 
    DESC     LIMIT 5 
    OFFSET 0
 --> Execution Time: 0.000762939453125, Seconds : 0.762939453125
