
----------../modules/database/controllers/login/index----------
 - Tanggal/Waktu : 01-Nov-2021/19:50:19 PM => 
 --> 
    SELECT * 
    FROM `general` 
    LIMIT 1000
 --> Execution Time: 0.01139497756958, Seconds : 11.39497756958

----------../modules/database/controllers/login/index----------
 - Tanggal/Waktu : 01-Nov-2021/19:50:19 PM => 
 --> 
    SELECT * 
    FROM `general` 
    LIMIT 1000
 --> Execution Time: 0.00040984153747559, Seconds : 0.40984153747559
