
----------../modules/database/controllers/login/index----------
 - Tanggal/Waktu : 07-Aug-2021/08:29:10 AM => 
 --> 
    SELECT * 
    FROM `general` 
    LIMIT 1000
 --> Execution Time: 0.00056099891662598, Seconds : 0.56099891662598
