
----------../modules/database/controllers/order/confirmBayar----------
administrator - Tanggal/Waktu : 01-Aug-2021/10:30:07 AM => 
 --> 
    INSERT     INTO `product_log_stock` ( `product_satuan`, `status`, `qty`, `keterangan`, `reference_id`, `createddate`, `createdby`)  
    VALUES ( '9', 'ORDER', 1, 'Order Pelanggan', '28', '2021-08-01 10:30:07', '1') 
 --> Execution Time: 0.00047707557678223, Seconds : 0.47707557678223
administrator - Tanggal/Waktu : 01-Aug-2021/10:30:07 AM => 
 --> 
    SELECT `ps`.* 
    FROM `product_stock` `ps` 
    JOIN `product_satuan` `pst` ON `pst`.`id` = `ps`.`product_satuan` 
    JOIN `product` `p` ON `p`.`id` = `pst`.`product` 
    JOIN `satuan` `s` ON `s`.`id` = `pst`.`satuan` 
    WHERE `ps`.`deleted` =0 
    AND `p`.`id` = '3159' 
    AND `s`.`nama_satuan` = 'PCS' 
    ORDER     BY `ps`.`id` 
    DESC     LIMIT 1000
 --> Execution Time: 0.00098609924316406, Seconds : 0.98609924316406
administrator - Tanggal/Waktu : 01-Aug-2021/10:30:07 AM => 
 --> 
    INSERT     INTO `product_stock` ( `stock`, `product`, `product_satuan`, `gudang`, `rak`, `createddate`, `createdby`)  
    VALUES ( 91, '3159', '9', 1, 1, '2021-08-01 10:30:07', '1') 
 --> Execution Time: 0.0013120174407959, Seconds : 1.3120174407959
administrator - Tanggal/Waktu : 01-Aug-2021/10:30:07 AM => 
 --> 
    INSERT     INTO `order_status` ( `order`, `status`, `createddate`, `createdby`)  
    VALUES ( '28', 'CONFIRM', '2021-08-01 10:30:07', '1') 
 --> Execution Time: 0.00059700012207031, Seconds : 0.59700012207031

----------../modules/no_generator/controllers/order/validateBayar----------
administrator - Tanggal/Waktu : 01-Aug-2021/10:30:07 AM => 
 --> 
    SELECT `o`.*, `p`.`nama` as `nama_pembeli`, `isa`.`status`, `pt`.`potongan` as `jenis_potongan`, `mb`.`metode` 
    FROM `order` `o` 
    JOIN `pembeli` `p` ON `o`.`pembeli` = `p`.`id` 
    JOIN ( 
    SELECT max( id)  id, `order` 
    FROM order_status 
    GROUP     BY `order`)  iss ON `iss`.`order` = `o`.`id` 
    JOIN `order_status` `isa` ON `isa`.`id` = `iss`.`id` 
    JOIN `metode_bayar` `mb` ON `mb`.`id` = `o`.`metode_bayar` 
    LEFT     JOIN `potongan` `pt` ON `pt`.`id` = `o`.`potongan` 
    WHERE `o`.`id` = '28' 
    LIMIT 1000
 --> Execution Time: 0.0013279914855957, Seconds : 1.3279914855957
administrator - Tanggal/Waktu : 01-Aug-2021/10:30:07 AM => 
 --> 
    SELECT op.* , roi.qty as retur_qty , roi.sub_total as retur_sub_total , ps.harga 
    FROM order_product op 
    JOIN `order` o on o.id = op.`order` 
    LEFT     JOIN retur_order_item roi on roi.order_product = op.id 
    JOIN product_satuan ps on ps.id = op.product_satuan 
    WHERE o.id = '28' 
    LIMIT 1000 
    OFFSET 0
 --> Execution Time: 0.002816915512085, Seconds : 2.816915512085
administrator - Tanggal/Waktu : 01-Aug-2021/10:30:07 AM => 
 --> 
    SELECT * 
    FROM `invoice` 
    WHERE `no_faktur` 
    LIKE '%INV21AUG%' 
    ESCAPE '!' 
    ORDER     BY `id` 
    DESC     LIMIT 1000
 --> Execution Time: 0.00058603286743164, Seconds : 0.58603286743164
administrator - Tanggal/Waktu : 01-Aug-2021/10:30:07 AM => 
 --> 
    INSERT     INTO `invoice` ( `no_faktur`, `pembeli`, `tanggal_faktur`, `tanggal_bayar`, `ref`, `potongan`, `metode_bayar`, `pot_faktur`, `total`, `createddate`, `createdby`)  
    VALUES ( 'INV21AUG005', '380', '2021-08-01 10:30:01', '2021-08-01', '28', '3', '1', '0', '4000', '2021-08-01 10:30:07', '1') 
 --> Execution Time: 0.00041007995605469, Seconds : 0.41007995605469
administrator - Tanggal/Waktu : 01-Aug-2021/10:30:07 AM => 
 --> 
    INSERT     INTO `invoice_product` ( `qty`, `sub_total`, `product_satuan`, `invoice`, `createddate`, `createdby`)  
    VALUES ( 1, 4000, '9', 31, '2021-08-01 10:30:07', '1') 
 --> Execution Time: 0.0003049373626709, Seconds : 0.3049373626709
administrator - Tanggal/Waktu : 01-Aug-2021/10:30:07 AM => 
 --> 
    SELECT `ipp`.*, `pt`.`potongan` as `jenis_potongan` 
    FROM `order_pot_product` `ipp` 
    LEFT     JOIN `potongan` `pt` ON `pt`.`id` = `ipp`.`potongan` 
    WHERE `ipp`.`deleted` =0 
    AND `ipp`.`order_product` = '30' 
    LIMIT 1000
 --> Execution Time: 0.00051188468933105, Seconds : 0.51188468933105
administrator - Tanggal/Waktu : 01-Aug-2021/10:30:07 AM => 
 --> 
    INSERT     INTO `invoice_status` ( `invoice`, `user`, `status`, `createddate`, `createdby`)  
    VALUES ( 31, '1', 'PAID', '2021-08-01 10:30:07', '1') 
 --> Execution Time: 0.00032806396484375, Seconds : 0.32806396484375
administrator - Tanggal/Waktu : 01-Aug-2021/10:30:07 AM => 
 --> 
    INSERT     INTO `invoice_sisa` ( `invoice`, `jumlah`, `createddate`, `createdby`)  
    VALUES ( 31, '0', '2021-08-01 10:30:07', '1') 
 --> Execution Time: 0.00024890899658203, Seconds : 0.24890899658203
administrator - Tanggal/Waktu : 01-Aug-2021/10:30:07 AM => 
 --> 
    INSERT     INTO `order_status` ( `order`, `status`, `createddate`, `createdby`)  
    VALUES ( '28', 'VALIDATE', '2021-08-01 10:30:07', '1') 
 --> Execution Time: 0.0010430812835693, Seconds : 1.0430812835693
administrator - Tanggal/Waktu : 01-Aug-2021/10:30:07 AM => 
 --> 
    SELECT * 
    FROM `payment` 
    WHERE `no_faktur_bayar` 
    LIKE '%PAY21AUG%' 
    ESCAPE '!' 
    ORDER     BY `id` 
    DESC     LIMIT 1000
 --> Execution Time: 0.0021200180053711, Seconds : 2.1200180053711
administrator - Tanggal/Waktu : 01-Aug-2021/10:30:07 AM => 
 --> 
    INSERT     INTO `payment` ( `no_faktur_bayar`, `tanggal_faktur`, `tanggal_bayar`, `jumlah`, `createddate`, `createdby`)  
    VALUES ( 'PAY21AUG005', '2021-08-01 10:30:07', '2021-08-01', '5000', '2021-08-01 10:30:07', '1') 
 --> Execution Time: 0.00035810470581055, Seconds : 0.35810470581055
administrator - Tanggal/Waktu : 01-Aug-2021/10:30:07 AM => 
 --> 
    INSERT     INTO `payment_item` ( `payment`, `invoice`, `jumlah_bayar`, `createddate`, `createdby`)  
    VALUES ( 75, 31, '5000', '2021-08-01 10:30:07', '1') 
 --> Execution Time: 0.00028109550476074, Seconds : 0.28109550476074

----------../modules/template/controllers/order/detail----------
administrator - Tanggal/Waktu : 01-Aug-2021/10:30:07 AM => 
 --> 
    SELECT `o`.*, `p`.`nama` as `nama_pembeli`, `isa`.`status`, `pt`.`potongan` as `jenis_potongan`, `mb`.`metode` 
    FROM `order` `o` 
    JOIN `pembeli` `p` ON `o`.`pembeli` = `p`.`id` 
    JOIN ( 
    SELECT max( id)  id, `order` 
    FROM order_status 
    GROUP     BY `order`)  iss ON `iss`.`order` = `o`.`id` 
    JOIN `order_status` `isa` ON `isa`.`id` = `iss`.`id` 
    JOIN `metode_bayar` `mb` ON `mb`.`id` = `o`.`metode_bayar` 
    LEFT     JOIN `potongan` `pt` ON `pt`.`id` = `o`.`potongan` 
    WHERE `o`.`id` = '28' 
    LIMIT 1000
 --> Execution Time: 0.0013408660888672, Seconds : 1.3408660888672
administrator - Tanggal/Waktu : 01-Aug-2021/10:30:07 AM => 
 --> 
    SELECT `ip`.*, `ps`.`satuan`, `ps`.`harga`, `p`.`product` as `nama_product`, `s`.`nama_satuan`, `ps`.`qty` as `konversi`, `p`.`id` as `product_id` 
    FROM `order_product` `ip` 
    JOIN `product_satuan` `ps` ON `ps`.`id` = `ip`.`product_satuan` 
    JOIN `product` `p` ON `p`.`id` = `ps`.`product` 
    LEFT     JOIN `satuan` `s` ON `s`.`id` = `ps`.`satuan` 
    WHERE `ip`.`order` = '28' 
    AND `ip`.`deleted` =0 
    ORDER     BY `ip`.`id` 
    LIMIT 1000
 --> Execution Time: 0.00081515312194824, Seconds : 0.81515312194824
administrator - Tanggal/Waktu : 01-Aug-2021/10:30:07 AM => 
 --> 
    SELECT `ipp`.*, `pt`.`potongan` as `jenis_potongan` 
    FROM `order_pot_product` `ipp` 
    LEFT     JOIN `potongan` `pt` ON `pt`.`id` = `ipp`.`potongan` 
    WHERE `ipp`.`deleted` =0 
    AND `ipp`.`order_product` = '30' 
    LIMIT 1000
 --> Execution Time: 0.00053501129150391, Seconds : 0.53501129150391
administrator - Tanggal/Waktu : 01-Aug-2021/10:30:07 AM => 
 --> 
    SELECT `ps`.*, `pst`.`stock`, `s`.`nama_satuan` as `current_satuan`, `sp`.`nama_satuan` as `parent_satuan`, `psp`.`id` as `parent_product_satuan`, `psp`.`qty` as `qty_parent`, `pstp`.`stock` as `parent_stock`, `pst`.`id` as `cur_product_stock`, `pstp`.`id` as `parent_product_stock`, `pdc`.`product` as `nama_product` 
    FROM `product_satuan` `ps` 
    JOIN `product_stock` `pst` ON `pst`.`product_satuan` = `ps`.`id` 
    JOIN `satuan` `s` ON `s`.`id` = `ps`.`satuan` 
    LEFT     JOIN `satuan` `sp` ON `sp`.`id` = `s`.`parent` 
    LEFT     JOIN `product_satuan` `psp` ON `psp`.`satuan` = `sp`.`id` 
    AND `psp`.`product` = `ps`.`product` 
    LEFT     JOIN `product_stock` `pstp` ON `pstp`.`product_satuan` = `psp`.`id` 
    JOIN `product` `pdc` ON `pdc`.`id` = `ps`.`product` 
    WHERE `ps`.`deleted` 
    IS     NULL     OR `ps`.`deleted` =0 
    AND `ps`.`id` = '9' 
    LIMIT 1000
 --> Execution Time: 0.0010890960693359, Seconds : 1.0890960693359
administrator - Tanggal/Waktu : 01-Aug-2021/10:30:07 AM => 
 --> 
    SELECT * 
    FROM `general` 
    LIMIT 1000
 --> Execution Time: 0.00068998336791992, Seconds : 0.68998336791992
administrator - Tanggal/Waktu : 01-Aug-2021/10:30:07 AM => 
 --> 
    SELECT i.* 
    FROM invoice i 
    JOIN ( 
    SELECT max( id)  id, invoice 
    FROM invoice_status 
    GROUP     BY invoice)  iss on iss.invoice = i.id 
    JOIN invoice_status isa on isa.id = iss.id 
    WHERE isa.status = 'DRAFT' 
    AND i.deleted = 0 
    ORDER     BY i.id 
    DESC     LIMIT 5 
    OFFSET 0
 --> Execution Time: 0.0010321140289307, Seconds : 1.0321140289307
administrator - Tanggal/Waktu : 01-Aug-2021/10:30:07 AM => 
 --> 
    SELECT o.* 
    FROM `order` o 
    JOIN ( 
    SELECT max( id)  id, `order` 
    FROM order_status 
    GROUP     BY `order`)  oss on oss.order = o.id 
    JOIN order_status os on os.id = oss.id 
    WHERE os.status = 'DRAFT' 
    AND o.deleted = 0 
    ORDER     BY o.id 
    DESC     LIMIT 5 
    OFFSET 0
 --> Execution Time: 0.001255989074707, Seconds : 1.255989074707
administrator - Tanggal/Waktu : 01-Aug-2021/10:30:07 AM => 
 --> 
    SELECT ro.* 
    FROM retur_order ro 
    JOIN `order` o on o.id = ro.id 
    JOIN ( 
    SELECT max( id)  id, `order` 
    FROM order_status 
    GROUP     BY `order`)  oss on oss.order = o.id 
    JOIN order_status os on os.id = oss.id 
    WHERE ro.deleted = 0 
    AND os.status = 'DRAFT' 
    AND ro.deleted = 0 
    ORDER     BY ro.id 
    DESC     LIMIT 5 
    OFFSET 0
 --> Execution Time: 0.00064396858215332, Seconds : 0.64396858215332

----------../modules/template/controllers/order/add----------
administrator - Tanggal/Waktu : 01-Aug-2021/10:30:07 AM => 
 --> 
    SELECT `ps`.*, `p`.`product` as `nama_product`, `s`.`nama_satuan`, `pst`.`stock`, `p`.`kode_product` 
    FROM `product_satuan` `ps` 
    JOIN `product` `p` ON `ps`.`product` = `p`.`id` 
    LEFT     JOIN `satuan` `s` ON `ps`.`satuan` = `s`.`id` 
    JOIN `product_stock` `pst` ON `p`.`id` = `pst`.`product` 
    WHERE `ps`.`deleted` =0 
    OR `ps`.`deleted` 
    IS     NULL     LIMIT 1000
 --> Execution Time: 0.0014979839324951, Seconds : 1.4979839324951
administrator - Tanggal/Waktu : 01-Aug-2021/10:30:07 AM => 
 --> 
    SELECT `p`.* 
    FROM `pembeli` `p` 
    WHERE `p`.`deleted` =0 
    OR `p`.`deleted` 
    IS     NULL     AND `p`.`pembeli_kategori` = 2 
    LIMIT 1000
 --> Execution Time: 0.00077605247497559, Seconds : 0.77605247497559
administrator - Tanggal/Waktu : 01-Aug-2021/10:30:07 AM => 
 --> 
    SELECT * 
    FROM `metode_bayar` 
    LIMIT 1000
 --> Execution Time: 0.00041294097900391, Seconds : 0.41294097900391
administrator - Tanggal/Waktu : 01-Aug-2021/10:30:07 AM => 
 --> 
    SELECT `p`.* 
    FROM `pajak` `p` 
    WHERE `p`.`deleted` =0 
    OR `p`.`deleted` 
    IS     NULL     LIMIT 1000
 --> Execution Time: 0.00043511390686035, Seconds : 0.43511390686035
administrator - Tanggal/Waktu : 01-Aug-2021/10:30:07 AM => 
 --> 
    SELECT * 
    FROM `potongan` 
    ORDER     BY `id` 
    DESC     LIMIT 1000
 --> Execution Time: 0.00036787986755371, Seconds : 0.36787986755371
administrator - Tanggal/Waktu : 01-Aug-2021/10:30:07 AM => 
 --> 
    SELECT p.* , ps.stock 
    FROM product p 
    LEFT     JOIN ( 
    SELECT max( id)  id, product 
    FROM product_stock 
    GROUP     BY product)  ps_max on ps_max.product = p.id 
    LEFT     JOIN product_stock ps on ps.id = ps_max.id 
    LEFT     JOIN product_satuan pst on ps.product_satuan = pst.id 
    LEFT     JOIN satuan s on s.id = pst.satuan 
    WHERE p.deleted = 0 
    AND s.nama_satuan = 'PCS'
 --> Execution Time: 0.0010120868682861, Seconds : 1.0120868682861
administrator - Tanggal/Waktu : 01-Aug-2021/10:30:07 AM => 
 --> 
    SELECT * 
    FROM `general` 
    LIMIT 1000
 --> Execution Time: 0.00041007995605469, Seconds : 0.41007995605469
administrator - Tanggal/Waktu : 01-Aug-2021/10:30:07 AM => 
 --> 
    SELECT i.* 
    FROM invoice i 
    JOIN ( 
    SELECT max( id)  id, invoice 
    FROM invoice_status 
    GROUP     BY invoice)  iss on iss.invoice = i.id 
    JOIN invoice_status isa on isa.id = iss.id 
    WHERE isa.status = 'DRAFT' 
    AND i.deleted = 0 
    ORDER     BY i.id 
    DESC     LIMIT 5 
    OFFSET 0
 --> Execution Time: 0.00097799301147461, Seconds : 0.97799301147461
administrator - Tanggal/Waktu : 01-Aug-2021/10:30:07 AM => 
 --> 
    SELECT o.* 
    FROM `order` o 
    JOIN ( 
    SELECT max( id)  id, `order` 
    FROM order_status 
    GROUP     BY `order`)  oss on oss.order = o.id 
    JOIN order_status os on os.id = oss.id 
    WHERE os.status = 'DRAFT' 
    AND o.deleted = 0 
    ORDER     BY o.id 
    DESC     LIMIT 5 
    OFFSET 0
 --> Execution Time: 0.0011920928955078, Seconds : 1.1920928955078
administrator - Tanggal/Waktu : 01-Aug-2021/10:30:07 AM => 
 --> 
    SELECT ro.* 
    FROM retur_order ro 
    JOIN `order` o on o.id = ro.id 
    JOIN ( 
    SELECT max( id)  id, `order` 
    FROM order_status 
    GROUP     BY `order`)  oss on oss.order = o.id 
    JOIN order_status os on os.id = oss.id 
    WHERE ro.deleted = 0 
    AND os.status = 'DRAFT' 
    AND ro.deleted = 0 
    ORDER     BY ro.id 
    DESC     LIMIT 5 
    OFFSET 0
 --> Execution Time: 0.00057697296142578, Seconds : 0.57697296142578

----------../modules/template/controllers/faktur_pelanggan/detail----------
administrator - Tanggal/Waktu : 01-Aug-2021/10:30:07 AM => 
 --> 
    SELECT `i`.*, `p`.`nama` as `nama_pembeli`, `ist`.`status`, `o`.`no_order`, `p`.`alamat`, `pt`.`potongan` as `jenis_potongan`, `jp`.`metode`, `pg`.`nama` as `sales` 
    FROM `invoice` `i` 
    JOIN `pembeli` `p` ON `i`.`pembeli` = `p`.`id` 
    JOIN ( 
    SELECT max( id)  id, invoice 
    FROM invoice_status 
    GROUP     BY invoice)  iss ON `iss`.`invoice` = `i`.`id` 
    JOIN `invoice_status` `ist` ON `ist`.`id` = `iss`.`id` 
    LEFT     JOIN `order` `o` ON `o`.`id` = `i`.`ref` 
    LEFT     JOIN `metode_bayar` `jp` ON `jp`.`id` = `i`.`metode_bayar` 
    LEFT     JOIN `potongan` `pt` ON `pt`.`id` = `i`.`potongan` 
    LEFT     JOIN `user` `usr` ON `usr`.`id` = `o`.`createdby` 
    LEFT     JOIN `pegawai` `pg` ON `pg`.`id` = `usr`.`pegawai` 
    WHERE `i`.`id` = '31' 
    LIMIT 1000
 --> Execution Time: 0.0054380893707275, Seconds : 5.4380893707275
administrator - Tanggal/Waktu : 01-Aug-2021/10:30:07 AM => 
 --> 
    SELECT `ip`.*, `ps`.`satuan`, `ps`.`harga`, `p`.`product` as `nama_product`, `p`.`kode_product`, `b`.`nama_bank`, `b`.`akun`, `b`.`no_rekening`, `s`.`nama_satuan` 
    FROM `invoice_product` `ip` 
    JOIN `product_satuan` `ps` ON `ps`.`id` = `ip`.`product_satuan` 
    JOIN `product` `p` ON `p`.`id` = `ps`.`product` 
    LEFT     JOIN `bank` `b` ON `b`.`id` = `ip`.`bank` 
    LEFT     JOIN `satuan` `s` ON `s`.`id` = `ps`.`satuan` 
    WHERE `ip`.`invoice` = '31' 
    AND `ip`.`deleted` =0 
    ORDER     BY `ip`.`id` 
    LIMIT 1000
 --> Execution Time: 0.0010359287261963, Seconds : 1.0359287261963
administrator - Tanggal/Waktu : 01-Aug-2021/10:30:07 AM => 
 --> 
    SELECT `ipp`.*, `pt`.`potongan` as `jenis_potongan` 
    FROM `invoice_pot_product` `ipp` 
    LEFT     JOIN `potongan` `pt` ON `pt`.`id` = `ipp`.`potongan` 
    WHERE `ipp`.`deleted` =0 
    AND `ipp`.`invoice_product` = '31' 
    LIMIT 1000
 --> Execution Time: 0.00076103210449219, Seconds : 0.76103210449219
administrator - Tanggal/Waktu : 01-Aug-2021/10:30:07 AM => 
 --> 
    SELECT * 
    FROM `jenis_pembayaran` 
    LIMIT 1000
 --> Execution Time: 0.00073909759521484, Seconds : 0.73909759521484
administrator - Tanggal/Waktu : 01-Aug-2021/10:30:07 AM => 
 --> 
    SELECT * 
    FROM `general` 
    LIMIT 1000
 --> Execution Time: 0.00041007995605469, Seconds : 0.41007995605469
administrator - Tanggal/Waktu : 01-Aug-2021/10:30:07 AM => 
 --> 
    SELECT i.* 
    FROM invoice i 
    JOIN ( 
    SELECT max( id)  id, invoice 
    FROM invoice_status 
    GROUP     BY invoice)  iss on iss.invoice = i.id 
    JOIN invoice_status isa on isa.id = iss.id 
    WHERE isa.status = 'DRAFT' 
    AND i.deleted = 0 
    ORDER     BY i.id 
    DESC     LIMIT 5 
    OFFSET 0
 --> Execution Time: 0.0013010501861572, Seconds : 1.3010501861572
administrator - Tanggal/Waktu : 01-Aug-2021/10:30:07 AM => 
 --> 
    SELECT o.* 
    FROM `order` o 
    JOIN ( 
    SELECT max( id)  id, `order` 
    FROM order_status 
    GROUP     BY `order`)  oss on oss.order = o.id 
    JOIN order_status os on os.id = oss.id 
    WHERE os.status = 'DRAFT' 
    AND o.deleted = 0 
    ORDER     BY o.id 
    DESC     LIMIT 5 
    OFFSET 0
 --> Execution Time: 0.0013899803161621, Seconds : 1.3899803161621
administrator - Tanggal/Waktu : 01-Aug-2021/10:30:07 AM => 
 --> 
    SELECT ro.* 
    FROM retur_order ro 
    JOIN `order` o on o.id = ro.id 
    JOIN ( 
    SELECT max( id)  id, `order` 
    FROM order_status 
    GROUP     BY `order`)  oss on oss.order = o.id 
    JOIN order_status os on os.id = oss.id 
    WHERE ro.deleted = 0 
    AND os.status = 'DRAFT' 
    AND ro.deleted = 0 
    ORDER     BY ro.id 
    DESC     LIMIT 5 
    OFFSET 0
 --> Execution Time: 0.00076794624328613, Seconds : 0.76794624328613
