
----------../modules/database/controllers/product_stock/getSatuanProduk----------
administrator - Tanggal/Waktu : 07-Aug-2021/08:40:48 AM => 
 --> 
    SELECT `ps`.*, `s`.`nama_satuan`, `sp`.`nama_satuan` as `satuan_parent` 
    FROM `product_satuan` `ps` 
    LEFT     JOIN `satuan` `s` ON `ps`.`satuan` = `s`.`id` 
    LEFT     JOIN `satuan` `sp` ON `s`.`parent` = `sp`.`id` 
    WHERE `ps`.`deleted` =0 
    AND `ps`.`product` = '3160' 
    ORDER     BY `ps`.`id` 
    ASC     LIMIT 1
 --> Execution Time: 0.0011391639709473, Seconds : 1.1391639709473
