
----------../modules/jadwal/controllers/jadwal/simpanSpbjl----------
admin - Tanggal/Waktu : 11-Nov-2021/13:35:15 PM => 
 --> 
    SELECT * 
    FROM type_transaction 
    WHERE term_id = 'SUB_SPBJL'
 --> Execution Time: 0.00042986869812012, Seconds : 0.42986869812012
admin - Tanggal/Waktu : 11-Nov-2021/13:35:15 PM => 
 --> 
    INSERT     INTO `actor` ( `user`, `createddate`)  
    VALUES ( '1', '2021-11-11 13:35:15') 
 --> Execution Time: 0.0011060237884521, Seconds : 1.1060237884521
admin - Tanggal/Waktu : 11-Nov-2021/13:35:15 PM => 
 --> 
    UPDATE `schedule` 
    SET `type_transaction` = '1', `uraian_pekerjaan` = 'Nota Dinas Manajer', `no_dokumen` = '/630/M.UPT PBLG/2021', `standard` = '', `cepat` = '', `manual` = '', `upt` = '4', `as_tanggal_pekerjaan` = '0', `updateddate` = '2021-11-11 13:35:15', `updatedby` = 4 
    WHERE `id` = '1'
 --> Execution Time: 0.0046300888061523, Seconds : 4.6300888061523
admin - Tanggal/Waktu : 11-Nov-2021/13:35:15 PM => 
 --> 
    UPDATE `schedule` 
    SET `type_transaction` = '1', `uraian_pekerjaan` = 'Dokumen Pengadaan Langsung', `no_dokumen` = '.DPL/DAN.01.01/UPT PBLG/2021', `standard` = '1', `cepat` = '', `manual` = '', `upt` = '4', `as_tanggal_pekerjaan` = '0', `updateddate` = '2021-11-11 13:35:15', `updatedby` = 4 
    WHERE `id` = '2'
 --> Execution Time: 0.00037002563476562, Seconds : 0.37002563476562
admin - Tanggal/Waktu : 11-Nov-2021/13:35:15 PM => 
 --> 
    UPDATE `schedule` 
    SET `type_transaction` = '1', `uraian_pekerjaan` = 'Harga Perkiraan Sendiri', `no_dokumen` = '.HPS/DAN.01.01/C36040000/2021', `standard` = '3', `cepat` = '1', `manual` = '', `upt` = '4', `as_tanggal_pekerjaan` = '0', `updateddate` = '2021-11-11 13:35:15', `updatedby` = 4 
    WHERE `id` = '3'
 --> Execution Time: 0.00026297569274902, Seconds : 0.26297569274902
admin - Tanggal/Waktu : 11-Nov-2021/13:35:15 PM => 
 --> 
    UPDATE `schedule` 
    SET `type_transaction` = '1', `uraian_pekerjaan` = 'Lampiran HPS', `no_dokumen` = '-', `standard` = '', `cepat` = '', `manual` = '', `upt` = '4', `as_tanggal_pekerjaan` = '0', `updateddate` = '2021-11-11 13:35:15', `updatedby` = 4 
    WHERE `id` = '4'
 --> Execution Time: 0.00033807754516602, Seconds : 0.33807754516602
admin - Tanggal/Waktu : 11-Nov-2021/13:35:15 PM => 
 --> 
    UPDATE `schedule` 
    SET `type_transaction` = '1', `uraian_pekerjaan` = 'Sura Permintaan Penawaran Harga', `no_dokumen` = '.SPPH/DAN.01.01/C36040000/2021', `standard` = '1', `cepat` = '', `manual` = '', `upt` = '4', `as_tanggal_pekerjaan` = '1', `updateddate` = '2021-11-11 13:35:15', `updatedby` = 4 
    WHERE `id` = '5'
 --> Execution Time: 0.00035691261291504, Seconds : 0.35691261291504
