
----------../modules/database/controllers/login/index----------
administrator - Tanggal/Waktu : 08-Aug-2021/11:58:23 AM => 
 --> 
    SELECT * 
    FROM `general` 
    LIMIT 1000
 --> Execution Time: 0.0003960132598877, Seconds : 0.3960132598877
