
----------../modules/order/controllers/order/chooseProduk----------
admin - Tanggal/Waktu : 08-Aug-2021/13:26:56 PM => 
 --> 
    SELECT ps.* , s.nama_satuan , ps.qty as konversi , ps.ket_harga as keterangan 
    FROM product_satuan ps 
    JOIN satuan s on s.id = ps.satuan 
    WHERE ps.product = 1239 
    AND ps.deleted = 0
 --> Execution Time: 0.00067400932312012, Seconds : 0.67400932312012
admin - Tanggal/Waktu : 08-Aug-2021/13:26:56 PM => 
 --> 
    SELECT ps.* , s.nama_satuan , ps.qty as konversi , ps.ket_harga as keterangan 
    FROM product_satuan ps 
    JOIN satuan s on s.id = ps.satuan 
    WHERE ps.product = 1239 
    AND ps.deleted = 0 
    AND ps.satuan_terkecil = 1
 --> Execution Time: 0.0012381076812744, Seconds : 1.2381076812744
