
----------../modules/order/controllers/order/scanBarcodeProduk----------
admin - Tanggal/Waktu : 01-Nov-2021/19:58:47 PM => 
 --> 
    SELECT p.* , ps.stock 
    FROM product p 
    LEFT     JOIN ( 
    SELECT max( id)  id, product 
    FROM product_stock 
    GROUP     BY product)  ps_max on ps_max.product = p.id 
    LEFT     JOIN product_stock ps on ps.id = ps_max.id 
    LEFT     JOIN product_satuan pst on ps.product_satuan = pst.id 
    LEFT     JOIN satuan s on s.id = pst.satuan 
    WHERE p.deleted = 0 
    AND pst.satuan_terkecil = 1 
    AND p.kodebarcode = 'asdasd'
 --> Execution Time: 0.0029680728912354, Seconds : 2.9680728912354
