
----------../modules/template/controllers/unit/index----------
admin - Tanggal/Waktu : 08-Aug-2021/16:42:30 PM => 
 --> 
    SELECT `k`.*, `s`.`nama_satuan` as `nama_group` 
    FROM `satuan` `k` 
    LEFT     JOIN `satuan` `s` ON `k`.`parent` = `s`.`id` 
    WHERE `k`.`deleted` 
    IS     NULL     OR `k`.`deleted` =0 
    LIMIT 10
 --> Execution Time: 0.0020020008087158, Seconds : 2.0020008087158
admin - Tanggal/Waktu : 08-Aug-2021/16:42:30 PM => 
 --> 
    SELECT COUNT( *)  AS `numrows` 
    FROM `satuan` `k` 
    LEFT     JOIN `satuan` `s` ON `k`.`parent` = `s`.`id` 
    WHERE `k`.`deleted` 
    IS     NULL     OR `k`.`deleted` =0
 --> Execution Time: 0.00086688995361328, Seconds : 0.86688995361328
admin - Tanggal/Waktu : 08-Aug-2021/16:42:30 PM => 
 --> 
    SELECT * 
    FROM `general` 
    LIMIT 1000
 --> Execution Time: 0.00057005882263184, Seconds : 0.57005882263184
admin - Tanggal/Waktu : 08-Aug-2021/16:42:30 PM => 
 --> 
    SELECT i.* 
    FROM invoice i 
    JOIN ( 
    SELECT max( id)  id, invoice 
    FROM invoice_status 
    GROUP     BY invoice)  iss on iss.invoice = i.id 
    JOIN invoice_status isa on isa.id = iss.id 
    WHERE isa.status = 'DRAFT' 
    AND i.deleted = 0 
    ORDER     BY i.id 
    DESC     LIMIT 5 
    OFFSET 0
 --> Execution Time: 0.0011210441589355, Seconds : 1.1210441589355
admin - Tanggal/Waktu : 08-Aug-2021/16:42:30 PM => 
 --> 
    SELECT o.* 
    FROM `order` o 
    JOIN ( 
    SELECT max( id)  id, `order` 
    FROM order_status 
    GROUP     BY `order`)  oss on oss.order = o.id 
    JOIN order_status os on os.id = oss.id 
    WHERE os.status = 'DRAFT' 
    AND o.deleted = 0 
    ORDER     BY o.id 
    DESC     LIMIT 5 
    OFFSET 0
 --> Execution Time: 0.0010941028594971, Seconds : 1.0941028594971
admin - Tanggal/Waktu : 08-Aug-2021/16:42:30 PM => 
 --> 
    SELECT ro.* 
    FROM retur_order ro 
    JOIN `order` o on o.id = ro.id 
    JOIN ( 
    SELECT max( id)  id, `order` 
    FROM order_status 
    GROUP     BY `order`)  oss on oss.order = o.id 
    JOIN order_status os on os.id = oss.id 
    WHERE ro.deleted = 0 
    AND os.status = 'DRAFT' 
    AND ro.deleted = 0 
    ORDER     BY ro.id 
    DESC     LIMIT 5 
    OFFSET 0
 --> Execution Time: 0.00087308883666992, Seconds : 0.87308883666992
