
----------../modules/jadwal/controllers/jadwal/simpanSpbjl----------
 - Tanggal/Waktu : 11-Nov-2021/12:34:21 PM => 
 --> 
    SELECT * 
    FROM type_transaction 
    WHERE term_id = 'SUB_SPBJL'
 --> Execution Time: 0.00042080879211426, Seconds : 0.42080879211426
 - Tanggal/Waktu : 11-Nov-2021/12:34:21 PM => 
 --> 
    UPDATE `schedule` 
    SET `type_transaction` = '1', `uraian_pekerjaan` = 'Nota Dinas Manajer', `no_dokumen` = '/630/M.UPT PBLG/2021', `standard` = '', `cepat` = '', `manual` = '', `updateddate` = '2021-11-11 12:34:21' 
    WHERE `id` = '1'
 --> Execution Time: 0.0024261474609375, Seconds : 2.4261474609375
 - Tanggal/Waktu : 11-Nov-2021/12:34:21 PM => 
 --> 
    INSERT     INTO `schedule` ( `type_transaction`, `uraian_pekerjaan`, `no_dokumen`, `standard`, `cepat`, `manual`, `createddate`)  
    VALUES ( '1', 'Dokumen Pengadaan Langsung ( DPL) ', '.DPL/DAN.01.01/UPT PBLG/2021', '1', '', '', '2021-11-11 12:34:21') 
 --> Execution Time: 0.00029087066650391, Seconds : 0.29087066650391
