
----------../modules/template/controllers/document/add----------
admin - Tanggal/Waktu : 11-Nov-2021/13:10:43 PM => 
 --> 
    SELECT s.* , ut.nama_upt 
    FROM schedule s 
    JOIN type_transaction tt on tt.id = s.type_transaction 
    JOIN upt ut on ut.id = s.upt 
    WHERE tt.term_id = 'SUB_SPBJL' 
    AND s.deleted = 0 
    AND ut.id = '4' 
    ORDER     BY s.id asc
 --> Execution Time: 0.0018990039825439, Seconds : 1.8990039825439

----------../modules/not_found/controllers//index----------
