
----------../modules/login/controllers/login/index----------

----------../modules/not_found/controllers//index----------

----------../modules/not_found/controllers//index----------

----------../modules/not_found/controllers//index----------

----------../modules/not_found/controllers//index----------
