
----------../modules/template/controllers/supplier/detail----------
admin - Tanggal/Waktu : 11-Nov-2021/17:49:52 PM => 
 --> 
    SELECT * 
    FROM `vendor` `kr` 
    WHERE `kr`.`id` = '1' 
    LIMIT 1000
 --> Execution Time: 0.00050497055053711, Seconds : 0.50497055053711

----------../modules/not_found/controllers//index----------
