
----------../modules/template/controllers/supplier/search----------
admin - Tanggal/Waktu : 11-Nov-2021/17:56:10 PM => 
 --> 
    SELECT `v`.* 
    FROM `vendor` `v` 
    WHERE `v`.`deleted` =0 
    AND `v`.`nama_vendor` 
    LIKE '%pt%' 
    ESCAPE '!' 
    OR `v`.`email` 
    LIKE '%pt%' 
    ESCAPE '!' 
    OR `v`.`nama_pimpinan` 
    LIKE '%pt%' 
    ESCAPE '!' 
    OR `v`.`nama_bank` 
    LIKE '%pt%' 
    ESCAPE '!' 
    OR `v`.`no_rekening` 
    LIKE '%pt%' 
    ESCAPE '!' 
    LIMIT 25
 --> Execution Time: 0.00060796737670898, Seconds : 0.60796737670898
admin - Tanggal/Waktu : 11-Nov-2021/17:56:10 PM => 
 --> 
    SELECT COUNT( *)  AS `numrows` 
    FROM `vendor` `v` 
    WHERE `v`.`deleted` =0 
    AND `v`.`nama_vendor` 
    LIKE '%pt%' 
    ESCAPE '!' 
    OR `v`.`email` 
    LIKE '%pt%' 
    ESCAPE '!' 
    OR `v`.`nama_pimpinan` 
    LIKE '%pt%' 
    ESCAPE '!' 
    OR `v`.`nama_bank` 
    LIKE '%pt%' 
    ESCAPE '!' 
    OR `v`.`no_rekening` 
    LIKE '%pt%' 
    ESCAPE '!'
 --> Execution Time: 0.00058507919311523, Seconds : 0.58507919311523

----------../modules/not_found/controllers//index----------
