
----------../modules/database/controllers/satuan/simpan----------
administrator - Tanggal/Waktu : 07-Aug-2021/09:23:43 AM => 
 --> 
    UPDATE `product_satuan` 
    SET `product` = '3160', `satuan` = '949', `qty` = '30', `harga` = '100000', `harga_beli` = '90000', `ket_harga` = '', `satuan_terkecil` = 0, `updateddate` = '2021-08-07 09:23:43', `updatedby` = '1' 
    WHERE `id` = '11'
 --> Execution Time: 0.00067901611328125, Seconds : 0.67901611328125

----------../modules/template/controllers/satuan/detail----------
administrator - Tanggal/Waktu : 07-Aug-2021/09:23:43 AM => 
 --> 
    SELECT `kr`.*, `p`.`product` as `nama_product`, `s`.`nama_satuan`, `sp`.`nama_satuan` as `satuan_parent`, `hg`.`harga` as `harga_jual_fix`, `hgs`.`harga` `harga_grosir_fix` 
    FROM `product_satuan` `kr` 
    JOIN `product` `p` ON `kr`.`product` = `p`.`id` 
    JOIN ( 
    SELECT max( id)  id, product_satuan 
    FROM product_has_harga_jual 
    GROUP     BY product_satuan)  hg_max ON `hg_max`.`product_satuan` = `kr`.`id` 
    JOIN `product_has_harga_jual` `hg` ON `hg`.`id` = `hg_max`.`id` 
    LEFT     JOIN ( 
    SELECT max( id)  id, product_satuan 
    FROM product_has_harga_grosir 
    GROUP     BY product_satuan)  hgs_max ON `hgs_max`.`product_satuan` = `kr`.`id` 
    LEFT     JOIN `product_has_harga_grosir` `hgs` ON `hgs`.`id` = `hgs_max`.`id` 
    LEFT     JOIN `satuan` `s` ON `s`.`id` = `kr`.`satuan` 
    LEFT     JOIN `satuan` `sp` ON `sp`.`id` = `s`.`parent` 
    WHERE `kr`.`id` = '11' 
    LIMIT 1000
 --> Execution Time: 0.0019140243530273, Seconds : 1.9140243530273
administrator - Tanggal/Waktu : 07-Aug-2021/09:23:43 AM => 
 --> 
    SELECT * 
    FROM `general` 
    LIMIT 1000
 --> Execution Time: 0.0013759136199951, Seconds : 1.3759136199951
administrator - Tanggal/Waktu : 07-Aug-2021/09:23:43 AM => 
 --> 
    SELECT i.* 
    FROM invoice i 
    JOIN ( 
    SELECT max( id)  id, invoice 
    FROM invoice_status 
    GROUP     BY invoice)  iss on iss.invoice = i.id 
    JOIN invoice_status isa on isa.id = iss.id 
    WHERE isa.status = 'DRAFT' 
    AND i.deleted = 0 
    ORDER     BY i.id 
    DESC     LIMIT 5 
    OFFSET 0
 --> Execution Time: 0.0011630058288574, Seconds : 1.1630058288574
administrator - Tanggal/Waktu : 07-Aug-2021/09:23:43 AM => 
 --> 
    SELECT o.* 
    FROM `order` o 
    JOIN ( 
    SELECT max( id)  id, `order` 
    FROM order_status 
    GROUP     BY `order`)  oss on oss.order = o.id 
    JOIN order_status os on os.id = oss.id 
    WHERE os.status = 'DRAFT' 
    AND o.deleted = 0 
    ORDER     BY o.id 
    DESC     LIMIT 5 
    OFFSET 0
 --> Execution Time: 0.0014238357543945, Seconds : 1.4238357543945
administrator - Tanggal/Waktu : 07-Aug-2021/09:23:43 AM => 
 --> 
    SELECT ro.* 
    FROM retur_order ro 
    JOIN `order` o on o.id = ro.id 
    JOIN ( 
    SELECT max( id)  id, `order` 
    FROM order_status 
    GROUP     BY `order`)  oss on oss.order = o.id 
    JOIN order_status os on os.id = oss.id 
    WHERE ro.deleted = 0 
    AND os.status = 'DRAFT' 
    AND ro.deleted = 0 
    ORDER     BY ro.id 
    DESC     LIMIT 5 
    OFFSET 0
 --> Execution Time: 0.00079917907714844, Seconds : 0.79917907714844
