
----------../modules/database/controllers/login/index----------
 - Tanggal/Waktu : 06-Aug-2021/10:09:16 AM => 
 --> 
    SELECT * 
    FROM `general` 
    LIMIT 1000
 --> Execution Time: 0.00036907196044922, Seconds : 0.36907196044922
