
----------../modules/template/controllers/supplier/index----------
admin - Tanggal/Waktu : 11-Nov-2021/18:01:57 PM => 
 --> 
    SELECT `v`.* 
    FROM `vendor` `v` 
    WHERE `v`.`deleted` =0 
    LIMIT 1, 1
 --> Execution Time: 0.00076484680175781, Seconds : 0.76484680175781
admin - Tanggal/Waktu : 11-Nov-2021/18:01:57 PM => 
 --> 
    SELECT COUNT( *)  AS `numrows` 
    FROM `vendor` `v` 
    WHERE `v`.`deleted` =0
 --> Execution Time: 0.0005040168762207, Seconds : 0.5040168762207

----------../modules/not_found/controllers//index----------
