
----------../modules/template/controllers/dashboard/index----------
administrator - Tanggal/Waktu : 31-Jul-2021/18:51:28 PM => 
 --> \n SELECT `i`.*, `p`.`nama` as `nama_pembeli`, `p`.`no_hp`, `p`.`alamat`, `isa`.`status` \n FROM `invoice` `i` \n JOIN `pembeli` `p` ON `i`.`pembeli` = `p`.`id` \n JOIN ( \n SELECT max( id)  id, invoice \n FROM invoice_status \n GROUP BY invoice)  iss ON `i`.`id` = `iss`.`invoice` \n JOIN `invoice_status` `isa` ON `isa`.`id`= `iss`.`id` \n WHERE `i`.`deleted` =0 \n ORDER BY `i`.`id` \n DESC LIMIT 5
 --> Execution Time: 0.0014009475708008, Seconds : 1.4009475708008
administrator - Tanggal/Waktu : 31-Jul-2021/18:51:28 PM => 
 --> \n SELECT sum( total)  as total \n FROM invoice \n WHERE tanggal_faktur \n LIKE '%2021%' \n AND deleted = 0 \n LIMIT 1000 \n OFFSET 0
 --> Execution Time: 0.00045514106750488, Seconds : 0.45514106750488
administrator - Tanggal/Waktu : 31-Jul-2021/18:51:28 PM => 
 --> \n SELECT count( *)  as jumlah \n FROM invoice \n WHERE tanggal_faktur \n LIKE '%2021%' \n AND deleted = 0 \n LIMIT 1000 \n OFFSET 0
 --> Execution Time: 0.00032687187194824, Seconds : 0.32687187194824
administrator - Tanggal/Waktu : 31-Jul-2021/18:51:28 PM => 
 --> \n SELECT sum( i.total)  as total \n FROM invoice i \n JOIN ( \n SELECT max( id)  id, invoice \n FROM invoice_status \n GROUP BY invoice)  iss on iss.invoice = i.id \n JOIN invoice_status isa on isa.id = iss.id \n WHERE isa.status = 'PAID' \n AND i.tanggal_faktur \n LIKE '%2021%' \n AND i.deleted = 0 \n LIMIT 1000 \n OFFSET 0
 --> Execution Time: 0.00082588195800781, Seconds : 0.82588195800781
administrator - Tanggal/Waktu : 31-Jul-2021/18:51:28 PM => 
 --> \n SELECT pt.total , QUARTER( pt.createddate)  AS quartal \n FROM pembayaran_tagihan pt \n WHERE pt.createddate \n LIKE '%2021%' \n LIMIT 1000 \n OFFSET 0
 --> Execution Time: 0.0005950927734375, Seconds : 0.5950927734375
administrator - Tanggal/Waktu : 31-Jul-2021/18:51:28 PM => 
 --> \n SELECT pv.total , QUARTER( pv.createddate)  AS quartal \n FROM pembayaran_vendor pv \n WHERE pv.createddate \n LIKE '%2021%' \n LIMIT 1000 \n OFFSET 0
 --> Execution Time: 0.00084280967712402, Seconds : 0.84280967712402
administrator - Tanggal/Waktu : 31-Jul-2021/18:51:28 PM => 
 --> \n SELECT pl.total , QUARTER( pl.createddate)  AS quartal \n FROM pembayaran_lain_lain pl \n WHERE pl.createddate \n LIKE '%2021%' \n LIMIT 1000 \n OFFSET 0
 --> Execution Time: 0.0004570484161377, Seconds : 0.4570484161377
administrator - Tanggal/Waktu : 31-Jul-2021/18:51:28 PM => 
 --> \n SELECT * \n FROM `product` \n LIMIT 1000
 --> Execution Time: 0.00060105323791504, Seconds : 0.60105323791504
administrator - Tanggal/Waktu : 31-Jul-2021/18:51:28 PM => 
 --> \n SELECT * \n FROM `pembeli` \n LIMIT 1000
 --> Execution Time: 0.00047898292541504, Seconds : 0.47898292541504
administrator - Tanggal/Waktu : 31-Jul-2021/18:51:28 PM => 
 --> \n SELECT * \n FROM `user` \n LIMIT 1000
 --> Execution Time: 0.00047898292541504, Seconds : 0.47898292541504
administrator - Tanggal/Waktu : 31-Jul-2021/18:51:28 PM => 
 --> \n SELECT * \n FROM invoice \n WHERE createddate \n LIKE '%2021-01%' \n AND deleted = 0 \n LIMIT 1000 \n OFFSET 0
 --> Execution Time: 0.00043702125549316, Seconds : 0.43702125549316
administrator - Tanggal/Waktu : 31-Jul-2021/18:51:28 PM => 
 --> \n SELECT * \n FROM invoice \n WHERE createddate \n LIKE '%2021-02%' \n AND deleted = 0 \n LIMIT 1000 \n OFFSET 0
 --> Execution Time: 0.00036096572875977, Seconds : 0.36096572875977
administrator - Tanggal/Waktu : 31-Jul-2021/18:51:28 PM => 
 --> \n SELECT * \n FROM invoice \n WHERE createddate \n LIKE '%2021-03%' \n AND deleted = 0 \n LIMIT 1000 \n OFFSET 0
 --> Execution Time: 0.00032496452331543, Seconds : 0.32496452331543
administrator - Tanggal/Waktu : 31-Jul-2021/18:51:28 PM => 
 --> \n SELECT * \n FROM invoice \n WHERE createddate \n LIKE '%2021-04%' \n AND deleted = 0 \n LIMIT 1000 \n OFFSET 0
 --> Execution Time: 0.00034284591674805, Seconds : 0.34284591674805
administrator - Tanggal/Waktu : 31-Jul-2021/18:51:28 PM => 
 --> \n SELECT * \n FROM invoice \n WHERE createddate \n LIKE '%2021-05%' \n AND deleted = 0 \n LIMIT 1000 \n OFFSET 0
 --> Execution Time: 0.00036406517028809, Seconds : 0.36406517028809
administrator - Tanggal/Waktu : 31-Jul-2021/18:51:28 PM => 
 --> \n SELECT * \n FROM invoice \n WHERE createddate \n LIKE '%2021-06%' \n AND deleted = 0 \n LIMIT 1000 \n OFFSET 0
 --> Execution Time: 0.00034093856811523, Seconds : 0.34093856811523
administrator - Tanggal/Waktu : 31-Jul-2021/18:51:28 PM => 
 --> \n SELECT * \n FROM invoice \n WHERE createddate \n LIKE '%2021-07%' \n AND deleted = 0 \n LIMIT 1000 \n OFFSET 0
 --> Execution Time: 0.00038599967956543, Seconds : 0.38599967956543
administrator - Tanggal/Waktu : 31-Jul-2021/18:51:28 PM => 
 --> \n SELECT * \n FROM invoice \n WHERE createddate \n LIKE '%2021-08%' \n AND deleted = 0 \n LIMIT 1000 \n OFFSET 0
 --> Execution Time: 0.00032210350036621, Seconds : 0.32210350036621
administrator - Tanggal/Waktu : 31-Jul-2021/18:51:28 PM => 
 --> \n SELECT * \n FROM invoice \n WHERE createddate \n LIKE '%2021-09%' \n AND deleted = 0 \n LIMIT 1000 \n OFFSET 0
 --> Execution Time: 0.00031304359436035, Seconds : 0.31304359436035
administrator - Tanggal/Waktu : 31-Jul-2021/18:51:28 PM => 
 --> \n SELECT * \n FROM invoice \n WHERE createddate \n LIKE '%2021-10%' \n AND deleted = 0 \n LIMIT 1000 \n OFFSET 0
 --> Execution Time: 0.00027894973754883, Seconds : 0.27894973754883
administrator - Tanggal/Waktu : 31-Jul-2021/18:51:28 PM => 
 --> \n SELECT * \n FROM invoice \n WHERE createddate \n LIKE '%2021-11%' \n AND deleted = 0 \n LIMIT 1000 \n OFFSET 0
 --> Execution Time: 0.0015208721160889, Seconds : 1.5208721160889
administrator - Tanggal/Waktu : 31-Jul-2021/18:51:28 PM => 
 --> \n SELECT js.id, c.keterangan , ct.jenis \n FROM jurnal_detail jd \n JOIN jurnal_struktur js on jd.jurnal_struktur = js.id \n JOIN feature f on js.feature = f.id \n JOIN coa c on c.id = js.coa \n JOIN coa_type ct on ct.id = js.coa_type \n WHERE c.keterangan = 'Bank & Kas' \n AND jd.deleted = 0 \n AND jd.createddate \n LIKE '%2021-01%' \n AND ct.jenis = 'KREDIT' \n LIMIT 1000 \n OFFSET 0
 --> Execution Time: 0.0010881423950195, Seconds : 1.0881423950195
administrator - Tanggal/Waktu : 31-Jul-2021/18:51:28 PM => 
 --> \n SELECT js.id, c.keterangan , ct.jenis \n FROM jurnal_detail jd \n JOIN jurnal_struktur js on jd.jurnal_struktur = js.id \n JOIN feature f on js.feature = f.id \n JOIN coa c on c.id = js.coa \n JOIN coa_type ct on ct.id = js.coa_type \n WHERE c.keterangan = 'Bank & Kas' \n AND jd.deleted = 0 \n AND jd.createddate \n LIKE '%2021-02%' \n AND ct.jenis = 'KREDIT' \n LIMIT 1000 \n OFFSET 0
 --> Execution Time: 0.00060606002807617, Seconds : 0.60606002807617
administrator - Tanggal/Waktu : 31-Jul-2021/18:51:28 PM => 
 --> \n SELECT js.id, c.keterangan , ct.jenis \n FROM jurnal_detail jd \n JOIN jurnal_struktur js on jd.jurnal_struktur = js.id \n JOIN feature f on js.feature = f.id \n JOIN coa c on c.id = js.coa \n JOIN coa_type ct on ct.id = js.coa_type \n WHERE c.keterangan = 'Bank & Kas' \n AND jd.deleted = 0 \n AND jd.createddate \n LIKE '%2021-03%' \n AND ct.jenis = 'KREDIT' \n LIMIT 1000 \n OFFSET 0
 --> Execution Time: 0.0005800724029541, Seconds : 0.5800724029541
administrator - Tanggal/Waktu : 31-Jul-2021/18:51:28 PM => 
 --> \n SELECT js.id, c.keterangan , ct.jenis \n FROM jurnal_detail jd \n JOIN jurnal_struktur js on jd.jurnal_struktur = js.id \n JOIN feature f on js.feature = f.id \n JOIN coa c on c.id = js.coa \n JOIN coa_type ct on ct.id = js.coa_type \n WHERE c.keterangan = 'Bank & Kas' \n AND jd.deleted = 0 \n AND jd.createddate \n LIKE '%2021-04%' \n AND ct.jenis = 'KREDIT' \n LIMIT 1000 \n OFFSET 0
 --> Execution Time: 0.00053906440734863, Seconds : 0.53906440734863
administrator - Tanggal/Waktu : 31-Jul-2021/18:51:28 PM => 
 --> \n SELECT js.id, c.keterangan , ct.jenis \n FROM jurnal_detail jd \n JOIN jurnal_struktur js on jd.jurnal_struktur = js.id \n JOIN feature f on js.feature = f.id \n JOIN coa c on c.id = js.coa \n JOIN coa_type ct on ct.id = js.coa_type \n WHERE c.keterangan = 'Bank & Kas' \n AND jd.deleted = 0 \n AND jd.createddate \n LIKE '%2021-05%' \n AND ct.jenis = 'KREDIT' \n LIMIT 1000 \n OFFSET 0
 --> Execution Time: 0.00050783157348633, Seconds : 0.50783157348633
administrator - Tanggal/Waktu : 31-Jul-2021/18:51:28 PM => 
 --> \n SELECT js.id, c.keterangan , ct.jenis \n FROM jurnal_detail jd \n JOIN jurnal_struktur js on jd.jurnal_struktur = js.id \n JOIN feature f on js.feature = f.id \n JOIN coa c on c.id = js.coa \n JOIN coa_type ct on ct.id = js.coa_type \n WHERE c.keterangan = 'Bank & Kas' \n AND jd.deleted = 0 \n AND jd.createddate \n LIKE '%2021-06%' \n AND ct.jenis = 'KREDIT' \n LIMIT 1000 \n OFFSET 0
 --> Execution Time: 0.00052905082702637, Seconds : 0.52905082702637
administrator - Tanggal/Waktu : 31-Jul-2021/18:51:28 PM => 
 --> \n SELECT js.id, c.keterangan , ct.jenis \n FROM jurnal_detail jd \n JOIN jurnal_struktur js on jd.jurnal_struktur = js.id \n JOIN feature f on js.feature = f.id \n JOIN coa c on c.id = js.coa \n JOIN coa_type ct on ct.id = js.coa_type \n WHERE c.keterangan = 'Bank & Kas' \n AND jd.deleted = 0 \n AND jd.createddate \n LIKE '%2021-07%' \n AND ct.jenis = 'KREDIT' \n LIMIT 1000 \n OFFSET 0
 --> Execution Time: 0.00059199333190918, Seconds : 0.59199333190918
administrator - Tanggal/Waktu : 31-Jul-2021/18:51:28 PM => 
 --> \n SELECT js.id, c.keterangan , ct.jenis \n FROM jurnal_detail jd \n JOIN jurnal_struktur js on jd.jurnal_struktur = js.id \n JOIN feature f on js.feature = f.id \n JOIN coa c on c.id = js.coa \n JOIN coa_type ct on ct.id = js.coa_type \n WHERE c.keterangan = 'Bank & Kas' \n AND jd.deleted = 0 \n AND jd.createddate \n LIKE '%2021-08%' \n AND ct.jenis = 'KREDIT' \n LIMIT 1000 \n OFFSET 0
 --> Execution Time: 0.00051689147949219, Seconds : 0.51689147949219
administrator - Tanggal/Waktu : 31-Jul-2021/18:51:28 PM => 
 --> \n SELECT js.id, c.keterangan , ct.jenis \n FROM jurnal_detail jd \n JOIN jurnal_struktur js on jd.jurnal_struktur = js.id \n JOIN feature f on js.feature = f.id \n JOIN coa c on c.id = js.coa \n JOIN coa_type ct on ct.id = js.coa_type \n WHERE c.keterangan = 'Bank & Kas' \n AND jd.deleted = 0 \n AND jd.createddate \n LIKE '%2021-09%' \n AND ct.jenis = 'KREDIT' \n LIMIT 1000 \n OFFSET 0
 --> Execution Time: 0.00049281120300293, Seconds : 0.49281120300293
administrator - Tanggal/Waktu : 31-Jul-2021/18:51:28 PM => 
 --> \n SELECT js.id, c.keterangan , ct.jenis \n FROM jurnal_detail jd \n JOIN jurnal_struktur js on jd.jurnal_struktur = js.id \n JOIN feature f on js.feature = f.id \n JOIN coa c on c.id = js.coa \n JOIN coa_type ct on ct.id = js.coa_type \n WHERE c.keterangan = 'Bank & Kas' \n AND jd.deleted = 0 \n AND jd.createddate \n LIKE '%2021-10%' \n AND ct.jenis = 'KREDIT' \n LIMIT 1000 \n OFFSET 0
 --> Execution Time: 0.0004730224609375, Seconds : 0.4730224609375
administrator - Tanggal/Waktu : 31-Jul-2021/18:51:28 PM => 
 --> \n SELECT js.id, c.keterangan , ct.jenis \n FROM jurnal_detail jd \n JOIN jurnal_struktur js on jd.jurnal_struktur = js.id \n JOIN feature f on js.feature = f.id \n JOIN coa c on c.id = js.coa \n JOIN coa_type ct on ct.id = js.coa_type \n WHERE c.keterangan = 'Bank & Kas' \n AND jd.deleted = 0 \n AND jd.createddate \n LIKE '%2021-11%' \n AND ct.jenis = 'KREDIT' \n LIMIT 1000 \n OFFSET 0
 --> Execution Time: 0.00083589553833008, Seconds : 0.83589553833008
administrator - Tanggal/Waktu : 31-Jul-2021/18:51:28 PM => 
 --> \n SELECT js.id, c.keterangan , ct.jenis \n FROM jurnal_detail jd \n JOIN jurnal_struktur js on jd.jurnal_struktur = js.id \n JOIN feature f on js.feature = f.id \n JOIN coa c on c.id = js.coa \n JOIN coa_type ct on ct.id = js.coa_type \n WHERE c.keterangan = 'Bank & Kas' \n AND jd.deleted = 0 \n AND jd.createddate \n LIKE '%2021-01%' \n AND ct.jenis = 'DEBIT' \n LIMIT 1000 \n OFFSET 0
 --> Execution Time: 0.00073695182800293, Seconds : 0.73695182800293
administrator - Tanggal/Waktu : 31-Jul-2021/18:51:28 PM => 
 --> \n SELECT js.id, c.keterangan , ct.jenis \n FROM jurnal_detail jd \n JOIN jurnal_struktur js on jd.jurnal_struktur = js.id \n JOIN feature f on js.feature = f.id \n JOIN coa c on c.id = js.coa \n JOIN coa_type ct on ct.id = js.coa_type \n WHERE c.keterangan = 'Bank & Kas' \n AND jd.deleted = 0 \n AND jd.createddate \n LIKE '%2021-02%' \n AND ct.jenis = 'DEBIT' \n LIMIT 1000 \n OFFSET 0
 --> Execution Time: 0.00062394142150879, Seconds : 0.62394142150879
administrator - Tanggal/Waktu : 31-Jul-2021/18:51:28 PM => 
 --> \n SELECT js.id, c.keterangan , ct.jenis \n FROM jurnal_detail jd \n JOIN jurnal_struktur js on jd.jurnal_struktur = js.id \n JOIN feature f on js.feature = f.id \n JOIN coa c on c.id = js.coa \n JOIN coa_type ct on ct.id = js.coa_type \n WHERE c.keterangan = 'Bank & Kas' \n AND jd.deleted = 0 \n AND jd.createddate \n LIKE '%2021-03%' \n AND ct.jenis = 'DEBIT' \n LIMIT 1000 \n OFFSET 0
 --> Execution Time: 0.00063514709472656, Seconds : 0.63514709472656
administrator - Tanggal/Waktu : 31-Jul-2021/18:51:28 PM => 
 --> \n SELECT js.id, c.keterangan , ct.jenis \n FROM jurnal_detail jd \n JOIN jurnal_struktur js on jd.jurnal_struktur = js.id \n JOIN feature f on js.feature = f.id \n JOIN coa c on c.id = js.coa \n JOIN coa_type ct on ct.id = js.coa_type \n WHERE c.keterangan = 'Bank & Kas' \n AND jd.deleted = 0 \n AND jd.createddate \n LIKE '%2021-04%' \n AND ct.jenis = 'DEBIT' \n LIMIT 1000 \n OFFSET 0
 --> Execution Time: 0.00065898895263672, Seconds : 0.65898895263672
administrator - Tanggal/Waktu : 31-Jul-2021/18:51:28 PM => 
 --> \n SELECT js.id, c.keterangan , ct.jenis \n FROM jurnal_detail jd \n JOIN jurnal_struktur js on jd.jurnal_struktur = js.id \n JOIN feature f on js.feature = f.id \n JOIN coa c on c.id = js.coa \n JOIN coa_type ct on ct.id = js.coa_type \n WHERE c.keterangan = 'Bank & Kas' \n AND jd.deleted = 0 \n AND jd.createddate \n LIKE '%2021-05%' \n AND ct.jenis = 'DEBIT' \n LIMIT 1000 \n OFFSET 0
 --> Execution Time: 0.00083518028259277, Seconds : 0.83518028259277
administrator - Tanggal/Waktu : 31-Jul-2021/18:51:28 PM => 
 --> \n SELECT js.id, c.keterangan , ct.jenis \n FROM jurnal_detail jd \n JOIN jurnal_struktur js on jd.jurnal_struktur = js.id \n JOIN feature f on js.feature = f.id \n JOIN coa c on c.id = js.coa \n JOIN coa_type ct on ct.id = js.coa_type \n WHERE c.keterangan = 'Bank & Kas' \n AND jd.deleted = 0 \n AND jd.createddate \n LIKE '%2021-06%' \n AND ct.jenis = 'DEBIT' \n LIMIT 1000 \n OFFSET 0
 --> Execution Time: 0.00064587593078613, Seconds : 0.64587593078613
administrator - Tanggal/Waktu : 31-Jul-2021/18:51:28 PM => 
 --> \n SELECT js.id, c.keterangan , ct.jenis \n FROM jurnal_detail jd \n JOIN jurnal_struktur js on jd.jurnal_struktur = js.id \n JOIN feature f on js.feature = f.id \n JOIN coa c on c.id = js.coa \n JOIN coa_type ct on ct.id = js.coa_type \n WHERE c.keterangan = 'Bank & Kas' \n AND jd.deleted = 0 \n AND jd.createddate \n LIKE '%2021-07%' \n AND ct.jenis = 'DEBIT' \n LIMIT 1000 \n OFFSET 0
 --> Execution Time: 0.00056004524230957, Seconds : 0.56004524230957
administrator - Tanggal/Waktu : 31-Jul-2021/18:51:28 PM => 
 --> \n SELECT js.id, c.keterangan , ct.jenis \n FROM jurnal_detail jd \n JOIN jurnal_struktur js on jd.jurnal_struktur = js.id \n JOIN feature f on js.feature = f.id \n JOIN coa c on c.id = js.coa \n JOIN coa_type ct on ct.id = js.coa_type \n WHERE c.keterangan = 'Bank & Kas' \n AND jd.deleted = 0 \n AND jd.createddate \n LIKE '%2021-08%' \n AND ct.jenis = 'DEBIT' \n LIMIT 1000 \n OFFSET 0
 --> Execution Time: 0.00061702728271484, Seconds : 0.61702728271484
administrator - Tanggal/Waktu : 31-Jul-2021/18:51:28 PM => 
 --> \n SELECT js.id, c.keterangan , ct.jenis \n FROM jurnal_detail jd \n JOIN jurnal_struktur js on jd.jurnal_struktur = js.id \n JOIN feature f on js.feature = f.id \n JOIN coa c on c.id = js.coa \n JOIN coa_type ct on ct.id = js.coa_type \n WHERE c.keterangan = 'Bank & Kas' \n AND jd.deleted = 0 \n AND jd.createddate \n LIKE '%2021-09%' \n AND ct.jenis = 'DEBIT' \n LIMIT 1000 \n OFFSET 0
 --> Execution Time: 0.00061202049255371, Seconds : 0.61202049255371
administrator - Tanggal/Waktu : 31-Jul-2021/18:51:28 PM => 
 --> \n SELECT js.id, c.keterangan , ct.jenis \n FROM jurnal_detail jd \n JOIN jurnal_struktur js on jd.jurnal_struktur = js.id \n JOIN feature f on js.feature = f.id \n JOIN coa c on c.id = js.coa \n JOIN coa_type ct on ct.id = js.coa_type \n WHERE c.keterangan = 'Bank & Kas' \n AND jd.deleted = 0 \n AND jd.createddate \n LIKE '%2021-10%' \n AND ct.jenis = 'DEBIT' \n LIMIT 1000 \n OFFSET 0
 --> Execution Time: 0.00051712989807129, Seconds : 0.51712989807129
administrator - Tanggal/Waktu : 31-Jul-2021/18:51:28 PM => 
 --> \n SELECT js.id, c.keterangan , ct.jenis \n FROM jurnal_detail jd \n JOIN jurnal_struktur js on jd.jurnal_struktur = js.id \n JOIN feature f on js.feature = f.id \n JOIN coa c on c.id = js.coa \n JOIN coa_type ct on ct.id = js.coa_type \n WHERE c.keterangan = 'Bank & Kas' \n AND jd.deleted = 0 \n AND jd.createddate \n LIKE '%2021-11%' \n AND ct.jenis = 'DEBIT' \n LIMIT 1000 \n OFFSET 0
 --> Execution Time: 0.00049686431884766, Seconds : 0.49686431884766
administrator - Tanggal/Waktu : 31-Jul-2021/18:51:28 PM => 
 --> \n SELECT ( pi.harga * pi.qty)  as harga_beli_total , QUARTER( p.createddate)  AS quartal \n FROM product_has_price_procurement phpr \n JOIN procurement_item pi on pi.id = phpr.procurement_item \n AND pi.deleted = 0 \n JOIN procurement p on p.id = pi.procurement \n WHERE p.deleted = 0 \n AND p.createddate \n LIKE '%2021%'
 --> Execution Time: 0.0011341571807861, Seconds : 1.1341571807861
administrator - Tanggal/Waktu : 31-Jul-2021/18:51:28 PM => 
 --> \n SELECT DISTINCT i.no_faktur ,pi.jumlah_bayar ,( ps.harga_beli * ip.qty)  as harga_beli_total , ip.sub_total as total_faktur , isa.jumlah as sisa_hutang , ist.status \n FROM payment p \n JOIN payment_item pi on p.id = pi.payment \n JOIN invoice i on i.id = pi.invoice \n JOIN metode_bayar mb on mb.id = i.metode_bayar \n JOIN invoice_product ip on ip.invoice = i.id \n JOIN product_satuan ps on ps.id = ip.product_satuan \n JOIN ( \n SELECT max( id)  id, invoice \n FROM invoice_sisa \n GROUP BY invoice)  isa_group on isa_group.invoice = i.id \n JOIN invoice_sisa isa on isa.id = isa_group.id \n JOIN ( \n SELECT max( id)  id, invoice \n FROM invoice_status \n GROUP BY invoice)  ist_group on ist_group.invoice = i.id \n JOIN invoice_status ist on ist.id = ist_group.id \n WHERE p.deleted = 0 \n AND p.createddate \n LIKE '%2021%' \n ORDER BY p.id desc
 --> Execution Time: 0.0074617862701416, Seconds : 7.4617862701416
administrator - Tanggal/Waktu : 31-Jul-2021/18:51:28 PM => 
 --> \n SELECT * \n FROM `general` \n LIMIT 1000
 --> Execution Time: 0.0020310878753662, Seconds : 2.0310878753662
administrator - Tanggal/Waktu : 31-Jul-2021/18:51:28 PM => 
 --> \n SELECT i.* \n FROM invoice i \n JOIN ( \n SELECT max( id)  id, invoice \n FROM invoice_status \n GROUP BY invoice)  iss on iss.invoice = i.id \n JOIN invoice_status isa on isa.id = iss.id \n WHERE isa.status = 'DRAFT' \n AND i.deleted = 0 \n ORDER BY i.id \n DESC LIMIT 5 \n OFFSET 0
 --> Execution Time: 0.0010089874267578, Seconds : 1.0089874267578
administrator - Tanggal/Waktu : 31-Jul-2021/18:51:28 PM => 
 --> \n SELECT o.* \n FROM `order` o \n JOIN ( \n SELECT max( id)  id, `order` \n FROM order_status \n GROUP BY `order`)  oss on oss.order = o.id \n JOIN order_status os on os.id = oss.id \n WHERE os.status = 'DRAFT' \n AND o.deleted = 0 \n ORDER BY o.id \n DESC LIMIT 5 \n OFFSET 0
 --> Execution Time: 0.0015580654144287, Seconds : 1.5580654144287
administrator - Tanggal/Waktu : 31-Jul-2021/18:51:28 PM => 
 --> \n SELECT ro.* \n FROM retur_order ro \n JOIN `order` o on o.id = ro.id \n JOIN ( \n SELECT max( id)  id, `order` \n FROM order_status \n GROUP BY `order`)  oss on oss.order = o.id \n JOIN order_status os on os.id = oss.id \n WHERE ro.deleted = 0 \n AND os.status = 'DRAFT' \n AND ro.deleted = 0 \n ORDER BY ro.id \n DESC LIMIT 5 \n OFFSET 0
 --> Execution Time: 0.00095605850219727, Seconds : 0.95605850219727
