
----------../modules/order/controllers/order/chooseProduk----------
administrator - Tanggal/Waktu : 07-Aug-2021/09:21:28 AM => 
 --> 
    SELECT ps.* , s.nama_satuan , ps.qty as konversi , ps.ket_harga as keterangan 
    FROM product_satuan ps 
    JOIN satuan s on s.id = ps.satuan 
    WHERE ps.product = 3159
 --> Execution Time: 0.0027461051940918, Seconds : 2.7461051940918
