
----------../modules/order/controllers/order/chooseProduk----------
admin - Tanggal/Waktu : 08-Aug-2021/15:59:13 PM => 
 --> 
    SELECT ps.* , s.nama_satuan , ps.qty as konversi , ps.ket_harga as keterangan 
    FROM product_satuan ps 
    JOIN satuan s on s.id = ps.satuan 
    WHERE ps.product = 966 
    AND ps.deleted = 0
 --> Execution Time: 0.00064206123352051, Seconds : 0.64206123352051
admin - Tanggal/Waktu : 08-Aug-2021/15:59:13 PM => 
 --> 
    SELECT ps.* , s.nama_satuan , ps.qty as konversi , ps.ket_harga as keterangan 
    FROM product_satuan ps 
    JOIN satuan s on s.id = ps.satuan 
    WHERE ps.product = 966 
    AND ps.deleted = 0 
    AND ps.satuan_terkecil = 1
 --> Execution Time: 0.0012772083282471, Seconds : 1.2772083282471
