
----------../modules/template/controllers/dashboard/index----------
admin - Tanggal/Waktu : 07-Oct-2021/19:14:22 PM => 
 --> 
    SELECT `i`.*, `p`.`nama` as `nama_pembeli`, `p`.`no_hp`, `p`.`alamat`, `isa`.`status` 
    FROM `invoice` `i` 
    JOIN `pembeli` `p` ON `i`.`pembeli` = `p`.`id` 
    JOIN ( 
    SELECT max( id)  id, invoice 
    FROM invoice_status 
    GROUP     BY invoice)  iss ON `i`.`id` = `iss`.`invoice` 
    JOIN `invoice_status` `isa` ON `isa`.`id`= `iss`.`id` 
    WHERE `i`.`deleted` =0 
    ORDER     BY `i`.`id` 
    DESC     LIMIT 5
 --> Execution Time: 0.0013670921325684, Seconds : 1.3670921325684
admin - Tanggal/Waktu : 07-Oct-2021/19:14:22 PM => 
 --> 
    SELECT sum( total)  as total 
    FROM invoice 
    WHERE tanggal_faktur 
    LIKE '%2021%' 
    AND deleted = 0 
    LIMIT 1000 
    OFFSET 0
 --> Execution Time: 0.00049400329589844, Seconds : 0.49400329589844
admin - Tanggal/Waktu : 07-Oct-2021/19:14:22 PM => 
 --> 
    SELECT count( *)  as jumlah 
    FROM invoice 
    WHERE tanggal_faktur 
    LIKE '%2021%' 
    AND deleted = 0 
    LIMIT 1000 
    OFFSET 0
 --> Execution Time: 0.00034594535827637, Seconds : 0.34594535827637
admin - Tanggal/Waktu : 07-Oct-2021/19:14:22 PM => 
 --> 
    SELECT sum( i.total)  as total 
    FROM invoice i 
    JOIN ( 
    SELECT max( id)  id, invoice 
    FROM invoice_status 
    GROUP     BY invoice)  iss on iss.invoice = i.id 
    JOIN invoice_status isa on isa.id = iss.id 
    WHERE isa.status = 'PAID' 
    AND i.tanggal_faktur 
    LIKE '%2021%' 
    AND i.deleted = 0 
    LIMIT 1000 
    OFFSET 0
 --> Execution Time: 0.00076603889465332, Seconds : 0.76603889465332
admin - Tanggal/Waktu : 07-Oct-2021/19:14:22 PM => 
 --> 
    SELECT pt.total , QUARTER( pt.createddate)  AS quartal 
    FROM pembayaran_tagihan pt 
    WHERE pt.createddate 
    LIKE '%2021%' 
    LIMIT 1000 
    OFFSET 0
 --> Execution Time: 0.00057005882263184, Seconds : 0.57005882263184
admin - Tanggal/Waktu : 07-Oct-2021/19:14:22 PM => 
 --> 
    SELECT pv.total , QUARTER( pv.createddate)  AS quartal 
    FROM pembayaran_vendor pv 
    WHERE pv.createddate 
    LIKE '%2021%' 
    LIMIT 1000 
    OFFSET 0
 --> Execution Time: 0.0006098747253418, Seconds : 0.6098747253418
admin - Tanggal/Waktu : 07-Oct-2021/19:14:22 PM => 
 --> 
    SELECT pl.total , QUARTER( pl.createddate)  AS quartal 
    FROM pembayaran_lain_lain pl 
    WHERE pl.createddate 
    LIKE '%2021%' 
    LIMIT 1000 
    OFFSET 0
 --> Execution Time: 0.00056195259094238, Seconds : 0.56195259094238
admin - Tanggal/Waktu : 07-Oct-2021/19:14:22 PM => 
 --> 
    SELECT * 
    FROM `product` 
    LIMIT 1000
 --> Execution Time: 0.0063920021057129, Seconds : 6.3920021057129
admin - Tanggal/Waktu : 07-Oct-2021/19:14:22 PM => 
 --> 
    SELECT * 
    FROM `pembeli` 
    LIMIT 1000
 --> Execution Time: 0.00057196617126465, Seconds : 0.57196617126465
admin - Tanggal/Waktu : 07-Oct-2021/19:14:22 PM => 
 --> 
    SELECT * 
    FROM `user` 
    LIMIT 1000
 --> Execution Time: 0.00058698654174805, Seconds : 0.58698654174805
admin - Tanggal/Waktu : 07-Oct-2021/19:14:22 PM => 
 --> 
    SELECT * 
    FROM invoice 
    WHERE createddate 
    LIKE '%2021-01%' 
    AND deleted = 0 
    LIMIT 1000 
    OFFSET 0
 --> Execution Time: 0.00045609474182129, Seconds : 0.45609474182129
admin - Tanggal/Waktu : 07-Oct-2021/19:14:22 PM => 
 --> 
    SELECT * 
    FROM invoice 
    WHERE createddate 
    LIKE '%2021-02%' 
    AND deleted = 0 
    LIMIT 1000 
    OFFSET 0
 --> Execution Time: 0.00035595893859863, Seconds : 0.35595893859863
admin - Tanggal/Waktu : 07-Oct-2021/19:14:22 PM => 
 --> 
    SELECT * 
    FROM invoice 
    WHERE createddate 
    LIKE '%2021-03%' 
    AND deleted = 0 
    LIMIT 1000 
    OFFSET 0
 --> Execution Time: 0.00040316581726074, Seconds : 0.40316581726074
admin - Tanggal/Waktu : 07-Oct-2021/19:14:22 PM => 
 --> 
    SELECT * 
    FROM invoice 
    WHERE createddate 
    LIKE '%2021-04%' 
    AND deleted = 0 
    LIMIT 1000 
    OFFSET 0
 --> Execution Time: 0.00040197372436523, Seconds : 0.40197372436523
admin - Tanggal/Waktu : 07-Oct-2021/19:14:22 PM => 
 --> 
    SELECT * 
    FROM invoice 
    WHERE createddate 
    LIKE '%2021-05%' 
    AND deleted = 0 
    LIMIT 1000 
    OFFSET 0
 --> Execution Time: 0.0010371208190918, Seconds : 1.0371208190918
admin - Tanggal/Waktu : 07-Oct-2021/19:14:22 PM => 
 --> 
    SELECT * 
    FROM invoice 
    WHERE createddate 
    LIKE '%2021-06%' 
    AND deleted = 0 
    LIMIT 1000 
    OFFSET 0
 --> Execution Time: 0.0005948543548584, Seconds : 0.5948543548584
admin - Tanggal/Waktu : 07-Oct-2021/19:14:22 PM => 
 --> 
    SELECT * 
    FROM invoice 
    WHERE createddate 
    LIKE '%2021-07%' 
    AND deleted = 0 
    LIMIT 1000 
    OFFSET 0
 --> Execution Time: 0.00045108795166016, Seconds : 0.45108795166016
admin - Tanggal/Waktu : 07-Oct-2021/19:14:22 PM => 
 --> 
    SELECT * 
    FROM invoice 
    WHERE createddate 
    LIKE '%2021-08%' 
    AND deleted = 0 
    LIMIT 1000 
    OFFSET 0
 --> Execution Time: 0.00045299530029297, Seconds : 0.45299530029297
admin - Tanggal/Waktu : 07-Oct-2021/19:14:22 PM => 
 --> 
    SELECT * 
    FROM invoice 
    WHERE createddate 
    LIKE '%2021-09%' 
    AND deleted = 0 
    LIMIT 1000 
    OFFSET 0
 --> Execution Time: 0.00046586990356445, Seconds : 0.46586990356445
admin - Tanggal/Waktu : 07-Oct-2021/19:14:22 PM => 
 --> 
    SELECT * 
    FROM invoice 
    WHERE createddate 
    LIKE '%2021-10%' 
    AND deleted = 0 
    LIMIT 1000 
    OFFSET 0
 --> Execution Time: 0.00045418739318848, Seconds : 0.45418739318848
admin - Tanggal/Waktu : 07-Oct-2021/19:14:22 PM => 
 --> 
    SELECT * 
    FROM invoice 
    WHERE createddate 
    LIKE '%2021-11%' 
    AND deleted = 0 
    LIMIT 1000 
    OFFSET 0
 --> Execution Time: 0.00044822692871094, Seconds : 0.44822692871094
admin - Tanggal/Waktu : 07-Oct-2021/19:14:22 PM => 
 --> 
    SELECT js.id, c.keterangan , ct.jenis 
    FROM jurnal_detail jd 
    JOIN jurnal_struktur js on jd.jurnal_struktur = js.id 
    JOIN feature f on js.feature = f.id 
    JOIN coa c on c.id = js.coa 
    JOIN coa_type ct on ct.id = js.coa_type 
    WHERE c.keterangan = 'Bank & Kas' 
    AND jd.deleted = 0 
    AND jd.createddate 
    LIKE '%2021-01%' 
    AND ct.jenis = 'KREDIT' 
    LIMIT 1000 
    OFFSET 0
 --> Execution Time: 0.00088715553283691, Seconds : 0.88715553283691
admin - Tanggal/Waktu : 07-Oct-2021/19:14:22 PM => 
 --> 
    SELECT js.id, c.keterangan , ct.jenis 
    FROM jurnal_detail jd 
    JOIN jurnal_struktur js on jd.jurnal_struktur = js.id 
    JOIN feature f on js.feature = f.id 
    JOIN coa c on c.id = js.coa 
    JOIN coa_type ct on ct.id = js.coa_type 
    WHERE c.keterangan = 'Bank & Kas' 
    AND jd.deleted = 0 
    AND jd.createddate 
    LIKE '%2021-02%' 
    AND ct.jenis = 'KREDIT' 
    LIMIT 1000 
    OFFSET 0
 --> Execution Time: 0.00060701370239258, Seconds : 0.60701370239258
admin - Tanggal/Waktu : 07-Oct-2021/19:14:22 PM => 
 --> 
    SELECT js.id, c.keterangan , ct.jenis 
    FROM jurnal_detail jd 
    JOIN jurnal_struktur js on jd.jurnal_struktur = js.id 
    JOIN feature f on js.feature = f.id 
    JOIN coa c on c.id = js.coa 
    JOIN coa_type ct on ct.id = js.coa_type 
    WHERE c.keterangan = 'Bank & Kas' 
    AND jd.deleted = 0 
    AND jd.createddate 
    LIKE '%2021-03%' 
    AND ct.jenis = 'KREDIT' 
    LIMIT 1000 
    OFFSET 0
 --> Execution Time: 0.00054407119750977, Seconds : 0.54407119750977
admin - Tanggal/Waktu : 07-Oct-2021/19:14:22 PM => 
 --> 
    SELECT js.id, c.keterangan , ct.jenis 
    FROM jurnal_detail jd 
    JOIN jurnal_struktur js on jd.jurnal_struktur = js.id 
    JOIN feature f on js.feature = f.id 
    JOIN coa c on c.id = js.coa 
    JOIN coa_type ct on ct.id = js.coa_type 
    WHERE c.keterangan = 'Bank & Kas' 
    AND jd.deleted = 0 
    AND jd.createddate 
    LIKE '%2021-04%' 
    AND ct.jenis = 'KREDIT' 
    LIMIT 1000 
    OFFSET 0
 --> Execution Time: 0.00054788589477539, Seconds : 0.54788589477539
admin - Tanggal/Waktu : 07-Oct-2021/19:14:22 PM => 
 --> 
    SELECT js.id, c.keterangan , ct.jenis 
    FROM jurnal_detail jd 
    JOIN jurnal_struktur js on jd.jurnal_struktur = js.id 
    JOIN feature f on js.feature = f.id 
    JOIN coa c on c.id = js.coa 
    JOIN coa_type ct on ct.id = js.coa_type 
    WHERE c.keterangan = 'Bank & Kas' 
    AND jd.deleted = 0 
    AND jd.createddate 
    LIKE '%2021-05%' 
    AND ct.jenis = 'KREDIT' 
    LIMIT 1000 
    OFFSET 0
 --> Execution Time: 0.0005180835723877, Seconds : 0.5180835723877
admin - Tanggal/Waktu : 07-Oct-2021/19:14:22 PM => 
 --> 
    SELECT js.id, c.keterangan , ct.jenis 
    FROM jurnal_detail jd 
    JOIN jurnal_struktur js on jd.jurnal_struktur = js.id 
    JOIN feature f on js.feature = f.id 
    JOIN coa c on c.id = js.coa 
    JOIN coa_type ct on ct.id = js.coa_type 
    WHERE c.keterangan = 'Bank & Kas' 
    AND jd.deleted = 0 
    AND jd.createddate 
    LIKE '%2021-06%' 
    AND ct.jenis = 'KREDIT' 
    LIMIT 1000 
    OFFSET 0
 --> Execution Time: 0.00051188468933105, Seconds : 0.51188468933105
admin - Tanggal/Waktu : 07-Oct-2021/19:14:22 PM => 
 --> 
    SELECT js.id, c.keterangan , ct.jenis 
    FROM jurnal_detail jd 
    JOIN jurnal_struktur js on jd.jurnal_struktur = js.id 
    JOIN feature f on js.feature = f.id 
    JOIN coa c on c.id = js.coa 
    JOIN coa_type ct on ct.id = js.coa_type 
    WHERE c.keterangan = 'Bank & Kas' 
    AND jd.deleted = 0 
    AND jd.createddate 
    LIKE '%2021-07%' 
    AND ct.jenis = 'KREDIT' 
    LIMIT 1000 
    OFFSET 0
 --> Execution Time: 0.00053501129150391, Seconds : 0.53501129150391
admin - Tanggal/Waktu : 07-Oct-2021/19:14:22 PM => 
 --> 
    SELECT js.id, c.keterangan , ct.jenis 
    FROM jurnal_detail jd 
    JOIN jurnal_struktur js on jd.jurnal_struktur = js.id 
    JOIN feature f on js.feature = f.id 
    JOIN coa c on c.id = js.coa 
    JOIN coa_type ct on ct.id = js.coa_type 
    WHERE c.keterangan = 'Bank & Kas' 
    AND jd.deleted = 0 
    AND jd.createddate 
    LIKE '%2021-08%' 
    AND ct.jenis = 'KREDIT' 
    LIMIT 1000 
    OFFSET 0
 --> Execution Time: 0.00063490867614746, Seconds : 0.63490867614746
admin - Tanggal/Waktu : 07-Oct-2021/19:14:22 PM => 
 --> 
    SELECT js.id, c.keterangan , ct.jenis 
    FROM jurnal_detail jd 
    JOIN jurnal_struktur js on jd.jurnal_struktur = js.id 
    JOIN feature f on js.feature = f.id 
    JOIN coa c on c.id = js.coa 
    JOIN coa_type ct on ct.id = js.coa_type 
    WHERE c.keterangan = 'Bank & Kas' 
    AND jd.deleted = 0 
    AND jd.createddate 
    LIKE '%2021-09%' 
    AND ct.jenis = 'KREDIT' 
    LIMIT 1000 
    OFFSET 0
 --> Execution Time: 0.00052905082702637, Seconds : 0.52905082702637
admin - Tanggal/Waktu : 07-Oct-2021/19:14:22 PM => 
 --> 
    SELECT js.id, c.keterangan , ct.jenis 
    FROM jurnal_detail jd 
    JOIN jurnal_struktur js on jd.jurnal_struktur = js.id 
    JOIN feature f on js.feature = f.id 
    JOIN coa c on c.id = js.coa 
    JOIN coa_type ct on ct.id = js.coa_type 
    WHERE c.keterangan = 'Bank & Kas' 
    AND jd.deleted = 0 
    AND jd.createddate 
    LIKE '%2021-10%' 
    AND ct.jenis = 'KREDIT' 
    LIMIT 1000 
    OFFSET 0
 --> Execution Time: 0.00051188468933105, Seconds : 0.51188468933105
admin - Tanggal/Waktu : 07-Oct-2021/19:14:22 PM => 
 --> 
    SELECT js.id, c.keterangan , ct.jenis 
    FROM jurnal_detail jd 
    JOIN jurnal_struktur js on jd.jurnal_struktur = js.id 
    JOIN feature f on js.feature = f.id 
    JOIN coa c on c.id = js.coa 
    JOIN coa_type ct on ct.id = js.coa_type 
    WHERE c.keterangan = 'Bank & Kas' 
    AND jd.deleted = 0 
    AND jd.createddate 
    LIKE '%2021-11%' 
    AND ct.jenis = 'KREDIT' 
    LIMIT 1000 
    OFFSET 0
 --> Execution Time: 0.00050091743469238, Seconds : 0.50091743469238
admin - Tanggal/Waktu : 07-Oct-2021/19:14:22 PM => 
 --> 
    SELECT js.id, c.keterangan , ct.jenis 
    FROM jurnal_detail jd 
    JOIN jurnal_struktur js on jd.jurnal_struktur = js.id 
    JOIN feature f on js.feature = f.id 
    JOIN coa c on c.id = js.coa 
    JOIN coa_type ct on ct.id = js.coa_type 
    WHERE c.keterangan = 'Bank & Kas' 
    AND jd.deleted = 0 
    AND jd.createddate 
    LIKE '%2021-01%' 
    AND ct.jenis = 'DEBIT' 
    LIMIT 1000 
    OFFSET 0
 --> Execution Time: 0.00049495697021484, Seconds : 0.49495697021484
admin - Tanggal/Waktu : 07-Oct-2021/19:14:22 PM => 
 --> 
    SELECT js.id, c.keterangan , ct.jenis 
    FROM jurnal_detail jd 
    JOIN jurnal_struktur js on jd.jurnal_struktur = js.id 
    JOIN feature f on js.feature = f.id 
    JOIN coa c on c.id = js.coa 
    JOIN coa_type ct on ct.id = js.coa_type 
    WHERE c.keterangan = 'Bank & Kas' 
    AND jd.deleted = 0 
    AND jd.createddate 
    LIKE '%2021-02%' 
    AND ct.jenis = 'DEBIT' 
    LIMIT 1000 
    OFFSET 0
 --> Execution Time: 0.00078415870666504, Seconds : 0.78415870666504
admin - Tanggal/Waktu : 07-Oct-2021/19:14:22 PM => 
 --> 
    SELECT js.id, c.keterangan , ct.jenis 
    FROM jurnal_detail jd 
    JOIN jurnal_struktur js on jd.jurnal_struktur = js.id 
    JOIN feature f on js.feature = f.id 
    JOIN coa c on c.id = js.coa 
    JOIN coa_type ct on ct.id = js.coa_type 
    WHERE c.keterangan = 'Bank & Kas' 
    AND jd.deleted = 0 
    AND jd.createddate 
    LIKE '%2021-03%' 
    AND ct.jenis = 'DEBIT' 
    LIMIT 1000 
    OFFSET 0
 --> Execution Time: 0.001147985458374, Seconds : 1.147985458374
admin - Tanggal/Waktu : 07-Oct-2021/19:14:22 PM => 
 --> 
    SELECT js.id, c.keterangan , ct.jenis 
    FROM jurnal_detail jd 
    JOIN jurnal_struktur js on jd.jurnal_struktur = js.id 
    JOIN feature f on js.feature = f.id 
    JOIN coa c on c.id = js.coa 
    JOIN coa_type ct on ct.id = js.coa_type 
    WHERE c.keterangan = 'Bank & Kas' 
    AND jd.deleted = 0 
    AND jd.createddate 
    LIKE '%2021-04%' 
    AND ct.jenis = 'DEBIT' 
    LIMIT 1000 
    OFFSET 0
 --> Execution Time: 0.00055694580078125, Seconds : 0.55694580078125
admin - Tanggal/Waktu : 07-Oct-2021/19:14:22 PM => 
 --> 
    SELECT js.id, c.keterangan , ct.jenis 
    FROM jurnal_detail jd 
    JOIN jurnal_struktur js on jd.jurnal_struktur = js.id 
    JOIN feature f on js.feature = f.id 
    JOIN coa c on c.id = js.coa 
    JOIN coa_type ct on ct.id = js.coa_type 
    WHERE c.keterangan = 'Bank & Kas' 
    AND jd.deleted = 0 
    AND jd.createddate 
    LIKE '%2021-05%' 
    AND ct.jenis = 'DEBIT' 
    LIMIT 1000 
    OFFSET 0
 --> Execution Time: 0.00045108795166016, Seconds : 0.45108795166016
admin - Tanggal/Waktu : 07-Oct-2021/19:14:22 PM => 
 --> 
    SELECT js.id, c.keterangan , ct.jenis 
    FROM jurnal_detail jd 
    JOIN jurnal_struktur js on jd.jurnal_struktur = js.id 
    JOIN feature f on js.feature = f.id 
    JOIN coa c on c.id = js.coa 
    JOIN coa_type ct on ct.id = js.coa_type 
    WHERE c.keterangan = 'Bank & Kas' 
    AND jd.deleted = 0 
    AND jd.createddate 
    LIKE '%2021-06%' 
    AND ct.jenis = 'DEBIT' 
    LIMIT 1000 
    OFFSET 0
 --> Execution Time: 0.00042605400085449, Seconds : 0.42605400085449
admin - Tanggal/Waktu : 07-Oct-2021/19:14:22 PM => 
 --> 
    SELECT js.id, c.keterangan , ct.jenis 
    FROM jurnal_detail jd 
    JOIN jurnal_struktur js on jd.jurnal_struktur = js.id 
    JOIN feature f on js.feature = f.id 
    JOIN coa c on c.id = js.coa 
    JOIN coa_type ct on ct.id = js.coa_type 
    WHERE c.keterangan = 'Bank & Kas' 
    AND jd.deleted = 0 
    AND jd.createddate 
    LIKE '%2021-07%' 
    AND ct.jenis = 'DEBIT' 
    LIMIT 1000 
    OFFSET 0
 --> Execution Time: 0.00040602684020996, Seconds : 0.40602684020996
admin - Tanggal/Waktu : 07-Oct-2021/19:14:22 PM => 
 --> 
    SELECT js.id, c.keterangan , ct.jenis 
    FROM jurnal_detail jd 
    JOIN jurnal_struktur js on jd.jurnal_struktur = js.id 
    JOIN feature f on js.feature = f.id 
    JOIN coa c on c.id = js.coa 
    JOIN coa_type ct on ct.id = js.coa_type 
    WHERE c.keterangan = 'Bank & Kas' 
    AND jd.deleted = 0 
    AND jd.createddate 
    LIKE '%2021-08%' 
    AND ct.jenis = 'DEBIT' 
    LIMIT 1000 
    OFFSET 0
 --> Execution Time: 0.00047612190246582, Seconds : 0.47612190246582
admin - Tanggal/Waktu : 07-Oct-2021/19:14:22 PM => 
 --> 
    SELECT js.id, c.keterangan , ct.jenis 
    FROM jurnal_detail jd 
    JOIN jurnal_struktur js on jd.jurnal_struktur = js.id 
    JOIN feature f on js.feature = f.id 
    JOIN coa c on c.id = js.coa 
    JOIN coa_type ct on ct.id = js.coa_type 
    WHERE c.keterangan = 'Bank & Kas' 
    AND jd.deleted = 0 
    AND jd.createddate 
    LIKE '%2021-09%' 
    AND ct.jenis = 'DEBIT' 
    LIMIT 1000 
    OFFSET 0
 --> Execution Time: 0.00071811676025391, Seconds : 0.71811676025391
admin - Tanggal/Waktu : 07-Oct-2021/19:14:22 PM => 
 --> 
    SELECT js.id, c.keterangan , ct.jenis 
    FROM jurnal_detail jd 
    JOIN jurnal_struktur js on jd.jurnal_struktur = js.id 
    JOIN feature f on js.feature = f.id 
    JOIN coa c on c.id = js.coa 
    JOIN coa_type ct on ct.id = js.coa_type 
    WHERE c.keterangan = 'Bank & Kas' 
    AND jd.deleted = 0 
    AND jd.createddate 
    LIKE '%2021-10%' 
    AND ct.jenis = 'DEBIT' 
    LIMIT 1000 
    OFFSET 0
 --> Execution Time: 0.00082302093505859, Seconds : 0.82302093505859
admin - Tanggal/Waktu : 07-Oct-2021/19:14:22 PM => 
 --> 
    SELECT js.id, c.keterangan , ct.jenis 
    FROM jurnal_detail jd 
    JOIN jurnal_struktur js on jd.jurnal_struktur = js.id 
    JOIN feature f on js.feature = f.id 
    JOIN coa c on c.id = js.coa 
    JOIN coa_type ct on ct.id = js.coa_type 
    WHERE c.keterangan = 'Bank & Kas' 
    AND jd.deleted = 0 
    AND jd.createddate 
    LIKE '%2021-11%' 
    AND ct.jenis = 'DEBIT' 
    LIMIT 1000 
    OFFSET 0
 --> Execution Time: 0.0007929801940918, Seconds : 0.7929801940918
admin - Tanggal/Waktu : 07-Oct-2021/19:14:22 PM => 
 --> 
    SELECT ( pi.harga * pi.qty)  as harga_beli_total , QUARTER( p.createddate)  AS quartal 
    FROM product_has_price_procurement phpr 
    JOIN procurement_item pi on pi.id = phpr.procurement_item 
    AND pi.deleted = 0 
    JOIN procurement p on p.id = pi.procurement 
    WHERE p.deleted = 0 
    AND p.createddate 
    LIKE '%2021%'
 --> Execution Time: 0.00073885917663574, Seconds : 0.73885917663574
admin - Tanggal/Waktu : 07-Oct-2021/19:14:22 PM => 
 --> 
    SELECT     DISTINCT i.no_faktur ,pi.jumlah_bayar ,( ps.harga_beli * ip.qty)  as harga_beli_total , ip.sub_total as total_faktur , isa.jumlah as sisa_hutang , ist.status 
    FROM payment p 
    JOIN payment_item pi on p.id = pi.payment 
    JOIN invoice i on i.id = pi.invoice 
    JOIN metode_bayar mb on mb.id = i.metode_bayar 
    JOIN invoice_product ip on ip.invoice = i.id 
    JOIN product_satuan ps on ps.id = ip.product_satuan 
    JOIN ( 
    SELECT max( id)  id, invoice 
    FROM invoice_sisa 
    GROUP     BY invoice)  isa_group on isa_group.invoice = i.id 
    JOIN invoice_sisa isa on isa.id = isa_group.id 
    JOIN ( 
    SELECT max( id)  id, invoice 
    FROM invoice_status 
    GROUP     BY invoice)  ist_group on ist_group.invoice = i.id 
    JOIN invoice_status ist on ist.id = ist_group.id 
    WHERE p.deleted = 0 
    AND p.createddate 
    LIKE '%2021%' 
    ORDER     BY p.id desc
 --> Execution Time: 0.0039608478546143, Seconds : 3.9608478546143
admin - Tanggal/Waktu : 07-Oct-2021/19:14:22 PM => 
 --> 
    SELECT * 
    FROM `general` 
    LIMIT 1000
 --> Execution Time: 0.00041317939758301, Seconds : 0.41317939758301
admin - Tanggal/Waktu : 07-Oct-2021/19:14:22 PM => 
 --> 
    SELECT i.* 
    FROM invoice i 
    JOIN ( 
    SELECT max( id)  id, invoice 
    FROM invoice_status 
    GROUP     BY invoice)  iss on iss.invoice = i.id 
    JOIN invoice_status isa on isa.id = iss.id 
    WHERE isa.status = 'DRAFT' 
    AND i.deleted = 0 
    ORDER     BY i.id 
    DESC     LIMIT 5 
    OFFSET 0
 --> Execution Time: 0.00082015991210938, Seconds : 0.82015991210938
admin - Tanggal/Waktu : 07-Oct-2021/19:14:22 PM => 
 --> 
    SELECT o.* 
    FROM `order` o 
    JOIN ( 
    SELECT max( id)  id, `order` 
    FROM order_status 
    GROUP     BY `order`)  oss on oss.order = o.id 
    JOIN order_status os on os.id = oss.id 
    WHERE os.status = 'DRAFT' 
    AND o.deleted = 0 
    ORDER     BY o.id 
    DESC     LIMIT 5 
    OFFSET 0
 --> Execution Time: 0.0011980533599854, Seconds : 1.1980533599854
admin - Tanggal/Waktu : 07-Oct-2021/19:14:22 PM => 
 --> 
    SELECT ro.* 
    FROM retur_order ro 
    JOIN `order` o on o.id = ro.id 
    JOIN ( 
    SELECT max( id)  id, `order` 
    FROM order_status 
    GROUP     BY `order`)  oss on oss.order = o.id 
    JOIN order_status os on os.id = oss.id 
    WHERE ro.deleted = 0 
    AND os.status = 'DRAFT' 
    AND ro.deleted = 0 
    ORDER     BY ro.id 
    DESC     LIMIT 5 
    OFFSET 0
 --> Execution Time: 0.00066685676574707, Seconds : 0.66685676574707
