
----------../modules/template/controllers/supplier/detail----------
admin - Tanggal/Waktu : 11-Nov-2021/17:51:23 PM => 
 --> 
    SELECT * 
    FROM `vendor` `kr` 
    WHERE `kr`.`id` = '1' 
    LIMIT 1000
 --> Execution Time: 0.00058078765869141, Seconds : 0.58078765869141

----------../modules/not_found/controllers//index----------
