
----------../modules/template/controllers/dashboard/index----------

----------../modules/not_found/controllers//index----------

----------../modules/not_found/controllers//index----------

----------../modules/not_found/controllers//index----------
