
----------../modules/general/controllers/faktur_pelanggan/printFaktur----------
administrator - Tanggal/Waktu : 08-Aug-2021/12:04:15 PM => 
 --> 
    SELECT * 
    FROM `invoice_print` 
    WHERE `invoice` = '32' 
    ORDER     BY `id` 
    DESC     LIMIT 1000
 --> Execution Time: 0.0035240650177002, Seconds : 3.5240650177002
administrator - Tanggal/Waktu : 08-Aug-2021/12:04:15 PM => 
 --> 
    SELECT `i`.*, `p`.`nama` as `nama_pembeli`, `ist`.`status`, `o`.`no_order`, `p`.`alamat`, `pt`.`potongan` as `jenis_potongan`, `jp`.`metode`, `pg`.`nama` as `sales` 
    FROM `invoice` `i` 
    JOIN `pembeli` `p` ON `i`.`pembeli` = `p`.`id` 
    JOIN ( 
    SELECT max( id)  id, invoice 
    FROM invoice_status 
    GROUP     BY invoice)  iss ON `iss`.`invoice` = `i`.`id` 
    JOIN `invoice_status` `ist` ON `ist`.`id` = `iss`.`id` 
    LEFT     JOIN `order` `o` ON `o`.`id` = `i`.`ref` 
    LEFT     JOIN `metode_bayar` `jp` ON `jp`.`id` = `i`.`metode_bayar` 
    LEFT     JOIN `potongan` `pt` ON `pt`.`id` = `i`.`potongan` 
    LEFT     JOIN `user` `usr` ON `usr`.`id` = `o`.`createdby` 
    LEFT     JOIN `pegawai` `pg` ON `pg`.`id` = `usr`.`pegawai` 
    WHERE `i`.`id` = '32' 
    LIMIT 1000
 --> Execution Time: 0.0012459754943848, Seconds : 1.2459754943848
administrator - Tanggal/Waktu : 08-Aug-2021/12:04:15 PM => 
 --> 
    SELECT `ip`.*, `ps`.`satuan`, `ps`.`harga`, `p`.`product` as `nama_product`, `p`.`kode_product`, `b`.`nama_bank`, `b`.`akun`, `b`.`no_rekening`, `s`.`nama_satuan` 
    FROM `invoice_product` `ip` 
    JOIN `product_satuan` `ps` ON `ps`.`id` = `ip`.`product_satuan` 
    JOIN `product` `p` ON `p`.`id` = `ps`.`product` 
    LEFT     JOIN `bank` `b` ON `b`.`id` = `ip`.`bank` 
    LEFT     JOIN `satuan` `s` ON `s`.`id` = `ps`.`satuan` 
    WHERE `ip`.`invoice` = '32' 
    AND `ip`.`deleted` =0 
    ORDER     BY `ip`.`id` 
    LIMIT 1000
 --> Execution Time: 0.00087094306945801, Seconds : 0.87094306945801
administrator - Tanggal/Waktu : 08-Aug-2021/12:04:15 PM => 
 --> 
    SELECT `ipp`.*, `pt`.`potongan` as `jenis_potongan` 
    FROM `invoice_pot_product` `ipp` 
    LEFT     JOIN `potongan` `pt` ON `pt`.`id` = `ipp`.`potongan` 
    WHERE `ipp`.`deleted` =0 
    AND `ipp`.`invoice_product` = '32' 
    LIMIT 1000
 --> Execution Time: 0.00049996376037598, Seconds : 0.49996376037598
administrator - Tanggal/Waktu : 08-Aug-2021/12:04:15 PM => 
 --> 
    SELECT `ipp`.*, `pt`.`potongan` as `jenis_potongan` 
    FROM `invoice_pot_product` `ipp` 
    LEFT     JOIN `potongan` `pt` ON `pt`.`id` = `ipp`.`potongan` 
    WHERE `ipp`.`deleted` =0 
    AND `ipp`.`invoice_product` = '33' 
    LIMIT 1000
 --> Execution Time: 0.00056600570678711, Seconds : 0.56600570678711
administrator - Tanggal/Waktu : 08-Aug-2021/12:04:15 PM => 
 --> 
    SELECT `ipp`.*, `pt`.`potongan` as `jenis_potongan` 
    FROM `invoice_pot_product` `ipp` 
    LEFT     JOIN `potongan` `pt` ON `pt`.`id` = `ipp`.`potongan` 
    WHERE `ipp`.`deleted` =0 
    AND `ipp`.`invoice_product` = '34' 
    LIMIT 1000
 --> Execution Time: 0.00091195106506348, Seconds : 0.91195106506348
administrator - Tanggal/Waktu : 08-Aug-2021/12:04:15 PM => 
 --> 
    SELECT `ipp`.*, `pt`.`potongan` as `jenis_potongan` 
    FROM `invoice_pot_product` `ipp` 
    LEFT     JOIN `potongan` `pt` ON `pt`.`id` = `ipp`.`potongan` 
    WHERE `ipp`.`deleted` =0 
    AND `ipp`.`invoice_product` = '35' 
    LIMIT 1000
 --> Execution Time: 0.00054216384887695, Seconds : 0.54216384887695
administrator - Tanggal/Waktu : 08-Aug-2021/12:04:15 PM => 
 --> 
    SELECT `kr`.*, `kr`.`title` as `nama_perusahaan` 
    FROM `general` `kr` 
    WHERE `kr`.`id` = '1' 
    LIMIT 1000
 --> Execution Time: 0.00062012672424316, Seconds : 0.62012672424316
