
----------../modules/template/controllers/order/detail----------
admin - Tanggal/Waktu : 17-Aug-2021/08:11:59 AM => 
 --> 
    SELECT `o`.*, `p`.`nama` as `nama_pembeli`, `isa`.`status`, `pt`.`potongan` as `jenis_potongan`, `mb`.`metode` 
    FROM `order` `o` 
    JOIN `pembeli` `p` ON `o`.`pembeli` = `p`.`id` 
    JOIN ( 
    SELECT max( id)  id, `order` 
    FROM order_status 
    GROUP     BY `order`)  iss ON `iss`.`order` = `o`.`id` 
    JOIN `order_status` `isa` ON `isa`.`id` = `iss`.`id` 
    JOIN `metode_bayar` `mb` ON `mb`.`id` = `o`.`metode_bayar` 
    LEFT     JOIN `potongan` `pt` ON `pt`.`id` = `o`.`potongan` 
    WHERE `o`.`id` = '1' 
    LIMIT 1000
 --> Execution Time: 0.0010280609130859, Seconds : 1.0280609130859
admin - Tanggal/Waktu : 17-Aug-2021/08:11:59 AM => 
 --> 
    SELECT `ip`.*, `ps`.`satuan`, `ps`.`harga`, `p`.`product` as `nama_product`, `s`.`nama_satuan`, `ps`.`qty` as `konversi`, `p`.`id` as `product_id` 
    FROM `order_product` `ip` 
    JOIN `product_satuan` `ps` ON `ps`.`id` = `ip`.`product_satuan` 
    JOIN `product` `p` ON `p`.`id` = `ps`.`product` 
    LEFT     JOIN `satuan` `s` ON `s`.`id` = `ps`.`satuan` 
    WHERE `ip`.`order` = '1' 
    AND `ip`.`deleted` =0 
    ORDER     BY `ip`.`id` 
    LIMIT 1000
 --> Execution Time: 0.00077009201049805, Seconds : 0.77009201049805
admin - Tanggal/Waktu : 17-Aug-2021/08:11:59 AM => 
 --> 
    SELECT `ipp`.*, `pt`.`potongan` as `jenis_potongan` 
    FROM `order_pot_product` `ipp` 
    LEFT     JOIN `potongan` `pt` ON `pt`.`id` = `ipp`.`potongan` 
    WHERE `ipp`.`deleted` =0 
    AND `ipp`.`order_product` = '1' 
    LIMIT 1000
 --> Execution Time: 0.00053000450134277, Seconds : 0.53000450134277
admin - Tanggal/Waktu : 17-Aug-2021/08:11:59 AM => 
 --> 
    SELECT `ps`.*, `pst`.`stock`, `s`.`nama_satuan` as `current_satuan`, `sp`.`nama_satuan` as `parent_satuan`, `psp`.`id` as `parent_product_satuan`, `psp`.`qty` as `qty_parent`, `pstp`.`stock` as `parent_stock`, `pst`.`id` as `cur_product_stock`, `pstp`.`id` as `parent_product_stock`, `pdc`.`product` as `nama_product` 
    FROM `product_satuan` `ps` 
    JOIN `product_stock` `pst` ON `pst`.`product_satuan` = `ps`.`id` 
    JOIN `satuan` `s` ON `s`.`id` = `ps`.`satuan` 
    LEFT     JOIN `satuan` `sp` ON `sp`.`id` = `s`.`parent` 
    LEFT     JOIN `product_satuan` `psp` ON `psp`.`satuan` = `sp`.`id` 
    AND `psp`.`product` = `ps`.`product` 
    LEFT     JOIN `product_stock` `pstp` ON `pstp`.`product_satuan` = `psp`.`id` 
    JOIN `product` `pdc` ON `pdc`.`id` = `ps`.`product` 
    WHERE `ps`.`deleted` 
    IS     NULL     OR `ps`.`deleted` =0 
    AND `ps`.`id` = '1675' 
    LIMIT 1000
 --> Execution Time: 0.001953125, Seconds : 1.953125
admin - Tanggal/Waktu : 17-Aug-2021/08:11:59 AM => 
 --> 
    SELECT ps.* , s.nama_satuan , ps.qty as konversi , ps.ket_harga as keterangan 
    FROM product_satuan ps 
    JOIN satuan s on s.id = ps.satuan 
    WHERE ps.product = 1677 
    AND ps.deleted = 0 
    AND ps.satuan_terkecil = 1
 --> Execution Time: 0.0018720626831055, Seconds : 1.8720626831055
admin - Tanggal/Waktu : 17-Aug-2021/08:11:59 AM => 
 --> 
    SELECT * 
    FROM `general` 
    LIMIT 1000
 --> Execution Time: 0.00039410591125488, Seconds : 0.39410591125488
admin - Tanggal/Waktu : 17-Aug-2021/08:11:59 AM => 
 --> 
    SELECT i.* 
    FROM invoice i 
    JOIN ( 
    SELECT max( id)  id, invoice 
    FROM invoice_status 
    GROUP     BY invoice)  iss on iss.invoice = i.id 
    JOIN invoice_status isa on isa.id = iss.id 
    WHERE isa.status = 'DRAFT' 
    AND i.deleted = 0 
    ORDER     BY i.id 
    DESC     LIMIT 5 
    OFFSET 0
 --> Execution Time: 0.00068187713623047, Seconds : 0.68187713623047
admin - Tanggal/Waktu : 17-Aug-2021/08:11:59 AM => 
 --> 
    SELECT o.* 
    FROM `order` o 
    JOIN ( 
    SELECT max( id)  id, `order` 
    FROM order_status 
    GROUP     BY `order`)  oss on oss.order = o.id 
    JOIN order_status os on os.id = oss.id 
    WHERE os.status = 'DRAFT' 
    AND o.deleted = 0 
    ORDER     BY o.id 
    DESC     LIMIT 5 
    OFFSET 0
 --> Execution Time: 0.00069499015808105, Seconds : 0.69499015808105
admin - Tanggal/Waktu : 17-Aug-2021/08:11:59 AM => 
 --> 
    SELECT ro.* 
    FROM retur_order ro 
    JOIN `order` o on o.id = ro.id 
    JOIN ( 
    SELECT max( id)  id, `order` 
    FROM order_status 
    GROUP     BY `order`)  oss on oss.order = o.id 
    JOIN order_status os on os.id = oss.id 
    WHERE ro.deleted = 0 
    AND os.status = 'DRAFT' 
    AND ro.deleted = 0 
    ORDER     BY ro.id 
    DESC     LIMIT 5 
    OFFSET 0
 --> Execution Time: 0.00067901611328125, Seconds : 0.67901611328125
