
----------../modules/template/controllers/produk/index----------
admin - Tanggal/Waktu : 07-Aug-2021/09:50:27 AM => 
 --> 
    SELECT `r`.*, `tr`.`tipe`, `kr`.`kategori` 
    FROM `product` `r` 
    JOIN `kategori_product` `kr` ON `r`.`kategori_product` = `kr`.`id` 
    JOIN `tipe_product` `tr` ON `r`.`tipe_product` = `tr`.`id` 
    WHERE `r`.`deleted` =0 
    OR `r`.`deleted` 
    IS     NULL     LIMIT 10
 --> Execution Time: 0.0027689933776855, Seconds : 2.7689933776855
admin - Tanggal/Waktu : 07-Aug-2021/09:50:27 AM => 
 --> 
    SELECT COUNT( *)  AS `numrows` 
    FROM `product` `r` 
    JOIN `kategori_product` `kr` ON `r`.`kategori_product` = `kr`.`id` 
    JOIN `tipe_product` `tr` ON `r`.`tipe_product` = `tr`.`id` 
    WHERE `r`.`deleted` =0 
    OR `r`.`deleted` 
    IS null
 --> Execution Time: 0.00047707557678223, Seconds : 0.47707557678223
admin - Tanggal/Waktu : 07-Aug-2021/09:50:27 AM => 
 --> 
    SELECT * 
    FROM `general` 
    LIMIT 1000
 --> Execution Time: 0.0023889541625977, Seconds : 2.3889541625977
admin - Tanggal/Waktu : 07-Aug-2021/09:50:27 AM => 
 --> 
    SELECT i.* 
    FROM invoice i 
    JOIN ( 
    SELECT max( id)  id, invoice 
    FROM invoice_status 
    GROUP     BY invoice)  iss on iss.invoice = i.id 
    JOIN invoice_status isa on isa.id = iss.id 
    WHERE isa.status = 'DRAFT' 
    AND i.deleted = 0 
    ORDER     BY i.id 
    DESC     LIMIT 5 
    OFFSET 0
 --> Execution Time: 0.00083494186401367, Seconds : 0.83494186401367
admin - Tanggal/Waktu : 07-Aug-2021/09:50:27 AM => 
 --> 
    SELECT o.* 
    FROM `order` o 
    JOIN ( 
    SELECT max( id)  id, `order` 
    FROM order_status 
    GROUP     BY `order`)  oss on oss.order = o.id 
    JOIN order_status os on os.id = oss.id 
    WHERE os.status = 'DRAFT' 
    AND o.deleted = 0 
    ORDER     BY o.id 
    DESC     LIMIT 5 
    OFFSET 0
 --> Execution Time: 0.00073385238647461, Seconds : 0.73385238647461
admin - Tanggal/Waktu : 07-Aug-2021/09:50:27 AM => 
 --> 
    SELECT ro.* 
    FROM retur_order ro 
    JOIN `order` o on o.id = ro.id 
    JOIN ( 
    SELECT max( id)  id, `order` 
    FROM order_status 
    GROUP     BY `order`)  oss on oss.order = o.id 
    JOIN order_status os on os.id = oss.id 
    WHERE ro.deleted = 0 
    AND os.status = 'DRAFT' 
    AND ro.deleted = 0 
    ORDER     BY ro.id 
    DESC     LIMIT 5 
    OFFSET 0
 --> Execution Time: 0.0007779598236084, Seconds : 0.7779598236084
