
----------../modules/template/controllers/satuan/search----------
admin - Tanggal/Waktu : 01-Nov-2021/19:56:00 PM => 
 --> 
    SELECT `k`.*, `p`.`product` as `nama_product`, `s`.`nama_satuan`, `hg`.`harga` as `harga_jual_fix` 
    FROM `product_satuan` `k` 
    JOIN `product` `p` ON `k`.`product` = `p`.`id` 
    JOIN ( 
    SELECT max( id)  id, product_satuan 
    FROM product_has_harga_jual 
    GROUP     BY product_satuan)  hg_max ON `hg_max`.`product_satuan` = `k`.`id` 
    JOIN `product_has_harga_jual` `hg` ON `hg`.`id` = `hg_max`.`id` 
    LEFT     JOIN `satuan` `s` ON `s`.`id` = `k`.`satuan` 
    WHERE `k`.`deleted` 
    IS     NULL     OR `k`.`deleted` =0 
    AND `p`.`product` 
    LIKE '%pertamax%' 
    ESCAPE '!' 
    OR `s`.`nama_satuan` 
    LIKE '%pertamax%' 
    ESCAPE '!' 
    LIMIT 10
 --> Execution Time: 0.012258052825928, Seconds : 12.258052825928
admin - Tanggal/Waktu : 01-Nov-2021/19:56:00 PM => 
 --> 
    SELECT COUNT( *)  AS `numrows` 
    FROM `product_satuan` `k` 
    JOIN `product` `p` ON `k`.`product` = `p`.`id` 
    LEFT     JOIN `satuan` `s` ON `s`.`id` = `k`.`satuan` 
    WHERE `k`.`deleted` 
    IS     NULL     OR `k`.`deleted` =0 
    AND `p`.`product` 
    LIKE '%pertamax%' 
    ESCAPE '!' 
    OR `s`.`nama_satuan` 
    LIKE '%pertamax%' 
    ESCAPE '!'
 --> Execution Time: 0.0086228847503662, Seconds : 8.6228847503662
admin - Tanggal/Waktu : 01-Nov-2021/19:56:00 PM => 
 --> 
    SELECT * 
    FROM `general` 
    LIMIT 1000
 --> Execution Time: 0.0035951137542725, Seconds : 3.5951137542725
admin - Tanggal/Waktu : 01-Nov-2021/19:56:00 PM => 
 --> 
    SELECT i.* 
    FROM invoice i 
    JOIN ( 
    SELECT max( id)  id, invoice 
    FROM invoice_status 
    GROUP     BY invoice)  iss on iss.invoice = i.id 
    JOIN invoice_status isa on isa.id = iss.id 
    WHERE isa.status = 'DRAFT' 
    AND i.deleted = 0 
    ORDER     BY i.id 
    DESC     LIMIT 5 
    OFFSET 0
 --> Execution Time: 0.00086712837219238, Seconds : 0.86712837219238
admin - Tanggal/Waktu : 01-Nov-2021/19:56:00 PM => 
 --> 
    SELECT o.* 
    FROM `order` o 
    JOIN ( 
    SELECT max( id)  id, `order` 
    FROM order_status 
    GROUP     BY `order`)  oss on oss.order = o.id 
    JOIN order_status os on os.id = oss.id 
    WHERE os.status = 'DRAFT' 
    AND o.deleted = 0 
    ORDER     BY o.id 
    DESC     LIMIT 5 
    OFFSET 0
 --> Execution Time: 0.00098395347595215, Seconds : 0.98395347595215
admin - Tanggal/Waktu : 01-Nov-2021/19:56:00 PM => 
 --> 
    SELECT ro.* 
    FROM retur_order ro 
    JOIN `order` o on o.id = ro.id 
    JOIN ( 
    SELECT max( id)  id, `order` 
    FROM order_status 
    GROUP     BY `order`)  oss on oss.order = o.id 
    JOIN order_status os on os.id = oss.id 
    WHERE ro.deleted = 0 
    AND os.status = 'DRAFT' 
    AND ro.deleted = 0 
    ORDER     BY ro.id 
    DESC     LIMIT 5 
    OFFSET 0
 --> Execution Time: 0.00064396858215332, Seconds : 0.64396858215332
