
----------../modules/database/controllers/satuan/simpan----------
administrator - Tanggal/Waktu : 07-Aug-2021/09:23:49 AM => 
 --> 
    UPDATE `product_satuan` 
    SET `product` = '3161', `satuan` = '958', `qty` = '1', `harga` = '4000', `harga_beli` = '3500', `ket_harga` = '', `satuan_terkecil` = 1, `updateddate` = '2021-08-07 09:23:49', `updatedby` = '1' 
    WHERE `id` = '14'
 --> Execution Time: 0.00052094459533691, Seconds : 0.52094459533691

----------../modules/template/controllers/satuan/detail----------
administrator - Tanggal/Waktu : 07-Aug-2021/09:23:49 AM => 
 --> 
    SELECT `kr`.*, `p`.`product` as `nama_product`, `s`.`nama_satuan`, `sp`.`nama_satuan` as `satuan_parent`, `hg`.`harga` as `harga_jual_fix`, `hgs`.`harga` `harga_grosir_fix` 
    FROM `product_satuan` `kr` 
    JOIN `product` `p` ON `kr`.`product` = `p`.`id` 
    JOIN ( 
    SELECT max( id)  id, product_satuan 
    FROM product_has_harga_jual 
    GROUP     BY product_satuan)  hg_max ON `hg_max`.`product_satuan` = `kr`.`id` 
    JOIN `product_has_harga_jual` `hg` ON `hg`.`id` = `hg_max`.`id` 
    LEFT     JOIN ( 
    SELECT max( id)  id, product_satuan 
    FROM product_has_harga_grosir 
    GROUP     BY product_satuan)  hgs_max ON `hgs_max`.`product_satuan` = `kr`.`id` 
    LEFT     JOIN `product_has_harga_grosir` `hgs` ON `hgs`.`id` = `hgs_max`.`id` 
    LEFT     JOIN `satuan` `s` ON `s`.`id` = `kr`.`satuan` 
    LEFT     JOIN `satuan` `sp` ON `sp`.`id` = `s`.`parent` 
    WHERE `kr`.`id` = '14' 
    LIMIT 1000
 --> Execution Time: 0.001953125, Seconds : 1.953125
administrator - Tanggal/Waktu : 07-Aug-2021/09:23:49 AM => 
 --> 
    SELECT * 
    FROM `general` 
    LIMIT 1000
 --> Execution Time: 0.0014078617095947, Seconds : 1.4078617095947
administrator - Tanggal/Waktu : 07-Aug-2021/09:23:49 AM => 
 --> 
    SELECT i.* 
    FROM invoice i 
    JOIN ( 
    SELECT max( id)  id, invoice 
    FROM invoice_status 
    GROUP     BY invoice)  iss on iss.invoice = i.id 
    JOIN invoice_status isa on isa.id = iss.id 
    WHERE isa.status = 'DRAFT' 
    AND i.deleted = 0 
    ORDER     BY i.id 
    DESC     LIMIT 5 
    OFFSET 0
 --> Execution Time: 0.0011098384857178, Seconds : 1.1098384857178
administrator - Tanggal/Waktu : 07-Aug-2021/09:23:49 AM => 
 --> 
    SELECT o.* 
    FROM `order` o 
    JOIN ( 
    SELECT max( id)  id, `order` 
    FROM order_status 
    GROUP     BY `order`)  oss on oss.order = o.id 
    JOIN order_status os on os.id = oss.id 
    WHERE os.status = 'DRAFT' 
    AND o.deleted = 0 
    ORDER     BY o.id 
    DESC     LIMIT 5 
    OFFSET 0
 --> Execution Time: 0.0012941360473633, Seconds : 1.2941360473633
administrator - Tanggal/Waktu : 07-Aug-2021/09:23:49 AM => 
 --> 
    SELECT ro.* 
    FROM retur_order ro 
    JOIN `order` o on o.id = ro.id 
    JOIN ( 
    SELECT max( id)  id, `order` 
    FROM order_status 
    GROUP     BY `order`)  oss on oss.order = o.id 
    JOIN order_status os on os.id = oss.id 
    WHERE ro.deleted = 0 
    AND os.status = 'DRAFT' 
    AND ro.deleted = 0 
    ORDER     BY ro.id 
    DESC     LIMIT 5 
    OFFSET 0
 --> Execution Time: 0.00071310997009277, Seconds : 0.71310997009277
