
----------../modules/template/controllers/produk/detail----------
admin - Tanggal/Waktu : 07-Oct-2021/19:08:08 PM => 
 --> 
    SELECT `r`.*, `kr`.`kategori` as `product_kategori`, `tr`.`tipe` 
    FROM `product` `r` 
    JOIN `kategori_product` `kr` ON `r`.`kategori_product` = `kr`.`id` 
    JOIN `tipe_product` `tr` ON `r`.`tipe_product` = `tr`.`id` 
    WHERE `r`.`id` = '1677' 
    LIMIT 1000
 --> Execution Time: 0.0018301010131836, Seconds : 1.8301010131836
admin - Tanggal/Waktu : 07-Oct-2021/19:08:08 PM => 
 --> 
    SELECT * 
    FROM `tipe_product` 
    WHERE `deleted` 
    IS     NULL     OR `deleted` =0 
    LIMIT 1000
 --> Execution Time: 0.00048589706420898, Seconds : 0.48589706420898
admin - Tanggal/Waktu : 07-Oct-2021/19:08:08 PM => 
 --> 
    SELECT * 
    FROM `kategori_product` 
    WHERE `deleted` 
    IS     NULL     OR `deleted` =0 
    LIMIT 1000
 --> Execution Time: 0.00075006484985352, Seconds : 0.75006484985352
admin - Tanggal/Waktu : 07-Oct-2021/19:08:08 PM => 
 --> 
    SELECT * 
    FROM `ansuran` 
    WHERE `deleted` 
    IS     NULL     OR `deleted` =0 
    LIMIT 1000
 --> Execution Time: 0.0022351741790771, Seconds : 2.2351741790771
admin - Tanggal/Waktu : 07-Oct-2021/19:08:08 PM => 
 --> 
    SELECT * 
    FROM `product_has_foto` 
    WHERE `product` = '1677' 
    AND `status` 
    IS     NULL     LIMIT 1000
 --> Execution Time: 0.0024039745330811, Seconds : 2.4039745330811
admin - Tanggal/Waktu : 07-Oct-2021/19:08:08 PM => 
 --> 
    SELECT * 
    FROM `general` 
    LIMIT 1000
 --> Execution Time: 0.00043511390686035, Seconds : 0.43511390686035
admin - Tanggal/Waktu : 07-Oct-2021/19:08:08 PM => 
 --> 
    SELECT i.* 
    FROM invoice i 
    JOIN ( 
    SELECT max( id)  id, invoice 
    FROM invoice_status 
    GROUP     BY invoice)  iss on iss.invoice = i.id 
    JOIN invoice_status isa on isa.id = iss.id 
    WHERE isa.status = 'DRAFT' 
    AND i.deleted = 0 
    ORDER     BY i.id 
    DESC     LIMIT 5 
    OFFSET 0
 --> Execution Time: 0.00091195106506348, Seconds : 0.91195106506348
admin - Tanggal/Waktu : 07-Oct-2021/19:08:08 PM => 
 --> 
    SELECT o.* 
    FROM `order` o 
    JOIN ( 
    SELECT max( id)  id, `order` 
    FROM order_status 
    GROUP     BY `order`)  oss on oss.order = o.id 
    JOIN order_status os on os.id = oss.id 
    WHERE os.status = 'DRAFT' 
    AND o.deleted = 0 
    ORDER     BY o.id 
    DESC     LIMIT 5 
    OFFSET 0
 --> Execution Time: 0.00099992752075195, Seconds : 0.99992752075195
admin - Tanggal/Waktu : 07-Oct-2021/19:08:08 PM => 
 --> 
    SELECT ro.* 
    FROM retur_order ro 
    JOIN `order` o on o.id = ro.id 
    JOIN ( 
    SELECT max( id)  id, `order` 
    FROM order_status 
    GROUP     BY `order`)  oss on oss.order = o.id 
    JOIN order_status os on os.id = oss.id 
    WHERE ro.deleted = 0 
    AND os.status = 'DRAFT' 
    AND ro.deleted = 0 
    ORDER     BY ro.id 
    DESC     LIMIT 5 
    OFFSET 0
 --> Execution Time: 0.00075101852416992, Seconds : 0.75101852416992
