
----------../modules/order/controllers/order/chooseProduk----------
admin - Tanggal/Waktu : 23-Aug-2021/08:22:42 AM => 
 --> 
    SELECT ps.* , s.nama_satuan , ps.qty as konversi , ps.ket_harga as keterangan 
    FROM product_satuan ps 
    JOIN satuan s on s.id = ps.satuan 
    WHERE ps.product = 1677 
    AND ps.deleted = 0
 --> Execution Time: 0.00086212158203125, Seconds : 0.86212158203125
admin - Tanggal/Waktu : 23-Aug-2021/08:22:42 AM => 
 --> 
    SELECT ps.* , s.nama_satuan , ps.qty as konversi , ps.ket_harga as keterangan 
    FROM product_satuan ps 
    JOIN satuan s on s.id = ps.satuan 
    WHERE ps.product = 1677 
    AND ps.deleted = 0 
    AND ps.satuan_terkecil = 1
 --> Execution Time: 0.00054788589477539, Seconds : 0.54788589477539
