
----------../modules/template/controllers/produk/index----------
admin - Tanggal/Waktu : 08-Aug-2021/13:07:03 PM => 
 --> 
    SELECT `r`.*, `tr`.`tipe`, `kr`.`kategori` 
    FROM `product` `r` 
    JOIN `kategori_product` `kr` ON `r`.`kategori_product` = `kr`.`id` 
    JOIN `tipe_product` `tr` ON `r`.`tipe_product` = `tr`.`id` 
    WHERE `r`.`deleted` =0 
    OR `r`.`deleted` 
    IS     NULL     LIMIT 10
 --> Execution Time: 0.00082993507385254, Seconds : 0.82993507385254
admin - Tanggal/Waktu : 08-Aug-2021/13:07:03 PM => 
 --> 
    SELECT COUNT( *)  AS `numrows` 
    FROM `product` `r` 
    JOIN `kategori_product` `kr` ON `r`.`kategori_product` = `kr`.`id` 
    JOIN `tipe_product` `tr` ON `r`.`tipe_product` = `tr`.`id` 
    WHERE `r`.`deleted` =0 
    OR `r`.`deleted` 
    IS null
 --> Execution Time: 0.0013439655303955, Seconds : 1.3439655303955
admin - Tanggal/Waktu : 08-Aug-2021/13:07:03 PM => 
 --> 
    SELECT * 
    FROM `general` 
    LIMIT 1000
 --> Execution Time: 0.0021259784698486, Seconds : 2.1259784698486
admin - Tanggal/Waktu : 08-Aug-2021/13:07:03 PM => 
 --> 
    SELECT i.* 
    FROM invoice i 
    JOIN ( 
    SELECT max( id)  id, invoice 
    FROM invoice_status 
    GROUP     BY invoice)  iss on iss.invoice = i.id 
    JOIN invoice_status isa on isa.id = iss.id 
    WHERE isa.status = 'DRAFT' 
    AND i.deleted = 0 
    ORDER     BY i.id 
    DESC     LIMIT 5 
    OFFSET 0
 --> Execution Time: 0.00087189674377441, Seconds : 0.87189674377441
admin - Tanggal/Waktu : 08-Aug-2021/13:07:03 PM => 
 --> 
    SELECT o.* 
    FROM `order` o 
    JOIN ( 
    SELECT max( id)  id, `order` 
    FROM order_status 
    GROUP     BY `order`)  oss on oss.order = o.id 
    JOIN order_status os on os.id = oss.id 
    WHERE os.status = 'DRAFT' 
    AND o.deleted = 0 
    ORDER     BY o.id 
    DESC     LIMIT 5 
    OFFSET 0
 --> Execution Time: 0.00078701972961426, Seconds : 0.78701972961426
admin - Tanggal/Waktu : 08-Aug-2021/13:07:03 PM => 
 --> 
    SELECT ro.* 
    FROM retur_order ro 
    JOIN `order` o on o.id = ro.id 
    JOIN ( 
    SELECT max( id)  id, `order` 
    FROM order_status 
    GROUP     BY `order`)  oss on oss.order = o.id 
    JOIN order_status os on os.id = oss.id 
    WHERE ro.deleted = 0 
    AND os.status = 'DRAFT' 
    AND ro.deleted = 0 
    ORDER     BY ro.id 
    DESC     LIMIT 5 
    OFFSET 0
 --> Execution Time: 0.00086617469787598, Seconds : 0.86617469787598
