
----------../modules/database/controllers/login/sign_in----------
admin - Tanggal/Waktu : 05-Nov-2021/19:01:58 PM => 
 --> 
    SELECT `u`.*, `p`.`hak_akses` 
    FROM `user` `u` 
    JOIN `priveledge` `p` ON `u`.`priveledge` = `p`.`id` 
    WHERE `u`.`username` = 'admin' 
    AND `u`.`password` = '21232f297a57a5a743894a0e4a801fc3' 
    AND ( `u`.`deleted` =0 
    OR `u`.`deleted` 
    IS     NULL)  
    LIMIT 1000
 --> Execution Time: 0.0066301822662354, Seconds : 6.6301822662354

----------../modules/template/controllers/dashboard/index----------
admin - Tanggal/Waktu : 05-Nov-2021/19:01:58 PM => 
 --> 
    SELECT `i`.*, `p`.`nama` as `nama_pembeli`, `p`.`no_hp`, `p`.`alamat`, `isa`.`status` 
    FROM `invoice` `i` 
    JOIN `pembeli` `p` ON `i`.`pembeli` = `p`.`id` 
    JOIN ( 
    SELECT max( id)  id, invoice 
    FROM invoice_status 
    GROUP     BY invoice)  iss ON `i`.`id` = `iss`.`invoice` 
    JOIN `invoice_status` `isa` ON `isa`.`id`= `iss`.`id` 
    WHERE `i`.`deleted` =0 
    ORDER     BY `i`.`id` 
    DESC     LIMIT 5
 --> Execution Time: 0.012255907058716, Seconds : 12.255907058716
admin - Tanggal/Waktu : 05-Nov-2021/19:01:58 PM => 
 --> 
    SELECT sum( total)  as total 
    FROM invoice 
    WHERE tanggal_faktur 
    LIKE '%2021%' 
    AND deleted = 0 
    LIMIT 1000 
    OFFSET 0
 --> Execution Time: 0.00055193901062012, Seconds : 0.55193901062012
admin - Tanggal/Waktu : 05-Nov-2021/19:01:58 PM => 
 --> 
    SELECT count( *)  as jumlah 
    FROM invoice 
    WHERE tanggal_faktur 
    LIKE '%2021%' 
    AND deleted = 0 
    LIMIT 1000 
    OFFSET 0
 --> Execution Time: 0.00050497055053711, Seconds : 0.50497055053711
admin - Tanggal/Waktu : 05-Nov-2021/19:01:58 PM => 
 --> 
    SELECT sum( i.total)  as total 
    FROM invoice i 
    JOIN ( 
    SELECT max( id)  id, invoice 
    FROM invoice_status 
    GROUP     BY invoice)  iss on iss.invoice = i.id 
    JOIN invoice_status isa on isa.id = iss.id 
    WHERE isa.status = 'PAID' 
    AND i.tanggal_faktur 
    LIKE '%2021%' 
    AND i.deleted = 0 
    LIMIT 1000 
    OFFSET 0
 --> Execution Time: 0.0007929801940918, Seconds : 0.7929801940918
admin - Tanggal/Waktu : 05-Nov-2021/19:01:58 PM => 
 --> 
    SELECT pt.total , QUARTER( pt.createddate)  AS quartal 
    FROM pembayaran_tagihan pt 
    WHERE pt.createddate 
    LIKE '%2021%' 
    LIMIT 1000 
    OFFSET 0
 --> Execution Time: 0.0028121471405029, Seconds : 2.8121471405029
admin - Tanggal/Waktu : 05-Nov-2021/19:01:58 PM => 
 --> 
    SELECT pv.total , QUARTER( pv.createddate)  AS quartal 
    FROM pembayaran_vendor pv 
    WHERE pv.createddate 
    LIKE '%2021%' 
    LIMIT 1000 
    OFFSET 0
 --> Execution Time: 0.0023329257965088, Seconds : 2.3329257965088
admin - Tanggal/Waktu : 05-Nov-2021/19:01:58 PM => 
 --> 
    SELECT pl.total , QUARTER( pl.createddate)  AS quartal 
    FROM pembayaran_lain_lain pl 
    WHERE pl.createddate 
    LIKE '%2021%' 
    LIMIT 1000 
    OFFSET 0
 --> Execution Time: 0.0022790431976318, Seconds : 2.2790431976318
admin - Tanggal/Waktu : 05-Nov-2021/19:01:58 PM => 
 --> 
    SELECT * 
    FROM `product` 
    LIMIT 1000
 --> Execution Time: 0.012628078460693, Seconds : 12.628078460693
admin - Tanggal/Waktu : 05-Nov-2021/19:01:58 PM => 
 --> 
    SELECT * 
    FROM `pembeli` 
    LIMIT 1000
 --> Execution Time: 0.0006098747253418, Seconds : 0.6098747253418
admin - Tanggal/Waktu : 05-Nov-2021/19:01:58 PM => 
 --> 
    SELECT * 
    FROM `user` 
    LIMIT 1000
 --> Execution Time: 0.0004580020904541, Seconds : 0.4580020904541
admin - Tanggal/Waktu : 05-Nov-2021/19:01:58 PM => 
 --> 
    SELECT * 
    FROM invoice 
    WHERE createddate 
    LIKE '%2021-01%' 
    AND deleted = 0 
    LIMIT 1000 
    OFFSET 0
 --> Execution Time: 0.0006709098815918, Seconds : 0.6709098815918
admin - Tanggal/Waktu : 05-Nov-2021/19:01:58 PM => 
 --> 
    SELECT * 
    FROM invoice 
    WHERE createddate 
    LIKE '%2021-02%' 
    AND deleted = 0 
    LIMIT 1000 
    OFFSET 0
 --> Execution Time: 0.00048089027404785, Seconds : 0.48089027404785
admin - Tanggal/Waktu : 05-Nov-2021/19:01:58 PM => 
 --> 
    SELECT * 
    FROM invoice 
    WHERE createddate 
    LIKE '%2021-03%' 
    AND deleted = 0 
    LIMIT 1000 
    OFFSET 0
 --> Execution Time: 0.0019919872283936, Seconds : 1.9919872283936
admin - Tanggal/Waktu : 05-Nov-2021/19:01:58 PM => 
 --> 
    SELECT * 
    FROM invoice 
    WHERE createddate 
    LIKE '%2021-04%' 
    AND deleted = 0 
    LIMIT 1000 
    OFFSET 0
 --> Execution Time: 0.00067877769470215, Seconds : 0.67877769470215
admin - Tanggal/Waktu : 05-Nov-2021/19:01:58 PM => 
 --> 
    SELECT * 
    FROM invoice 
    WHERE createddate 
    LIKE '%2021-05%' 
    AND deleted = 0 
    LIMIT 1000 
    OFFSET 0
 --> Execution Time: 0.00056600570678711, Seconds : 0.56600570678711
admin - Tanggal/Waktu : 05-Nov-2021/19:01:58 PM => 
 --> 
    SELECT * 
    FROM invoice 
    WHERE createddate 
    LIKE '%2021-06%' 
    AND deleted = 0 
    LIMIT 1000 
    OFFSET 0
 --> Execution Time: 0.00046706199645996, Seconds : 0.46706199645996
admin - Tanggal/Waktu : 05-Nov-2021/19:01:58 PM => 
 --> 
    SELECT * 
    FROM invoice 
    WHERE createddate 
    LIKE '%2021-07%' 
    AND deleted = 0 
    LIMIT 1000 
    OFFSET 0
 --> Execution Time: 0.00037717819213867, Seconds : 0.37717819213867
admin - Tanggal/Waktu : 05-Nov-2021/19:01:58 PM => 
 --> 
    SELECT * 
    FROM invoice 
    WHERE createddate 
    LIKE '%2021-08%' 
    AND deleted = 0 
    LIMIT 1000 
    OFFSET 0
 --> Execution Time: 0.00050687789916992, Seconds : 0.50687789916992
admin - Tanggal/Waktu : 05-Nov-2021/19:01:58 PM => 
 --> 
    SELECT * 
    FROM invoice 
    WHERE createddate 
    LIKE '%2021-09%' 
    AND deleted = 0 
    LIMIT 1000 
    OFFSET 0
 --> Execution Time: 0.00047016143798828, Seconds : 0.47016143798828
admin - Tanggal/Waktu : 05-Nov-2021/19:01:58 PM => 
 --> 
    SELECT * 
    FROM invoice 
    WHERE createddate 
    LIKE '%2021-10%' 
    AND deleted = 0 
    LIMIT 1000 
    OFFSET 0
 --> Execution Time: 0.00043797492980957, Seconds : 0.43797492980957
admin - Tanggal/Waktu : 05-Nov-2021/19:01:58 PM => 
 --> 
    SELECT * 
    FROM invoice 
    WHERE createddate 
    LIKE '%2021-11%' 
    AND deleted = 0 
    LIMIT 1000 
    OFFSET 0
 --> Execution Time: 0.00046586990356445, Seconds : 0.46586990356445
admin - Tanggal/Waktu : 05-Nov-2021/19:01:58 PM => 
 --> 
    SELECT js.id, c.keterangan , ct.jenis 
    FROM jurnal_detail jd 
    JOIN jurnal_struktur js on jd.jurnal_struktur = js.id 
    JOIN feature f on js.feature = f.id 
    JOIN coa c on c.id = js.coa 
    JOIN coa_type ct on ct.id = js.coa_type 
    WHERE c.keterangan = 'Bank & Kas' 
    AND jd.deleted = 0 
    AND jd.createddate 
    LIKE '%2021-01%' 
    AND ct.jenis = 'KREDIT' 
    LIMIT 1000 
    OFFSET 0
 --> Execution Time: 0.012253999710083, Seconds : 12.253999710083
admin - Tanggal/Waktu : 05-Nov-2021/19:01:58 PM => 
 --> 
    SELECT js.id, c.keterangan , ct.jenis 
    FROM jurnal_detail jd 
    JOIN jurnal_struktur js on jd.jurnal_struktur = js.id 
    JOIN feature f on js.feature = f.id 
    JOIN coa c on c.id = js.coa 
    JOIN coa_type ct on ct.id = js.coa_type 
    WHERE c.keterangan = 'Bank & Kas' 
    AND jd.deleted = 0 
    AND jd.createddate 
    LIKE '%2021-02%' 
    AND ct.jenis = 'KREDIT' 
    LIMIT 1000 
    OFFSET 0
 --> Execution Time: 0.00051999092102051, Seconds : 0.51999092102051
admin - Tanggal/Waktu : 05-Nov-2021/19:01:58 PM => 
 --> 
    SELECT js.id, c.keterangan , ct.jenis 
    FROM jurnal_detail jd 
    JOIN jurnal_struktur js on jd.jurnal_struktur = js.id 
    JOIN feature f on js.feature = f.id 
    JOIN coa c on c.id = js.coa 
    JOIN coa_type ct on ct.id = js.coa_type 
    WHERE c.keterangan = 'Bank & Kas' 
    AND jd.deleted = 0 
    AND jd.createddate 
    LIKE '%2021-03%' 
    AND ct.jenis = 'KREDIT' 
    LIMIT 1000 
    OFFSET 0
 --> Execution Time: 0.00047898292541504, Seconds : 0.47898292541504
admin - Tanggal/Waktu : 05-Nov-2021/19:01:58 PM => 
 --> 
    SELECT js.id, c.keterangan , ct.jenis 
    FROM jurnal_detail jd 
    JOIN jurnal_struktur js on jd.jurnal_struktur = js.id 
    JOIN feature f on js.feature = f.id 
    JOIN coa c on c.id = js.coa 
    JOIN coa_type ct on ct.id = js.coa_type 
    WHERE c.keterangan = 'Bank & Kas' 
    AND jd.deleted = 0 
    AND jd.createddate 
    LIKE '%2021-04%' 
    AND ct.jenis = 'KREDIT' 
    LIMIT 1000 
    OFFSET 0
 --> Execution Time: 0.00044798851013184, Seconds : 0.44798851013184
admin - Tanggal/Waktu : 05-Nov-2021/19:01:58 PM => 
 --> 
    SELECT js.id, c.keterangan , ct.jenis 
    FROM jurnal_detail jd 
    JOIN jurnal_struktur js on jd.jurnal_struktur = js.id 
    JOIN feature f on js.feature = f.id 
    JOIN coa c on c.id = js.coa 
    JOIN coa_type ct on ct.id = js.coa_type 
    WHERE c.keterangan = 'Bank & Kas' 
    AND jd.deleted = 0 
    AND jd.createddate 
    LIKE '%2021-05%' 
    AND ct.jenis = 'KREDIT' 
    LIMIT 1000 
    OFFSET 0
 --> Execution Time: 0.0004420280456543, Seconds : 0.4420280456543
admin - Tanggal/Waktu : 05-Nov-2021/19:01:58 PM => 
 --> 
    SELECT js.id, c.keterangan , ct.jenis 
    FROM jurnal_detail jd 
    JOIN jurnal_struktur js on jd.jurnal_struktur = js.id 
    JOIN feature f on js.feature = f.id 
    JOIN coa c on c.id = js.coa 
    JOIN coa_type ct on ct.id = js.coa_type 
    WHERE c.keterangan = 'Bank & Kas' 
    AND jd.deleted = 0 
    AND jd.createddate 
    LIKE '%2021-06%' 
    AND ct.jenis = 'KREDIT' 
    LIMIT 1000 
    OFFSET 0
 --> Execution Time: 0.00043296813964844, Seconds : 0.43296813964844
admin - Tanggal/Waktu : 05-Nov-2021/19:01:58 PM => 
 --> 
    SELECT js.id, c.keterangan , ct.jenis 
    FROM jurnal_detail jd 
    JOIN jurnal_struktur js on jd.jurnal_struktur = js.id 
    JOIN feature f on js.feature = f.id 
    JOIN coa c on c.id = js.coa 
    JOIN coa_type ct on ct.id = js.coa_type 
    WHERE c.keterangan = 'Bank & Kas' 
    AND jd.deleted = 0 
    AND jd.createddate 
    LIKE '%2021-07%' 
    AND ct.jenis = 'KREDIT' 
    LIMIT 1000 
    OFFSET 0
 --> Execution Time: 0.00039815902709961, Seconds : 0.39815902709961
admin - Tanggal/Waktu : 05-Nov-2021/19:01:58 PM => 
 --> 
    SELECT js.id, c.keterangan , ct.jenis 
    FROM jurnal_detail jd 
    JOIN jurnal_struktur js on jd.jurnal_struktur = js.id 
    JOIN feature f on js.feature = f.id 
    JOIN coa c on c.id = js.coa 
    JOIN coa_type ct on ct.id = js.coa_type 
    WHERE c.keterangan = 'Bank & Kas' 
    AND jd.deleted = 0 
    AND jd.createddate 
    LIKE '%2021-08%' 
    AND ct.jenis = 'KREDIT' 
    LIMIT 1000 
    OFFSET 0
 --> Execution Time: 0.00043916702270508, Seconds : 0.43916702270508
admin - Tanggal/Waktu : 05-Nov-2021/19:01:58 PM => 
 --> 
    SELECT js.id, c.keterangan , ct.jenis 
    FROM jurnal_detail jd 
    JOIN jurnal_struktur js on jd.jurnal_struktur = js.id 
    JOIN feature f on js.feature = f.id 
    JOIN coa c on c.id = js.coa 
    JOIN coa_type ct on ct.id = js.coa_type 
    WHERE c.keterangan = 'Bank & Kas' 
    AND jd.deleted = 0 
    AND jd.createddate 
    LIKE '%2021-09%' 
    AND ct.jenis = 'KREDIT' 
    LIMIT 1000 
    OFFSET 0
 --> Execution Time: 0.0004279613494873, Seconds : 0.4279613494873
admin - Tanggal/Waktu : 05-Nov-2021/19:01:58 PM => 
 --> 
    SELECT js.id, c.keterangan , ct.jenis 
    FROM jurnal_detail jd 
    JOIN jurnal_struktur js on jd.jurnal_struktur = js.id 
    JOIN feature f on js.feature = f.id 
    JOIN coa c on c.id = js.coa 
    JOIN coa_type ct on ct.id = js.coa_type 
    WHERE c.keterangan = 'Bank & Kas' 
    AND jd.deleted = 0 
    AND jd.createddate 
    LIKE '%2021-10%' 
    AND ct.jenis = 'KREDIT' 
    LIMIT 1000 
    OFFSET 0
 --> Execution Time: 0.00040507316589355, Seconds : 0.40507316589355
admin - Tanggal/Waktu : 05-Nov-2021/19:01:58 PM => 
 --> 
    SELECT js.id, c.keterangan , ct.jenis 
    FROM jurnal_detail jd 
    JOIN jurnal_struktur js on jd.jurnal_struktur = js.id 
    JOIN feature f on js.feature = f.id 
    JOIN coa c on c.id = js.coa 
    JOIN coa_type ct on ct.id = js.coa_type 
    WHERE c.keterangan = 'Bank & Kas' 
    AND jd.deleted = 0 
    AND jd.createddate 
    LIKE '%2021-11%' 
    AND ct.jenis = 'KREDIT' 
    LIMIT 1000 
    OFFSET 0
 --> Execution Time: 0.00039482116699219, Seconds : 0.39482116699219
admin - Tanggal/Waktu : 05-Nov-2021/19:01:58 PM => 
 --> 
    SELECT js.id, c.keterangan , ct.jenis 
    FROM jurnal_detail jd 
    JOIN jurnal_struktur js on jd.jurnal_struktur = js.id 
    JOIN feature f on js.feature = f.id 
    JOIN coa c on c.id = js.coa 
    JOIN coa_type ct on ct.id = js.coa_type 
    WHERE c.keterangan = 'Bank & Kas' 
    AND jd.deleted = 0 
    AND jd.createddate 
    LIKE '%2021-01%' 
    AND ct.jenis = 'DEBIT' 
    LIMIT 1000 
    OFFSET 0
 --> Execution Time: 0.0003969669342041, Seconds : 0.3969669342041
admin - Tanggal/Waktu : 05-Nov-2021/19:01:58 PM => 
 --> 
    SELECT js.id, c.keterangan , ct.jenis 
    FROM jurnal_detail jd 
    JOIN jurnal_struktur js on jd.jurnal_struktur = js.id 
    JOIN feature f on js.feature = f.id 
    JOIN coa c on c.id = js.coa 
    JOIN coa_type ct on ct.id = js.coa_type 
    WHERE c.keterangan = 'Bank & Kas' 
    AND jd.deleted = 0 
    AND jd.createddate 
    LIKE '%2021-02%' 
    AND ct.jenis = 'DEBIT' 
    LIMIT 1000 
    OFFSET 0
 --> Execution Time: 0.00039386749267578, Seconds : 0.39386749267578
admin - Tanggal/Waktu : 05-Nov-2021/19:01:58 PM => 
 --> 
    SELECT js.id, c.keterangan , ct.jenis 
    FROM jurnal_detail jd 
    JOIN jurnal_struktur js on jd.jurnal_struktur = js.id 
    JOIN feature f on js.feature = f.id 
    JOIN coa c on c.id = js.coa 
    JOIN coa_type ct on ct.id = js.coa_type 
    WHERE c.keterangan = 'Bank & Kas' 
    AND jd.deleted = 0 
    AND jd.createddate 
    LIKE '%2021-03%' 
    AND ct.jenis = 'DEBIT' 
    LIMIT 1000 
    OFFSET 0
 --> Execution Time: 0.00038504600524902, Seconds : 0.38504600524902
admin - Tanggal/Waktu : 05-Nov-2021/19:01:58 PM => 
 --> 
    SELECT js.id, c.keterangan , ct.jenis 
    FROM jurnal_detail jd 
    JOIN jurnal_struktur js on jd.jurnal_struktur = js.id 
    JOIN feature f on js.feature = f.id 
    JOIN coa c on c.id = js.coa 
    JOIN coa_type ct on ct.id = js.coa_type 
    WHERE c.keterangan = 'Bank & Kas' 
    AND jd.deleted = 0 
    AND jd.createddate 
    LIKE '%2021-04%' 
    AND ct.jenis = 'DEBIT' 
    LIMIT 1000 
    OFFSET 0
 --> Execution Time: 0.00038599967956543, Seconds : 0.38599967956543
admin - Tanggal/Waktu : 05-Nov-2021/19:01:58 PM => 
 --> 
    SELECT js.id, c.keterangan , ct.jenis 
    FROM jurnal_detail jd 
    JOIN jurnal_struktur js on jd.jurnal_struktur = js.id 
    JOIN feature f on js.feature = f.id 
    JOIN coa c on c.id = js.coa 
    JOIN coa_type ct on ct.id = js.coa_type 
    WHERE c.keterangan = 'Bank & Kas' 
    AND jd.deleted = 0 
    AND jd.createddate 
    LIKE '%2021-05%' 
    AND ct.jenis = 'DEBIT' 
    LIMIT 1000 
    OFFSET 0
 --> Execution Time: 0.00040507316589355, Seconds : 0.40507316589355
admin - Tanggal/Waktu : 05-Nov-2021/19:01:58 PM => 
 --> 
    SELECT js.id, c.keterangan , ct.jenis 
    FROM jurnal_detail jd 
    JOIN jurnal_struktur js on jd.jurnal_struktur = js.id 
    JOIN feature f on js.feature = f.id 
    JOIN coa c on c.id = js.coa 
    JOIN coa_type ct on ct.id = js.coa_type 
    WHERE c.keterangan = 'Bank & Kas' 
    AND jd.deleted = 0 
    AND jd.createddate 
    LIKE '%2021-06%' 
    AND ct.jenis = 'DEBIT' 
    LIMIT 1000 
    OFFSET 0
 --> Execution Time: 0.0019431114196777, Seconds : 1.9431114196777
admin - Tanggal/Waktu : 05-Nov-2021/19:01:58 PM => 
 --> 
    SELECT js.id, c.keterangan , ct.jenis 
    FROM jurnal_detail jd 
    JOIN jurnal_struktur js on jd.jurnal_struktur = js.id 
    JOIN feature f on js.feature = f.id 
    JOIN coa c on c.id = js.coa 
    JOIN coa_type ct on ct.id = js.coa_type 
    WHERE c.keterangan = 'Bank & Kas' 
    AND jd.deleted = 0 
    AND jd.createddate 
    LIKE '%2021-07%' 
    AND ct.jenis = 'DEBIT' 
    LIMIT 1000 
    OFFSET 0
 --> Execution Time: 0.00059294700622559, Seconds : 0.59294700622559
admin - Tanggal/Waktu : 05-Nov-2021/19:01:58 PM => 
 --> 
    SELECT js.id, c.keterangan , ct.jenis 
    FROM jurnal_detail jd 
    JOIN jurnal_struktur js on jd.jurnal_struktur = js.id 
    JOIN feature f on js.feature = f.id 
    JOIN coa c on c.id = js.coa 
    JOIN coa_type ct on ct.id = js.coa_type 
    WHERE c.keterangan = 'Bank & Kas' 
    AND jd.deleted = 0 
    AND jd.createddate 
    LIKE '%2021-08%' 
    AND ct.jenis = 'DEBIT' 
    LIMIT 1000 
    OFFSET 0
 --> Execution Time: 0.0005180835723877, Seconds : 0.5180835723877
admin - Tanggal/Waktu : 05-Nov-2021/19:01:58 PM => 
 --> 
    SELECT js.id, c.keterangan , ct.jenis 
    FROM jurnal_detail jd 
    JOIN jurnal_struktur js on jd.jurnal_struktur = js.id 
    JOIN feature f on js.feature = f.id 
    JOIN coa c on c.id = js.coa 
    JOIN coa_type ct on ct.id = js.coa_type 
    WHERE c.keterangan = 'Bank & Kas' 
    AND jd.deleted = 0 
    AND jd.createddate 
    LIKE '%2021-09%' 
    AND ct.jenis = 'DEBIT' 
    LIMIT 1000 
    OFFSET 0
 --> Execution Time: 0.00046491622924805, Seconds : 0.46491622924805
admin - Tanggal/Waktu : 05-Nov-2021/19:01:58 PM => 
 --> 
    SELECT js.id, c.keterangan , ct.jenis 
    FROM jurnal_detail jd 
    JOIN jurnal_struktur js on jd.jurnal_struktur = js.id 
    JOIN feature f on js.feature = f.id 
    JOIN coa c on c.id = js.coa 
    JOIN coa_type ct on ct.id = js.coa_type 
    WHERE c.keterangan = 'Bank & Kas' 
    AND jd.deleted = 0 
    AND jd.createddate 
    LIKE '%2021-10%' 
    AND ct.jenis = 'DEBIT' 
    LIMIT 1000 
    OFFSET 0
 --> Execution Time: 0.00046992301940918, Seconds : 0.46992301940918
admin - Tanggal/Waktu : 05-Nov-2021/19:01:58 PM => 
 --> 
    SELECT js.id, c.keterangan , ct.jenis 
    FROM jurnal_detail jd 
    JOIN jurnal_struktur js on jd.jurnal_struktur = js.id 
    JOIN feature f on js.feature = f.id 
    JOIN coa c on c.id = js.coa 
    JOIN coa_type ct on ct.id = js.coa_type 
    WHERE c.keterangan = 'Bank & Kas' 
    AND jd.deleted = 0 
    AND jd.createddate 
    LIKE '%2021-11%' 
    AND ct.jenis = 'DEBIT' 
    LIMIT 1000 
    OFFSET 0
 --> Execution Time: 0.00053000450134277, Seconds : 0.53000450134277
admin - Tanggal/Waktu : 05-Nov-2021/19:01:58 PM => 
 --> 
    SELECT ( pi.harga * pi.qty)  as harga_beli_total , QUARTER( p.createddate)  AS quartal 
    FROM product_has_price_procurement phpr 
    JOIN procurement_item pi on pi.id = phpr.procurement_item 
    AND pi.deleted = 0 
    JOIN procurement p on p.id = pi.procurement 
    WHERE p.deleted = 0 
    AND p.createddate 
    LIKE '%2021%'
 --> Execution Time: 0.0079400539398193, Seconds : 7.9400539398193
admin - Tanggal/Waktu : 05-Nov-2021/19:01:58 PM => 
 --> 
    SELECT     DISTINCT i.no_faktur ,pi.jumlah_bayar ,( ps.harga_beli * ip.qty)  as harga_beli_total , ip.sub_total as total_faktur , isa.jumlah as sisa_hutang , ist.status 
    FROM payment p 
    JOIN payment_item pi on p.id = pi.payment 
    JOIN invoice i on i.id = pi.invoice 
    JOIN metode_bayar mb on mb.id = i.metode_bayar 
    JOIN invoice_product ip on ip.invoice = i.id 
    JOIN product_satuan ps on ps.id = ip.product_satuan 
    JOIN ( 
    SELECT max( id)  id, invoice 
    FROM invoice_sisa 
    GROUP     BY invoice)  isa_group on isa_group.invoice = i.id 
    JOIN invoice_sisa isa on isa.id = isa_group.id 
    JOIN ( 
    SELECT max( id)  id, invoice 
    FROM invoice_status 
    GROUP     BY invoice)  ist_group on ist_group.invoice = i.id 
    JOIN invoice_status ist on ist.id = ist_group.id 
    WHERE p.deleted = 0 
    AND p.createddate 
    LIKE '%2021%' 
    ORDER     BY p.id desc
 --> Execution Time: 0.014545917510986, Seconds : 14.545917510986
admin - Tanggal/Waktu : 05-Nov-2021/19:01:58 PM => 
 --> 
    SELECT * 
    FROM `general` 
    LIMIT 1000
 --> Execution Time: 0.00055384635925293, Seconds : 0.55384635925293
admin - Tanggal/Waktu : 05-Nov-2021/19:01:58 PM => 
 --> 
    SELECT i.* 
    FROM invoice i 
    JOIN ( 
    SELECT max( id)  id, invoice 
    FROM invoice_status 
    GROUP     BY invoice)  iss on iss.invoice = i.id 
    JOIN invoice_status isa on isa.id = iss.id 
    WHERE isa.status = 'DRAFT' 
    AND i.deleted = 0 
    ORDER     BY i.id 
    DESC     LIMIT 5 
    OFFSET 0
 --> Execution Time: 0.00084495544433594, Seconds : 0.84495544433594
admin - Tanggal/Waktu : 05-Nov-2021/19:01:58 PM => 
 --> 
    SELECT o.* 
    FROM `order` o 
    JOIN ( 
    SELECT max( id)  id, `order` 
    FROM order_status 
    GROUP     BY `order`)  oss on oss.order = o.id 
    JOIN order_status os on os.id = oss.id 
    WHERE os.status = 'DRAFT' 
    AND o.deleted = 0 
    ORDER     BY o.id 
    DESC     LIMIT 5 
    OFFSET 0
 --> Execution Time: 0.004166841506958, Seconds : 4.166841506958
admin - Tanggal/Waktu : 05-Nov-2021/19:01:58 PM => 
 --> 
    SELECT ro.* 
    FROM retur_order ro 
    JOIN `order` o on o.id = ro.id 
    JOIN ( 
    SELECT max( id)  id, `order` 
    FROM order_status 
    GROUP     BY `order`)  oss on oss.order = o.id 
    JOIN order_status os on os.id = oss.id 
    WHERE ro.deleted = 0 
    AND os.status = 'DRAFT' 
    AND ro.deleted = 0 
    ORDER     BY ro.id 
    DESC     LIMIT 5 
    OFFSET 0
 --> Execution Time: 0.0026907920837402, Seconds : 2.6907920837402
