
----------../modules/database/controllers/login/index----------
 - Tanggal/Waktu : 06-Aug-2021/10:15:04 AM => 
 --> 
    SELECT * 
    FROM `general` 
    LIMIT 1000
 --> Execution Time: 0.00050091743469238, Seconds : 0.50091743469238
