
----------../modules/template/controllers/pelanggan/index----------
admin - Tanggal/Waktu : 17-Aug-2021/07:49:13 AM => 
 --> 
    SELECT `p`.* 
    FROM `pembeli` `p` 
    WHERE ( `p`.`deleted` =0 
    OR `p`.`deleted` 
    IS     NULL)  
    LIMIT 10
 --> Execution Time: 0.0020360946655273, Seconds : 2.0360946655273
admin - Tanggal/Waktu : 17-Aug-2021/07:49:13 AM => 
 --> 
    SELECT COUNT( *)  AS `numrows` 
    FROM `pembeli` `p` 
    WHERE ( `p`.`deleted` =0 
    OR `p`.`deleted` 
    IS     NULL) 
 --> Execution Time: 0.00044989585876465, Seconds : 0.44989585876465
admin - Tanggal/Waktu : 17-Aug-2021/07:49:13 AM => 
 --> 
    SELECT * 
    FROM `general` 
    LIMIT 1000
 --> Execution Time: 0.00052380561828613, Seconds : 0.52380561828613
admin - Tanggal/Waktu : 17-Aug-2021/07:49:13 AM => 
 --> 
    SELECT i.* 
    FROM invoice i 
    JOIN ( 
    SELECT max( id)  id, invoice 
    FROM invoice_status 
    GROUP     BY invoice)  iss on iss.invoice = i.id 
    JOIN invoice_status isa on isa.id = iss.id 
    WHERE isa.status = 'DRAFT' 
    AND i.deleted = 0 
    ORDER     BY i.id 
    DESC     LIMIT 5 
    OFFSET 0
 --> Execution Time: 0.0010690689086914, Seconds : 1.0690689086914
admin - Tanggal/Waktu : 17-Aug-2021/07:49:13 AM => 
 --> 
    SELECT o.* 
    FROM `order` o 
    JOIN ( 
    SELECT max( id)  id, `order` 
    FROM order_status 
    GROUP     BY `order`)  oss on oss.order = o.id 
    JOIN order_status os on os.id = oss.id 
    WHERE os.status = 'DRAFT' 
    AND o.deleted = 0 
    ORDER     BY o.id 
    DESC     LIMIT 5 
    OFFSET 0
 --> Execution Time: 0.0009760856628418, Seconds : 0.9760856628418
admin - Tanggal/Waktu : 17-Aug-2021/07:49:13 AM => 
 --> 
    SELECT ro.* 
    FROM retur_order ro 
    JOIN `order` o on o.id = ro.id 
    JOIN ( 
    SELECT max( id)  id, `order` 
    FROM order_status 
    GROUP     BY `order`)  oss on oss.order = o.id 
    JOIN order_status os on os.id = oss.id 
    WHERE ro.deleted = 0 
    AND os.status = 'DRAFT' 
    AND ro.deleted = 0 
    ORDER     BY ro.id 
    DESC     LIMIT 5 
    OFFSET 0
 --> Execution Time: 0.0010130405426025, Seconds : 1.0130405426025
