
----------../modules/database/controllers/login/index----------
 - Tanggal/Waktu : 08-Aug-2021/10:35:18 AM => 
 --> 
    SELECT * 
    FROM `general` 
    LIMIT 1000
 --> Execution Time: 0.014256000518799, Seconds : 14.256000518799

----------../modules/database/controllers/login/index----------
 - Tanggal/Waktu : 08-Aug-2021/10:35:18 AM => 
 --> 
    SELECT * 
    FROM `general` 
    LIMIT 1000
 --> Execution Time: 0.0004730224609375, Seconds : 0.4730224609375
