
----------../modules/database/controllers/login/index----------
admin - Tanggal/Waktu : 08-Aug-2021/15:54:58 PM => 
 --> 
    SELECT * 
    FROM `general` 
    LIMIT 1000
 --> Execution Time: 0.00049591064453125, Seconds : 0.49591064453125
