
----------../modules/database/controllers/login/sign_in----------
admin - Tanggal/Waktu : 08-Aug-2021/14:08:03 PM => 
 --> 
    SELECT `u`.*, `p`.`hak_akses` 
    FROM `user` `u` 
    JOIN `priveledge` `p` ON `u`.`priveledge` = `p`.`id` 
    WHERE `u`.`username` = 'admin' 
    AND `u`.`password` = '21232f297a57a5a743894a0e4a801fc3' 
    AND ( `u`.`deleted` =0 
    OR `u`.`deleted` 
    IS     NULL)  
    LIMIT 1000
 --> Execution Time: 0.00105881690979, Seconds : 1.05881690979

----------../modules/template/controllers/dashboard/index----------
admin - Tanggal/Waktu : 08-Aug-2021/14:08:03 PM => 
 --> 
    SELECT `i`.*, `p`.`nama` as `nama_pembeli`, `p`.`no_hp`, `p`.`alamat`, `isa`.`status` 
    FROM `invoice` `i` 
    JOIN `pembeli` `p` ON `i`.`pembeli` = `p`.`id` 
    JOIN ( 
    SELECT max( id)  id, invoice 
    FROM invoice_status 
    GROUP     BY invoice)  iss ON `i`.`id` = `iss`.`invoice` 
    JOIN `invoice_status` `isa` ON `isa`.`id`= `iss`.`id` 
    WHERE `i`.`deleted` =0 
    ORDER     BY `i`.`id` 
    DESC     LIMIT 5
 --> Execution Time: 0.00087499618530273, Seconds : 0.87499618530273
admin - Tanggal/Waktu : 08-Aug-2021/14:08:03 PM => 
 --> 
    SELECT sum( total)  as total 
    FROM invoice 
    WHERE tanggal_faktur 
    LIKE '%2021%' 
    AND deleted = 0 
    LIMIT 1000 
    OFFSET 0
 --> Execution Time: 0.00040817260742188, Seconds : 0.40817260742188
admin - Tanggal/Waktu : 08-Aug-2021/14:08:03 PM => 
 --> 
    SELECT count( *)  as jumlah 
    FROM invoice 
    WHERE tanggal_faktur 
    LIKE '%2021%' 
    AND deleted = 0 
    LIMIT 1000 
    OFFSET 0
 --> Execution Time: 0.00026416778564453, Seconds : 0.26416778564453
admin - Tanggal/Waktu : 08-Aug-2021/14:08:03 PM => 
 --> 
    SELECT sum( i.total)  as total 
    FROM invoice i 
    JOIN ( 
    SELECT max( id)  id, invoice 
    FROM invoice_status 
    GROUP     BY invoice)  iss on iss.invoice = i.id 
    JOIN invoice_status isa on isa.id = iss.id 
    WHERE isa.status = 'PAID' 
    AND i.tanggal_faktur 
    LIKE '%2021%' 
    AND i.deleted = 0 
    LIMIT 1000 
    OFFSET 0
 --> Execution Time: 0.0005500316619873, Seconds : 0.5500316619873
admin - Tanggal/Waktu : 08-Aug-2021/14:08:03 PM => 
 --> 
    SELECT pt.total , QUARTER( pt.createddate)  AS quartal 
    FROM pembayaran_tagihan pt 
    WHERE pt.createddate 
    LIKE '%2021%' 
    LIMIT 1000 
    OFFSET 0
 --> Execution Time: 0.0003819465637207, Seconds : 0.3819465637207
admin - Tanggal/Waktu : 08-Aug-2021/14:08:03 PM => 
 --> 
    SELECT pv.total , QUARTER( pv.createddate)  AS quartal 
    FROM pembayaran_vendor pv 
    WHERE pv.createddate 
    LIKE '%2021%' 
    LIMIT 1000 
    OFFSET 0
 --> Execution Time: 0.0002892017364502, Seconds : 0.2892017364502
admin - Tanggal/Waktu : 08-Aug-2021/14:08:03 PM => 
 --> 
    SELECT pl.total , QUARTER( pl.createddate)  AS quartal 
    FROM pembayaran_lain_lain pl 
    WHERE pl.createddate 
    LIKE '%2021%' 
    LIMIT 1000 
    OFFSET 0
 --> Execution Time: 0.0003209114074707, Seconds : 0.3209114074707
admin - Tanggal/Waktu : 08-Aug-2021/14:08:03 PM => 
 --> 
    SELECT * 
    FROM `product` 
    LIMIT 1000
 --> Execution Time: 0.0054609775543213, Seconds : 5.4609775543213
admin - Tanggal/Waktu : 08-Aug-2021/14:08:03 PM => 
 --> 
    SELECT * 
    FROM `pembeli` 
    LIMIT 1000
 --> Execution Time: 0.00053596496582031, Seconds : 0.53596496582031
admin - Tanggal/Waktu : 08-Aug-2021/14:08:03 PM => 
 --> 
    SELECT * 
    FROM `user` 
    LIMIT 1000
 --> Execution Time: 0.0014958381652832, Seconds : 1.4958381652832
admin - Tanggal/Waktu : 08-Aug-2021/14:08:03 PM => 
 --> 
    SELECT * 
    FROM invoice 
    WHERE createddate 
    LIKE '%2021-01%' 
    AND deleted = 0 
    LIMIT 1000 
    OFFSET 0
 --> Execution Time: 0.00052690505981445, Seconds : 0.52690505981445
admin - Tanggal/Waktu : 08-Aug-2021/14:08:03 PM => 
 --> 
    SELECT * 
    FROM invoice 
    WHERE createddate 
    LIKE '%2021-02%' 
    AND deleted = 0 
    LIMIT 1000 
    OFFSET 0
 --> Execution Time: 0.00040292739868164, Seconds : 0.40292739868164
admin - Tanggal/Waktu : 08-Aug-2021/14:08:03 PM => 
 --> 
    SELECT * 
    FROM invoice 
    WHERE createddate 
    LIKE '%2021-03%' 
    AND deleted = 0 
    LIMIT 1000 
    OFFSET 0
 --> Execution Time: 0.00037193298339844, Seconds : 0.37193298339844
admin - Tanggal/Waktu : 08-Aug-2021/14:08:03 PM => 
 --> 
    SELECT * 
    FROM invoice 
    WHERE createddate 
    LIKE '%2021-04%' 
    AND deleted = 0 
    LIMIT 1000 
    OFFSET 0
 --> Execution Time: 0.00036001205444336, Seconds : 0.36001205444336
admin - Tanggal/Waktu : 08-Aug-2021/14:08:03 PM => 
 --> 
    SELECT * 
    FROM invoice 
    WHERE createddate 
    LIKE '%2021-05%' 
    AND deleted = 0 
    LIMIT 1000 
    OFFSET 0
 --> Execution Time: 0.00033402442932129, Seconds : 0.33402442932129
admin - Tanggal/Waktu : 08-Aug-2021/14:08:03 PM => 
 --> 
    SELECT * 
    FROM invoice 
    WHERE createddate 
    LIKE '%2021-06%' 
    AND deleted = 0 
    LIMIT 1000 
    OFFSET 0
 --> Execution Time: 0.00035500526428223, Seconds : 0.35500526428223
admin - Tanggal/Waktu : 08-Aug-2021/14:08:03 PM => 
 --> 
    SELECT * 
    FROM invoice 
    WHERE createddate 
    LIKE '%2021-07%' 
    AND deleted = 0 
    LIMIT 1000 
    OFFSET 0
 --> Execution Time: 0.00034999847412109, Seconds : 0.34999847412109
admin - Tanggal/Waktu : 08-Aug-2021/14:08:03 PM => 
 --> 
    SELECT * 
    FROM invoice 
    WHERE createddate 
    LIKE '%2021-08%' 
    AND deleted = 0 
    LIMIT 1000 
    OFFSET 0
 --> Execution Time: 0.00035500526428223, Seconds : 0.35500526428223
admin - Tanggal/Waktu : 08-Aug-2021/14:08:03 PM => 
 --> 
    SELECT * 
    FROM invoice 
    WHERE createddate 
    LIKE '%2021-09%' 
    AND deleted = 0 
    LIMIT 1000 
    OFFSET 0
 --> Execution Time: 0.00037097930908203, Seconds : 0.37097930908203
admin - Tanggal/Waktu : 08-Aug-2021/14:08:03 PM => 
 --> 
    SELECT * 
    FROM invoice 
    WHERE createddate 
    LIKE '%2021-10%' 
    AND deleted = 0 
    LIMIT 1000 
    OFFSET 0
 --> Execution Time: 0.00031900405883789, Seconds : 0.31900405883789
admin - Tanggal/Waktu : 08-Aug-2021/14:08:03 PM => 
 --> 
    SELECT * 
    FROM invoice 
    WHERE createddate 
    LIKE '%2021-11%' 
    AND deleted = 0 
    LIMIT 1000 
    OFFSET 0
 --> Execution Time: 0.00032711029052734, Seconds : 0.32711029052734
admin - Tanggal/Waktu : 08-Aug-2021/14:08:03 PM => 
 --> 
    SELECT js.id, c.keterangan , ct.jenis 
    FROM jurnal_detail jd 
    JOIN jurnal_struktur js on jd.jurnal_struktur = js.id 
    JOIN feature f on js.feature = f.id 
    JOIN coa c on c.id = js.coa 
    JOIN coa_type ct on ct.id = js.coa_type 
    WHERE c.keterangan = 'Bank & Kas' 
    AND jd.deleted = 0 
    AND jd.createddate 
    LIKE '%2021-01%' 
    AND ct.jenis = 'KREDIT' 
    LIMIT 1000 
    OFFSET 0
 --> Execution Time: 0.00054192543029785, Seconds : 0.54192543029785
admin - Tanggal/Waktu : 08-Aug-2021/14:08:03 PM => 
 --> 
    SELECT js.id, c.keterangan , ct.jenis 
    FROM jurnal_detail jd 
    JOIN jurnal_struktur js on jd.jurnal_struktur = js.id 
    JOIN feature f on js.feature = f.id 
    JOIN coa c on c.id = js.coa 
    JOIN coa_type ct on ct.id = js.coa_type 
    WHERE c.keterangan = 'Bank & Kas' 
    AND jd.deleted = 0 
    AND jd.createddate 
    LIKE '%2021-02%' 
    AND ct.jenis = 'KREDIT' 
    LIMIT 1000 
    OFFSET 0
 --> Execution Time: 0.00047898292541504, Seconds : 0.47898292541504
admin - Tanggal/Waktu : 08-Aug-2021/14:08:03 PM => 
 --> 
    SELECT js.id, c.keterangan , ct.jenis 
    FROM jurnal_detail jd 
    JOIN jurnal_struktur js on jd.jurnal_struktur = js.id 
    JOIN feature f on js.feature = f.id 
    JOIN coa c on c.id = js.coa 
    JOIN coa_type ct on ct.id = js.coa_type 
    WHERE c.keterangan = 'Bank & Kas' 
    AND jd.deleted = 0 
    AND jd.createddate 
    LIKE '%2021-03%' 
    AND ct.jenis = 'KREDIT' 
    LIMIT 1000 
    OFFSET 0
 --> Execution Time: 0.00050592422485352, Seconds : 0.50592422485352
admin - Tanggal/Waktu : 08-Aug-2021/14:08:03 PM => 
 --> 
    SELECT js.id, c.keterangan , ct.jenis 
    FROM jurnal_detail jd 
    JOIN jurnal_struktur js on jd.jurnal_struktur = js.id 
    JOIN feature f on js.feature = f.id 
    JOIN coa c on c.id = js.coa 
    JOIN coa_type ct on ct.id = js.coa_type 
    WHERE c.keterangan = 'Bank & Kas' 
    AND jd.deleted = 0 
    AND jd.createddate 
    LIKE '%2021-04%' 
    AND ct.jenis = 'KREDIT' 
    LIMIT 1000 
    OFFSET 0
 --> Execution Time: 0.0004730224609375, Seconds : 0.4730224609375
admin - Tanggal/Waktu : 08-Aug-2021/14:08:03 PM => 
 --> 
    SELECT js.id, c.keterangan , ct.jenis 
    FROM jurnal_detail jd 
    JOIN jurnal_struktur js on jd.jurnal_struktur = js.id 
    JOIN feature f on js.feature = f.id 
    JOIN coa c on c.id = js.coa 
    JOIN coa_type ct on ct.id = js.coa_type 
    WHERE c.keterangan = 'Bank & Kas' 
    AND jd.deleted = 0 
    AND jd.createddate 
    LIKE '%2021-05%' 
    AND ct.jenis = 'KREDIT' 
    LIMIT 1000 
    OFFSET 0
 --> Execution Time: 0.00047588348388672, Seconds : 0.47588348388672
admin - Tanggal/Waktu : 08-Aug-2021/14:08:03 PM => 
 --> 
    SELECT js.id, c.keterangan , ct.jenis 
    FROM jurnal_detail jd 
    JOIN jurnal_struktur js on jd.jurnal_struktur = js.id 
    JOIN feature f on js.feature = f.id 
    JOIN coa c on c.id = js.coa 
    JOIN coa_type ct on ct.id = js.coa_type 
    WHERE c.keterangan = 'Bank & Kas' 
    AND jd.deleted = 0 
    AND jd.createddate 
    LIKE '%2021-06%' 
    AND ct.jenis = 'KREDIT' 
    LIMIT 1000 
    OFFSET 0
 --> Execution Time: 0.00042819976806641, Seconds : 0.42819976806641
admin - Tanggal/Waktu : 08-Aug-2021/14:08:03 PM => 
 --> 
    SELECT js.id, c.keterangan , ct.jenis 
    FROM jurnal_detail jd 
    JOIN jurnal_struktur js on jd.jurnal_struktur = js.id 
    JOIN feature f on js.feature = f.id 
    JOIN coa c on c.id = js.coa 
    JOIN coa_type ct on ct.id = js.coa_type 
    WHERE c.keterangan = 'Bank & Kas' 
    AND jd.deleted = 0 
    AND jd.createddate 
    LIKE '%2021-07%' 
    AND ct.jenis = 'KREDIT' 
    LIMIT 1000 
    OFFSET 0
 --> Execution Time: 0.00039911270141602, Seconds : 0.39911270141602
admin - Tanggal/Waktu : 08-Aug-2021/14:08:03 PM => 
 --> 
    SELECT js.id, c.keterangan , ct.jenis 
    FROM jurnal_detail jd 
    JOIN jurnal_struktur js on jd.jurnal_struktur = js.id 
    JOIN feature f on js.feature = f.id 
    JOIN coa c on c.id = js.coa 
    JOIN coa_type ct on ct.id = js.coa_type 
    WHERE c.keterangan = 'Bank & Kas' 
    AND jd.deleted = 0 
    AND jd.createddate 
    LIKE '%2021-08%' 
    AND ct.jenis = 'KREDIT' 
    LIMIT 1000 
    OFFSET 0
 --> Execution Time: 0.0003969669342041, Seconds : 0.3969669342041
admin - Tanggal/Waktu : 08-Aug-2021/14:08:03 PM => 
 --> 
    SELECT js.id, c.keterangan , ct.jenis 
    FROM jurnal_detail jd 
    JOIN jurnal_struktur js on jd.jurnal_struktur = js.id 
    JOIN feature f on js.feature = f.id 
    JOIN coa c on c.id = js.coa 
    JOIN coa_type ct on ct.id = js.coa_type 
    WHERE c.keterangan = 'Bank & Kas' 
    AND jd.deleted = 0 
    AND jd.createddate 
    LIKE '%2021-09%' 
    AND ct.jenis = 'KREDIT' 
    LIMIT 1000 
    OFFSET 0
 --> Execution Time: 0.00048494338989258, Seconds : 0.48494338989258
admin - Tanggal/Waktu : 08-Aug-2021/14:08:03 PM => 
 --> 
    SELECT js.id, c.keterangan , ct.jenis 
    FROM jurnal_detail jd 
    JOIN jurnal_struktur js on jd.jurnal_struktur = js.id 
    JOIN feature f on js.feature = f.id 
    JOIN coa c on c.id = js.coa 
    JOIN coa_type ct on ct.id = js.coa_type 
    WHERE c.keterangan = 'Bank & Kas' 
    AND jd.deleted = 0 
    AND jd.createddate 
    LIKE '%2021-10%' 
    AND ct.jenis = 'KREDIT' 
    LIMIT 1000 
    OFFSET 0
 --> Execution Time: 0.0029759407043457, Seconds : 2.9759407043457
admin - Tanggal/Waktu : 08-Aug-2021/14:08:03 PM => 
 --> 
    SELECT js.id, c.keterangan , ct.jenis 
    FROM jurnal_detail jd 
    JOIN jurnal_struktur js on jd.jurnal_struktur = js.id 
    JOIN feature f on js.feature = f.id 
    JOIN coa c on c.id = js.coa 
    JOIN coa_type ct on ct.id = js.coa_type 
    WHERE c.keterangan = 'Bank & Kas' 
    AND jd.deleted = 0 
    AND jd.createddate 
    LIKE '%2021-11%' 
    AND ct.jenis = 'KREDIT' 
    LIMIT 1000 
    OFFSET 0
 --> Execution Time: 0.00053882598876953, Seconds : 0.53882598876953
admin - Tanggal/Waktu : 08-Aug-2021/14:08:03 PM => 
 --> 
    SELECT js.id, c.keterangan , ct.jenis 
    FROM jurnal_detail jd 
    JOIN jurnal_struktur js on jd.jurnal_struktur = js.id 
    JOIN feature f on js.feature = f.id 
    JOIN coa c on c.id = js.coa 
    JOIN coa_type ct on ct.id = js.coa_type 
    WHERE c.keterangan = 'Bank & Kas' 
    AND jd.deleted = 0 
    AND jd.createddate 
    LIKE '%2021-01%' 
    AND ct.jenis = 'DEBIT' 
    LIMIT 1000 
    OFFSET 0
 --> Execution Time: 0.00057101249694824, Seconds : 0.57101249694824
admin - Tanggal/Waktu : 08-Aug-2021/14:08:03 PM => 
 --> 
    SELECT js.id, c.keterangan , ct.jenis 
    FROM jurnal_detail jd 
    JOIN jurnal_struktur js on jd.jurnal_struktur = js.id 
    JOIN feature f on js.feature = f.id 
    JOIN coa c on c.id = js.coa 
    JOIN coa_type ct on ct.id = js.coa_type 
    WHERE c.keterangan = 'Bank & Kas' 
    AND jd.deleted = 0 
    AND jd.createddate 
    LIKE '%2021-02%' 
    AND ct.jenis = 'DEBIT' 
    LIMIT 1000 
    OFFSET 0
 --> Execution Time: 0.00053501129150391, Seconds : 0.53501129150391
admin - Tanggal/Waktu : 08-Aug-2021/14:08:03 PM => 
 --> 
    SELECT js.id, c.keterangan , ct.jenis 
    FROM jurnal_detail jd 
    JOIN jurnal_struktur js on jd.jurnal_struktur = js.id 
    JOIN feature f on js.feature = f.id 
    JOIN coa c on c.id = js.coa 
    JOIN coa_type ct on ct.id = js.coa_type 
    WHERE c.keterangan = 'Bank & Kas' 
    AND jd.deleted = 0 
    AND jd.createddate 
    LIKE '%2021-03%' 
    AND ct.jenis = 'DEBIT' 
    LIMIT 1000 
    OFFSET 0
 --> Execution Time: 0.00049996376037598, Seconds : 0.49996376037598
admin - Tanggal/Waktu : 08-Aug-2021/14:08:03 PM => 
 --> 
    SELECT js.id, c.keterangan , ct.jenis 
    FROM jurnal_detail jd 
    JOIN jurnal_struktur js on jd.jurnal_struktur = js.id 
    JOIN feature f on js.feature = f.id 
    JOIN coa c on c.id = js.coa 
    JOIN coa_type ct on ct.id = js.coa_type 
    WHERE c.keterangan = 'Bank & Kas' 
    AND jd.deleted = 0 
    AND jd.createddate 
    LIKE '%2021-04%' 
    AND ct.jenis = 'DEBIT' 
    LIMIT 1000 
    OFFSET 0
 --> Execution Time: 0.00049614906311035, Seconds : 0.49614906311035
admin - Tanggal/Waktu : 08-Aug-2021/14:08:03 PM => 
 --> 
    SELECT js.id, c.keterangan , ct.jenis 
    FROM jurnal_detail jd 
    JOIN jurnal_struktur js on jd.jurnal_struktur = js.id 
    JOIN feature f on js.feature = f.id 
    JOIN coa c on c.id = js.coa 
    JOIN coa_type ct on ct.id = js.coa_type 
    WHERE c.keterangan = 'Bank & Kas' 
    AND jd.deleted = 0 
    AND jd.createddate 
    LIKE '%2021-05%' 
    AND ct.jenis = 'DEBIT' 
    LIMIT 1000 
    OFFSET 0
 --> Execution Time: 0.00047898292541504, Seconds : 0.47898292541504
admin - Tanggal/Waktu : 08-Aug-2021/14:08:03 PM => 
 --> 
    SELECT js.id, c.keterangan , ct.jenis 
    FROM jurnal_detail jd 
    JOIN jurnal_struktur js on jd.jurnal_struktur = js.id 
    JOIN feature f on js.feature = f.id 
    JOIN coa c on c.id = js.coa 
    JOIN coa_type ct on ct.id = js.coa_type 
    WHERE c.keterangan = 'Bank & Kas' 
    AND jd.deleted = 0 
    AND jd.createddate 
    LIKE '%2021-06%' 
    AND ct.jenis = 'DEBIT' 
    LIMIT 1000 
    OFFSET 0
 --> Execution Time: 0.00043416023254395, Seconds : 0.43416023254395
admin - Tanggal/Waktu : 08-Aug-2021/14:08:03 PM => 
 --> 
    SELECT js.id, c.keterangan , ct.jenis 
    FROM jurnal_detail jd 
    JOIN jurnal_struktur js on jd.jurnal_struktur = js.id 
    JOIN feature f on js.feature = f.id 
    JOIN coa c on c.id = js.coa 
    JOIN coa_type ct on ct.id = js.coa_type 
    WHERE c.keterangan = 'Bank & Kas' 
    AND jd.deleted = 0 
    AND jd.createddate 
    LIKE '%2021-07%' 
    AND ct.jenis = 'DEBIT' 
    LIMIT 1000 
    OFFSET 0
 --> Execution Time: 0.00044512748718262, Seconds : 0.44512748718262
admin - Tanggal/Waktu : 08-Aug-2021/14:08:03 PM => 
 --> 
    SELECT js.id, c.keterangan , ct.jenis 
    FROM jurnal_detail jd 
    JOIN jurnal_struktur js on jd.jurnal_struktur = js.id 
    JOIN feature f on js.feature = f.id 
    JOIN coa c on c.id = js.coa 
    JOIN coa_type ct on ct.id = js.coa_type 
    WHERE c.keterangan = 'Bank & Kas' 
    AND jd.deleted = 0 
    AND jd.createddate 
    LIKE '%2021-08%' 
    AND ct.jenis = 'DEBIT' 
    LIMIT 1000 
    OFFSET 0
 --> Execution Time: 0.00045204162597656, Seconds : 0.45204162597656
admin - Tanggal/Waktu : 08-Aug-2021/14:08:03 PM => 
 --> 
    SELECT js.id, c.keterangan , ct.jenis 
    FROM jurnal_detail jd 
    JOIN jurnal_struktur js on jd.jurnal_struktur = js.id 
    JOIN feature f on js.feature = f.id 
    JOIN coa c on c.id = js.coa 
    JOIN coa_type ct on ct.id = js.coa_type 
    WHERE c.keterangan = 'Bank & Kas' 
    AND jd.deleted = 0 
    AND jd.createddate 
    LIKE '%2021-09%' 
    AND ct.jenis = 'DEBIT' 
    LIMIT 1000 
    OFFSET 0
 --> Execution Time: 0.00048112869262695, Seconds : 0.48112869262695
admin - Tanggal/Waktu : 08-Aug-2021/14:08:03 PM => 
 --> 
    SELECT js.id, c.keterangan , ct.jenis 
    FROM jurnal_detail jd 
    JOIN jurnal_struktur js on jd.jurnal_struktur = js.id 
    JOIN feature f on js.feature = f.id 
    JOIN coa c on c.id = js.coa 
    JOIN coa_type ct on ct.id = js.coa_type 
    WHERE c.keterangan = 'Bank & Kas' 
    AND jd.deleted = 0 
    AND jd.createddate 
    LIKE '%2021-10%' 
    AND ct.jenis = 'DEBIT' 
    LIMIT 1000 
    OFFSET 0
 --> Execution Time: 0.00056290626525879, Seconds : 0.56290626525879
admin - Tanggal/Waktu : 08-Aug-2021/14:08:03 PM => 
 --> 
    SELECT js.id, c.keterangan , ct.jenis 
    FROM jurnal_detail jd 
    JOIN jurnal_struktur js on jd.jurnal_struktur = js.id 
    JOIN feature f on js.feature = f.id 
    JOIN coa c on c.id = js.coa 
    JOIN coa_type ct on ct.id = js.coa_type 
    WHERE c.keterangan = 'Bank & Kas' 
    AND jd.deleted = 0 
    AND jd.createddate 
    LIKE '%2021-11%' 
    AND ct.jenis = 'DEBIT' 
    LIMIT 1000 
    OFFSET 0
 --> Execution Time: 0.00050997734069824, Seconds : 0.50997734069824
admin - Tanggal/Waktu : 08-Aug-2021/14:08:03 PM => 
 --> 
    SELECT ( pi.harga * pi.qty)  as harga_beli_total , QUARTER( p.createddate)  AS quartal 
    FROM product_has_price_procurement phpr 
    JOIN procurement_item pi on pi.id = phpr.procurement_item 
    AND pi.deleted = 0 
    JOIN procurement p on p.id = pi.procurement 
    WHERE p.deleted = 0 
    AND p.createddate 
    LIKE '%2021%'
 --> Execution Time: 0.00044417381286621, Seconds : 0.44417381286621
admin - Tanggal/Waktu : 08-Aug-2021/14:08:03 PM => 
 --> 
    SELECT     DISTINCT i.no_faktur ,pi.jumlah_bayar ,( ps.harga_beli * ip.qty)  as harga_beli_total , ip.sub_total as total_faktur , isa.jumlah as sisa_hutang , ist.status 
    FROM payment p 
    JOIN payment_item pi on p.id = pi.payment 
    JOIN invoice i on i.id = pi.invoice 
    JOIN metode_bayar mb on mb.id = i.metode_bayar 
    JOIN invoice_product ip on ip.invoice = i.id 
    JOIN product_satuan ps on ps.id = ip.product_satuan 
    JOIN ( 
    SELECT max( id)  id, invoice 
    FROM invoice_sisa 
    GROUP     BY invoice)  isa_group on isa_group.invoice = i.id 
    JOIN invoice_sisa isa on isa.id = isa_group.id 
    JOIN ( 
    SELECT max( id)  id, invoice 
    FROM invoice_status 
    GROUP     BY invoice)  ist_group on ist_group.invoice = i.id 
    JOIN invoice_status ist on ist.id = ist_group.id 
    WHERE p.deleted = 0 
    AND p.createddate 
    LIKE '%2021%' 
    ORDER     BY p.id desc
 --> Execution Time: 0.0010550022125244, Seconds : 1.0550022125244
admin - Tanggal/Waktu : 08-Aug-2021/14:08:03 PM => 
 --> 
    SELECT * 
    FROM `general` 
    LIMIT 1000
 --> Execution Time: 0.00040411949157715, Seconds : 0.40411949157715
admin - Tanggal/Waktu : 08-Aug-2021/14:08:03 PM => 
 --> 
    SELECT i.* 
    FROM invoice i 
    JOIN ( 
    SELECT max( id)  id, invoice 
    FROM invoice_status 
    GROUP     BY invoice)  iss on iss.invoice = i.id 
    JOIN invoice_status isa on isa.id = iss.id 
    WHERE isa.status = 'DRAFT' 
    AND i.deleted = 0 
    ORDER     BY i.id 
    DESC     LIMIT 5 
    OFFSET 0
 --> Execution Time: 0.00064897537231445, Seconds : 0.64897537231445
admin - Tanggal/Waktu : 08-Aug-2021/14:08:03 PM => 
 --> 
    SELECT o.* 
    FROM `order` o 
    JOIN ( 
    SELECT max( id)  id, `order` 
    FROM order_status 
    GROUP     BY `order`)  oss on oss.order = o.id 
    JOIN order_status os on os.id = oss.id 
    WHERE os.status = 'DRAFT' 
    AND o.deleted = 0 
    ORDER     BY o.id 
    DESC     LIMIT 5 
    OFFSET 0
 --> Execution Time: 0.00060915946960449, Seconds : 0.60915946960449
admin - Tanggal/Waktu : 08-Aug-2021/14:08:03 PM => 
 --> 
    SELECT ro.* 
    FROM retur_order ro 
    JOIN `order` o on o.id = ro.id 
    JOIN ( 
    SELECT max( id)  id, `order` 
    FROM order_status 
    GROUP     BY `order`)  oss on oss.order = o.id 
    JOIN order_status os on os.id = oss.id 
    WHERE ro.deleted = 0 
    AND os.status = 'DRAFT' 
    AND ro.deleted = 0 
    ORDER     BY ro.id 
    DESC     LIMIT 5 
    OFFSET 0
 --> Execution Time: 0.000640869140625, Seconds : 0.640869140625
