
----------../modules/database/controllers/supplier/simpan----------
admin - Tanggal/Waktu : 11-Nov-2021/17:39:45 PM => 
 --> 
    INSERT     INTO `vendor` ( `nama_vendor`, `nama_pimpinan`, `jabatan_pimpinan`, `email`, `nama_bank`, `no_rekening`, `createddate`, `createdby`)  
    VALUES ( 'sakdjjkashd', 'aksdhkh', 'aksdhaj', 'askdh', 'askdjh', 'aksdjhkasd', '2021-11-11 11:39:44', '1') 
 --> Execution Time: 0.0055351257324219, Seconds : 5.5351257324219
