
----------../modules/template/controllers/product_stock/detail----------
admin - Tanggal/Waktu : 01-Nov-2021/19:55:14 PM => 
 --> 
    SELECT `kr`.*, `p`.`product` as `nama_product`, `ps`.`satuan`, `ps`.`product`, `r`.`nama_rak`, `g`.`nama_gudang`, `s`.`nama_satuan`, `sp`.`nama_satuan` as `satuan_parent` 
    FROM `product_stock` `kr` 
    JOIN `product_satuan` `ps` ON `kr`.`product_satuan` = `ps`.`id` 
    JOIN `product` `p` ON `ps`.`product` = `p`.`id` 
    LEFT     JOIN `gudang` `g` ON `kr`.`gudang` = `g`.`id` 
    LEFT     JOIN `rak` `r` ON `kr`.`rak` = `r`.`id` 
    LEFT     JOIN `satuan` `s` ON `s`.`id` = `ps`.`satuan` 
    LEFT     JOIN `satuan` `sp` ON `sp`.`id` = `s`.`parent` 
    WHERE `kr`.`id` = '2517' 
    LIMIT 1000
 --> Execution Time: 0.0039329528808594, Seconds : 3.9329528808594
admin - Tanggal/Waktu : 01-Nov-2021/19:55:14 PM => 
 --> 
    SELECT `pls`.* 
    FROM `product_log_stock` `pls` 
    JOIN `product_satuan` `ps` ON `ps`.`id` = `pls`.`product_satuan` 
    JOIN `product` `p` ON `p`.`id` = `ps`.`product` 
    WHERE `pls`.`deleted` =0 
    AND `p`.`id` = '2513' 
    ORDER     BY `pls`.`id` 
    DESC     LIMIT 1000
 --> Execution Time: 0.0010499954223633, Seconds : 1.0499954223633
admin - Tanggal/Waktu : 01-Nov-2021/19:55:14 PM => 
 --> 
    SELECT * 
    FROM `general` 
    LIMIT 1000
 --> Execution Time: 0.00046205520629883, Seconds : 0.46205520629883
admin - Tanggal/Waktu : 01-Nov-2021/19:55:14 PM => 
 --> 
    SELECT i.* 
    FROM invoice i 
    JOIN ( 
    SELECT max( id)  id, invoice 
    FROM invoice_status 
    GROUP     BY invoice)  iss on iss.invoice = i.id 
    JOIN invoice_status isa on isa.id = iss.id 
    WHERE isa.status = 'DRAFT' 
    AND i.deleted = 0 
    ORDER     BY i.id 
    DESC     LIMIT 5 
    OFFSET 0
 --> Execution Time: 0.00087594985961914, Seconds : 0.87594985961914
admin - Tanggal/Waktu : 01-Nov-2021/19:55:14 PM => 
 --> 
    SELECT o.* 
    FROM `order` o 
    JOIN ( 
    SELECT max( id)  id, `order` 
    FROM order_status 
    GROUP     BY `order`)  oss on oss.order = o.id 
    JOIN order_status os on os.id = oss.id 
    WHERE os.status = 'DRAFT' 
    AND o.deleted = 0 
    ORDER     BY o.id 
    DESC     LIMIT 5 
    OFFSET 0
 --> Execution Time: 0.0010659694671631, Seconds : 1.0659694671631
admin - Tanggal/Waktu : 01-Nov-2021/19:55:14 PM => 
 --> 
    SELECT ro.* 
    FROM retur_order ro 
    JOIN `order` o on o.id = ro.id 
    JOIN ( 
    SELECT max( id)  id, `order` 
    FROM order_status 
    GROUP     BY `order`)  oss on oss.order = o.id 
    JOIN order_status os on os.id = oss.id 
    WHERE ro.deleted = 0 
    AND os.status = 'DRAFT' 
    AND ro.deleted = 0 
    ORDER     BY ro.id 
    DESC     LIMIT 5 
    OFFSET 0
 --> Execution Time: 0.00081205368041992, Seconds : 0.81205368041992
