
----------../modules/template/controllers/supplier/ubah----------
admin - Tanggal/Waktu : 11-Nov-2021/17:54:25 PM => 
 --> 
    SELECT * 
    FROM `vendor` `kr` 
    WHERE `kr`.`id` = '1' 
    LIMIT 1000
 --> Execution Time: 0.00052309036254883, Seconds : 0.52309036254883

----------../modules/not_found/controllers//index----------
