
----------../modules/template/controllers/supplier/index----------
admin - Tanggal/Waktu : 20-Oct-2021/17:37:03 PM => 
 --> 
    SELECT `v`.* 
    FROM `vendor` `v` 
    WHERE `v`.`deleted` =0 
    OR `v`.`deleted` 
    IS     NULL     LIMIT 10
 --> Execution Time: 0.00050091743469238, Seconds : 0.50091743469238
admin - Tanggal/Waktu : 20-Oct-2021/17:37:03 PM => 
 --> 
    SELECT COUNT( *)  AS `numrows` 
    FROM `vendor` `v` 
    WHERE `v`.`deleted` =0 
    OR `v`.`deleted` 
    IS null
 --> Execution Time: 0.00036716461181641, Seconds : 0.36716461181641
admin - Tanggal/Waktu : 20-Oct-2021/17:37:03 PM => 
 --> 
    SELECT * 
    FROM `general` 
    LIMIT 1000
 --> Execution Time: 0.00047206878662109, Seconds : 0.47206878662109
admin - Tanggal/Waktu : 20-Oct-2021/17:37:03 PM => 
 --> 
    SELECT i.* 
    FROM invoice i 
    JOIN ( 
    SELECT max( id)  id, invoice 
    FROM invoice_status 
    GROUP     BY invoice)  iss on iss.invoice = i.id 
    JOIN invoice_status isa on isa.id = iss.id 
    WHERE isa.status = 'DRAFT' 
    AND i.deleted = 0 
    ORDER     BY i.id 
    DESC     LIMIT 5 
    OFFSET 0
 --> Execution Time: 0.00084686279296875, Seconds : 0.84686279296875
admin - Tanggal/Waktu : 20-Oct-2021/17:37:03 PM => 
 --> 
    SELECT o.* 
    FROM `order` o 
    JOIN ( 
    SELECT max( id)  id, `order` 
    FROM order_status 
    GROUP     BY `order`)  oss on oss.order = o.id 
    JOIN order_status os on os.id = oss.id 
    WHERE os.status = 'DRAFT' 
    AND o.deleted = 0 
    ORDER     BY o.id 
    DESC     LIMIT 5 
    OFFSET 0
 --> Execution Time: 0.0011990070343018, Seconds : 1.1990070343018
admin - Tanggal/Waktu : 20-Oct-2021/17:37:03 PM => 
 --> 
    SELECT ro.* 
    FROM retur_order ro 
    JOIN `order` o on o.id = ro.id 
    JOIN ( 
    SELECT max( id)  id, `order` 
    FROM order_status 
    GROUP     BY `order`)  oss on oss.order = o.id 
    JOIN order_status os on os.id = oss.id 
    WHERE ro.deleted = 0 
    AND os.status = 'DRAFT' 
    AND ro.deleted = 0 
    ORDER     BY ro.id 
    DESC     LIMIT 5 
    OFFSET 0
 --> Execution Time: 0.00085806846618652, Seconds : 0.85806846618652
