
----------../modules/template/controllers/satuan/add----------
administrator - Tanggal/Waktu : 07-Aug-2021/08:39:02 AM => 
 --> 
    SELECT `p`.* 
    FROM `product` `p` 
    WHERE `p`.`deleted` =0 
    OR `p`.`deleted` 
    IS     NULL     LIMIT 1000
 --> Execution Time: 0.00055193901062012, Seconds : 0.55193901062012
administrator - Tanggal/Waktu : 07-Aug-2021/08:39:02 AM => 
 --> 
    SELECT `sa`.*, `s`.`nama_satuan` as `satuan_parent` 
    FROM `satuan` `sa` 
    LEFT     JOIN `satuan` `s` ON `sa`.`parent` = `s`.`id` 
    WHERE `sa`.`deleted` =0 
    LIMIT 1000
 --> Execution Time: 0.0011849403381348, Seconds : 1.1849403381348
administrator - Tanggal/Waktu : 07-Aug-2021/08:39:02 AM => 
 --> 
    SELECT * 
    FROM `general` 
    LIMIT 1000
 --> Execution Time: 0.00051498413085938, Seconds : 0.51498413085938
administrator - Tanggal/Waktu : 07-Aug-2021/08:39:02 AM => 
 --> 
    SELECT i.* 
    FROM invoice i 
    JOIN ( 
    SELECT max( id)  id, invoice 
    FROM invoice_status 
    GROUP     BY invoice)  iss on iss.invoice = i.id 
    JOIN invoice_status isa on isa.id = iss.id 
    WHERE isa.status = 'DRAFT' 
    AND i.deleted = 0 
    ORDER     BY i.id 
    DESC     LIMIT 5 
    OFFSET 0
 --> Execution Time: 0.0011050701141357, Seconds : 1.1050701141357
administrator - Tanggal/Waktu : 07-Aug-2021/08:39:02 AM => 
 --> 
    SELECT o.* 
    FROM `order` o 
    JOIN ( 
    SELECT max( id)  id, `order` 
    FROM order_status 
    GROUP     BY `order`)  oss on oss.order = o.id 
    JOIN order_status os on os.id = oss.id 
    WHERE os.status = 'DRAFT' 
    AND o.deleted = 0 
    ORDER     BY o.id 
    DESC     LIMIT 5 
    OFFSET 0
 --> Execution Time: 0.0013298988342285, Seconds : 1.3298988342285
administrator - Tanggal/Waktu : 07-Aug-2021/08:39:02 AM => 
 --> 
    SELECT ro.* 
    FROM retur_order ro 
    JOIN `order` o on o.id = ro.id 
    JOIN ( 
    SELECT max( id)  id, `order` 
    FROM order_status 
    GROUP     BY `order`)  oss on oss.order = o.id 
    JOIN order_status os on os.id = oss.id 
    WHERE ro.deleted = 0 
    AND os.status = 'DRAFT' 
    AND ro.deleted = 0 
    ORDER     BY ro.id 
    DESC     LIMIT 5 
    OFFSET 0
 --> Execution Time: 0.00084686279296875, Seconds : 0.84686279296875
