
----------../modules/template/controllers/supplier/detail----------
admin - Tanggal/Waktu : 11-Nov-2021/17:51:05 PM => 
 --> 
    SELECT * 
    FROM `vendor` `kr` 
    WHERE `kr`.`id` = '1' 
    LIMIT 1000
 --> Execution Time: 0.00051212310791016, Seconds : 0.51212310791016

----------../modules/not_found/controllers//index----------
