
----------../modules/database/controllers/login/sign_in----------
admin - Tanggal/Waktu : 11-Nov-2021/12:49:28 PM => 
 --> 
    SELECT `u`.*, `p`.`id` 
    FROM `user` `u` 
    JOIN `priveledge` `p` ON `u`.`priveledge` = `p`.`id` 
    WHERE `u`.`username` = 'admin' 
    AND `u`.`password` = 'admin' 
    AND ( `u`.`deleted` =0 
    OR `u`.`deleted` 
    IS     NULL)  
    LIMIT 1000
 --> Execution Time: 0.0014081001281738, Seconds : 1.4081001281738
