
----------../modules/template/controllers/order/index----------
admin - Tanggal/Waktu : 05-Nov-2021/19:02:04 PM => 
 --> 
    SELECT `o`.*, `isa`.`status`, `pb`.`nama` as `nama_pembeli` 
    FROM `order` `o` 
    JOIN ( 
    SELECT max( id)  id, `order` 
    FROM order_status 
    GROUP     BY `order`)  iss ON `iss`.`order` = `o`.`id` 
    JOIN `order_status` `isa` ON `isa`.`id` = `iss`.`id` 
    JOIN `pembeli` `pb` ON `pb`.`id` = `o`.`pembeli` 
    WHERE `o`.`deleted` 
    IS     NULL     OR `o`.`deleted` =0 
    ORDER     BY `o`.`id` 
    DESC     LIMIT 10
 --> Execution Time: 0.0017240047454834, Seconds : 1.7240047454834
admin - Tanggal/Waktu : 05-Nov-2021/19:02:04 PM => 
 --> 
    SELECT COUNT( *)  AS `numrows` 
    FROM `order` `o` 
    JOIN ( 
    SELECT max( id)  id, `order` 
    FROM order_status 
    GROUP     BY `order`)  iss ON `iss`.`order` = `o`.`id` 
    JOIN `order_status` `isa` ON `isa`.`id` = `iss`.`id` 
    JOIN `pembeli` `pb` ON `pb`.`id` = `o`.`pembeli` 
    WHERE `o`.`deleted` 
    IS     NULL     OR `o`.`deleted` =0
 --> Execution Time: 0.00099897384643555, Seconds : 0.99897384643555
admin - Tanggal/Waktu : 05-Nov-2021/19:02:04 PM => 
 --> 
    SELECT * 
    FROM `general` 
    LIMIT 1000
 --> Execution Time: 0.0035030841827393, Seconds : 3.5030841827393
admin - Tanggal/Waktu : 05-Nov-2021/19:02:04 PM => 
 --> 
    SELECT i.* 
    FROM invoice i 
    JOIN ( 
    SELECT max( id)  id, invoice 
    FROM invoice_status 
    GROUP     BY invoice)  iss on iss.invoice = i.id 
    JOIN invoice_status isa on isa.id = iss.id 
    WHERE isa.status = 'DRAFT' 
    AND i.deleted = 0 
    ORDER     BY i.id 
    DESC     LIMIT 5 
    OFFSET 0
 --> Execution Time: 0.00098609924316406, Seconds : 0.98609924316406
admin - Tanggal/Waktu : 05-Nov-2021/19:02:04 PM => 
 --> 
    SELECT o.* 
    FROM `order` o 
    JOIN ( 
    SELECT max( id)  id, `order` 
    FROM order_status 
    GROUP     BY `order`)  oss on oss.order = o.id 
    JOIN order_status os on os.id = oss.id 
    WHERE os.status = 'DRAFT' 
    AND o.deleted = 0 
    ORDER     BY o.id 
    DESC     LIMIT 5 
    OFFSET 0
 --> Execution Time: 0.00084590911865234, Seconds : 0.84590911865234
admin - Tanggal/Waktu : 05-Nov-2021/19:02:04 PM => 
 --> 
    SELECT ro.* 
    FROM retur_order ro 
    JOIN `order` o on o.id = ro.id 
    JOIN ( 
    SELECT max( id)  id, `order` 
    FROM order_status 
    GROUP     BY `order`)  oss on oss.order = o.id 
    JOIN order_status os on os.id = oss.id 
    WHERE ro.deleted = 0 
    AND os.status = 'DRAFT' 
    AND ro.deleted = 0 
    ORDER     BY ro.id 
    DESC     LIMIT 5 
    OFFSET 0
 --> Execution Time: 0.0007479190826416, Seconds : 0.7479190826416
