
----------../modules/database/controllers/pengadaan/getListSatuanData----------
administrator - Tanggal/Waktu : 07-Aug-2021/09:02:09 AM => 
 --> 
    SELECT `s`.`nama_satuan`, `s`.`id` as `satuan`, `sp`.`nama_satuan` as `satuan_parent`, `ps`.`qty` as `konversi` 
    FROM `product_satuan` `ps` 
    JOIN `product` `p` ON `ps`.`product` = `p`.`id` 
    LEFT     JOIN `satuan` `s` ON `ps`.`satuan` = `s`.`id` 
    LEFT     JOIN `satuan` `sp` ON `sp`.`id` = `s`.`parent` 
    WHERE ( `ps`.`deleted` =0 
    OR `ps`.`deleted` 
    IS     NULL)  
    AND `ps`.`product` = '3160' 
    LIMIT 1000
 --> Execution Time: 0.00089406967163086, Seconds : 0.89406967163086
