
----------../modules/template/controllers/document/add----------

----------../modules/not_found/controllers//index----------

----------../modules/not_found/controllers//index----------

----------../modules/not_found/controllers//index----------
