
----------../modules/database/controllers/login/index----------
lk2tjbtb@gmail.com - Tanggal/Waktu : 05-Sep-2021/06:13:20 AM => 
 --> 
    SELECT * 
    FROM `general` 
    LIMIT 1000
 --> Execution Time: 0.005659818649292, Seconds : 5.659818649292
