
----------../modules/template/controllers/supplier/ubah----------
admin - Tanggal/Waktu : 11-Nov-2021/17:53:07 PM => 
 --> 
    SELECT * 
    FROM `vendor` `kr` 
    WHERE `kr`.`id` = '1' 
    LIMIT 1000
 --> Execution Time: 0.00058507919311523, Seconds : 0.58507919311523

----------../modules/not_found/controllers//index----------
