
----------../modules/template/controllers/jadwal/index----------
 - Tanggal/Waktu : 11-Nov-2021/12:28:46 PM => 
 --> 
    SELECT s.* 
    FROM schedule s 
    JOIN type_transaction tt on tt.id = s.type_transaction 
    WHERE tt.term_id = 'SUB_SPBJL' 
    AND s.deleted = 0 
    ORDER     BY s.id asc
 --> Execution Time: 0.00070381164550781, Seconds : 0.70381164550781
