
----------../modules/database/controllers/order/simpan----------
admin - Tanggal/Waktu : 17-Aug-2021/08:41:54 AM => 
 --> 
    SELECT * 
    FROM `order` 
    WHERE `no_order` 
    LIKE '%OR21AUG%' 
    ESCAPE '!' 
    ORDER     BY `id` 
    DESC     LIMIT 1000
 --> Execution Time: 0.00061297416687012, Seconds : 0.61297416687012
admin - Tanggal/Waktu : 17-Aug-2021/08:41:54 AM => 
 --> 
    INSERT     INTO `order` ( `no_order`, `pembeli`, `potongan`, `metode_bayar`, `pot_faktur`, `tanggal_faktur`, `total`, `createddate`, `createdby`)  
    VALUES ( 'OR21AUG004', '1', '3', '1', '0', '2021-08-17 08:41:54', '24000', '2021-08-17 08:41:54', '3') 
 --> Execution Time: 0.0010349750518799, Seconds : 1.0349750518799
admin - Tanggal/Waktu : 17-Aug-2021/08:41:54 AM => 
 --> 
    INSERT     INTO `order_product` ( `order`, `product_satuan`, `qty`, `sub_total`, `createddate`, `createdby`)  
    VALUES ( 4, '1675', '1', '24000', '2021-08-17 08:41:54', '3') 
 --> Execution Time: 0.0035269260406494, Seconds : 3.5269260406494
admin - Tanggal/Waktu : 17-Aug-2021/08:41:54 AM => 
 --> 
    INSERT     INTO `order_status` ( `order`, `status`, `createddate`, `createdby`)  
    VALUES ( 4, 'DRAFT', '2021-08-17 08:41:54', '3') 
 --> Execution Time: 0.0029280185699463, Seconds : 2.9280185699463

----------../modules/template/controllers/order/detail----------
admin - Tanggal/Waktu : 17-Aug-2021/08:41:54 AM => 
 --> 
    SELECT `o`.*, `p`.`nama` as `nama_pembeli`, `isa`.`status`, `pt`.`potongan` as `jenis_potongan`, `mb`.`metode` 
    FROM `order` `o` 
    JOIN `pembeli` `p` ON `o`.`pembeli` = `p`.`id` 
    JOIN ( 
    SELECT max( id)  id, `order` 
    FROM order_status 
    GROUP     BY `order`)  iss ON `iss`.`order` = `o`.`id` 
    JOIN `order_status` `isa` ON `isa`.`id` = `iss`.`id` 
    JOIN `metode_bayar` `mb` ON `mb`.`id` = `o`.`metode_bayar` 
    LEFT     JOIN `potongan` `pt` ON `pt`.`id` = `o`.`potongan` 
    WHERE `o`.`id` = '4' 
    LIMIT 1000
 --> Execution Time: 0.0028140544891357, Seconds : 2.8140544891357
admin - Tanggal/Waktu : 17-Aug-2021/08:41:54 AM => 
 --> 
    SELECT `ip`.*, `ps`.`satuan`, `ps`.`harga`, `p`.`product` as `nama_product`, `s`.`nama_satuan`, `ps`.`qty` as `konversi`, `p`.`id` as `product_id` 
    FROM `order_product` `ip` 
    JOIN `product_satuan` `ps` ON `ps`.`id` = `ip`.`product_satuan` 
    JOIN `product` `p` ON `p`.`id` = `ps`.`product` 
    LEFT     JOIN `satuan` `s` ON `s`.`id` = `ps`.`satuan` 
    WHERE `ip`.`order` = '4' 
    AND `ip`.`deleted` =0 
    ORDER     BY `ip`.`id` 
    LIMIT 1000
 --> Execution Time: 0.0011849403381348, Seconds : 1.1849403381348
admin - Tanggal/Waktu : 17-Aug-2021/08:41:54 AM => 
 --> 
    SELECT `ipp`.*, `pt`.`potongan` as `jenis_potongan` 
    FROM `order_pot_product` `ipp` 
    LEFT     JOIN `potongan` `pt` ON `pt`.`id` = `ipp`.`potongan` 
    WHERE `ipp`.`deleted` =0 
    AND `ipp`.`order_product` = '4' 
    LIMIT 1000
 --> Execution Time: 0.00049114227294922, Seconds : 0.49114227294922
admin - Tanggal/Waktu : 17-Aug-2021/08:41:54 AM => 
 --> 
    SELECT `ps`.*, `pst`.`stock`, `s`.`nama_satuan` as `current_satuan`, `sp`.`nama_satuan` as `parent_satuan`, `psp`.`id` as `parent_product_satuan`, `psp`.`qty` as `qty_parent`, `pstp`.`stock` as `parent_stock`, `pst`.`id` as `cur_product_stock`, `pstp`.`id` as `parent_product_stock`, `pdc`.`product` as `nama_product` 
    FROM `product_satuan` `ps` 
    JOIN `product_stock` `pst` ON `pst`.`product_satuan` = `ps`.`id` 
    JOIN `satuan` `s` ON `s`.`id` = `ps`.`satuan` 
    LEFT     JOIN `satuan` `sp` ON `sp`.`id` = `s`.`parent` 
    LEFT     JOIN `product_satuan` `psp` ON `psp`.`satuan` = `sp`.`id` 
    AND `psp`.`product` = `ps`.`product` 
    LEFT     JOIN `product_stock` `pstp` ON `pstp`.`product_satuan` = `psp`.`id` 
    JOIN `product` `pdc` ON `pdc`.`id` = `ps`.`product` 
    WHERE `ps`.`deleted` 
    IS     NULL     OR `ps`.`deleted` =0 
    AND `ps`.`id` = '1675' 
    LIMIT 1000
 --> Execution Time: 0.0040538311004639, Seconds : 4.0538311004639
admin - Tanggal/Waktu : 17-Aug-2021/08:41:54 AM => 
 --> 
    SELECT ps.* , s.nama_satuan , ps.qty as konversi , ps.ket_harga as keterangan 
    FROM product_satuan ps 
    JOIN satuan s on s.id = ps.satuan 
    WHERE ps.product = 1677 
    AND ps.deleted = 0 
    AND ps.satuan_terkecil = 1
 --> Execution Time: 0.00061798095703125, Seconds : 0.61798095703125
admin - Tanggal/Waktu : 17-Aug-2021/08:41:54 AM => 
 --> 
    SELECT * 
    FROM `general` 
    LIMIT 1000
 --> Execution Time: 0.00033998489379883, Seconds : 0.33998489379883
admin - Tanggal/Waktu : 17-Aug-2021/08:41:54 AM => 
 --> 
    SELECT i.* 
    FROM invoice i 
    JOIN ( 
    SELECT max( id)  id, invoice 
    FROM invoice_status 
    GROUP     BY invoice)  iss on iss.invoice = i.id 
    JOIN invoice_status isa on isa.id = iss.id 
    WHERE isa.status = 'DRAFT' 
    AND i.deleted = 0 
    ORDER     BY i.id 
    DESC     LIMIT 5 
    OFFSET 0
 --> Execution Time: 0.00074100494384766, Seconds : 0.74100494384766
admin - Tanggal/Waktu : 17-Aug-2021/08:41:54 AM => 
 --> 
    SELECT o.* 
    FROM `order` o 
    JOIN ( 
    SELECT max( id)  id, `order` 
    FROM order_status 
    GROUP     BY `order`)  oss on oss.order = o.id 
    JOIN order_status os on os.id = oss.id 
    WHERE os.status = 'DRAFT' 
    AND o.deleted = 0 
    ORDER     BY o.id 
    DESC     LIMIT 5 
    OFFSET 0
 --> Execution Time: 0.00070309638977051, Seconds : 0.70309638977051
admin - Tanggal/Waktu : 17-Aug-2021/08:41:54 AM => 
 --> 
    SELECT ro.* 
    FROM retur_order ro 
    JOIN `order` o on o.id = ro.id 
    JOIN ( 
    SELECT max( id)  id, `order` 
    FROM order_status 
    GROUP     BY `order`)  oss on oss.order = o.id 
    JOIN order_status os on os.id = oss.id 
    WHERE ro.deleted = 0 
    AND os.status = 'DRAFT' 
    AND ro.deleted = 0 
    ORDER     BY ro.id 
    DESC     LIMIT 5 
    OFFSET 0
 --> Execution Time: 0.00059199333190918, Seconds : 0.59199333190918

----------../modules/template/controllers/order/add----------
admin - Tanggal/Waktu : 17-Aug-2021/08:41:54 AM => 
 --> 
    SELECT `p`.* 
    FROM `pembeli` `p` 
    WHERE `p`.`deleted` =0 
    OR `p`.`deleted` 
    IS     NULL     AND `p`.`pembeli_kategori` = 2 
    LIMIT 1000
 --> Execution Time: 0.0004880428314209, Seconds : 0.4880428314209
admin - Tanggal/Waktu : 17-Aug-2021/08:41:54 AM => 
 --> 
    SELECT * 
    FROM `metode_bayar` 
    LIMIT 1000
 --> Execution Time: 0.00027894973754883, Seconds : 0.27894973754883
admin - Tanggal/Waktu : 17-Aug-2021/08:41:54 AM => 
 --> 
    SELECT `p`.* 
    FROM `pajak` `p` 
    WHERE `p`.`deleted` =0 
    OR `p`.`deleted` 
    IS     NULL     LIMIT 1000
 --> Execution Time: 0.0021860599517822, Seconds : 2.1860599517822
admin - Tanggal/Waktu : 17-Aug-2021/08:41:54 AM => 
 --> 
    SELECT * 
    FROM `potongan` 
    ORDER     BY `id` 
    DESC     LIMIT 1000
 --> Execution Time: 0.00042200088500977, Seconds : 0.42200088500977
admin - Tanggal/Waktu : 17-Aug-2021/08:41:54 AM => 
 --> 
    SELECT p.* , ps.stock 
    FROM product p 
    LEFT     JOIN ( 
    SELECT max( id)  id, product 
    FROM product_stock 
    GROUP     BY product)  ps_max on ps_max.product = p.id 
    LEFT     JOIN product_stock ps on ps.id = ps_max.id 
    LEFT     JOIN product_satuan pst on ps.product_satuan = pst.id 
    LEFT     JOIN satuan s on s.id = pst.satuan 
    WHERE p.deleted = 0 
    AND pst.satuan_terkecil = 1
 --> Execution Time: 0.028331995010376, Seconds : 28.331995010376
admin - Tanggal/Waktu : 17-Aug-2021/08:41:54 AM => 
 --> 
    SELECT * 
    FROM `general` 
    LIMIT 1000
 --> Execution Time: 0.00047707557678223, Seconds : 0.47707557678223
admin - Tanggal/Waktu : 17-Aug-2021/08:41:54 AM => 
 --> 
    SELECT i.* 
    FROM invoice i 
    JOIN ( 
    SELECT max( id)  id, invoice 
    FROM invoice_status 
    GROUP     BY invoice)  iss on iss.invoice = i.id 
    JOIN invoice_status isa on isa.id = iss.id 
    WHERE isa.status = 'DRAFT' 
    AND i.deleted = 0 
    ORDER     BY i.id 
    DESC     LIMIT 5 
    OFFSET 0
 --> Execution Time: 0.00067901611328125, Seconds : 0.67901611328125
admin - Tanggal/Waktu : 17-Aug-2021/08:41:54 AM => 
 --> 
    SELECT o.* 
    FROM `order` o 
    JOIN ( 
    SELECT max( id)  id, `order` 
    FROM order_status 
    GROUP     BY `order`)  oss on oss.order = o.id 
    JOIN order_status os on os.id = oss.id 
    WHERE os.status = 'DRAFT' 
    AND o.deleted = 0 
    ORDER     BY o.id 
    DESC     LIMIT 5 
    OFFSET 0
 --> Execution Time: 0.0032942295074463, Seconds : 3.2942295074463
admin - Tanggal/Waktu : 17-Aug-2021/08:41:54 AM => 
 --> 
    SELECT ro.* 
    FROM retur_order ro 
    JOIN `order` o on o.id = ro.id 
    JOIN ( 
    SELECT max( id)  id, `order` 
    FROM order_status 
    GROUP     BY `order`)  oss on oss.order = o.id 
    JOIN order_status os on os.id = oss.id 
    WHERE ro.deleted = 0 
    AND os.status = 'DRAFT' 
    AND ro.deleted = 0 
    ORDER     BY ro.id 
    DESC     LIMIT 5 
    OFFSET 0
 --> Execution Time: 0.00066280364990234, Seconds : 0.66280364990234
