
----------../modules/template/controllers/document/index----------

----------../modules/not_found/controllers//index----------

----------../modules/not_found/controllers//index----------

----------../modules/not_found/controllers//index----------
