
----------../modules/template/controllers/supplier/ubah----------
admin - Tanggal/Waktu : 11-Nov-2021/17:54:40 PM => 
 --> 
    SELECT * 
    FROM `vendor` `kr` 
    WHERE `kr`.`id` = '1' 
    LIMIT 1000
 --> Execution Time: 0.00072693824768066, Seconds : 0.72693824768066

----------../modules/not_found/controllers//index----------
