
----------../modules/template/controllers/supplier/index----------
admin - Tanggal/Waktu : 20-Oct-2021/17:35:54 PM => 
 --> 
    SELECT `v`.* 
    FROM `vendor` `v` 
    WHERE `v`.`deleted` =0 
    OR `v`.`deleted` 
    IS     NULL     LIMIT 10
 --> Execution Time: 0.00051379203796387, Seconds : 0.51379203796387
admin - Tanggal/Waktu : 20-Oct-2021/17:35:54 PM => 
 --> 
    SELECT COUNT( *)  AS `numrows` 
    FROM `vendor` `v` 
    WHERE `v`.`deleted` =0 
    OR `v`.`deleted` 
    IS null
 --> Execution Time: 0.00033712387084961, Seconds : 0.33712387084961
admin - Tanggal/Waktu : 20-Oct-2021/17:35:54 PM => 
 --> 
    SELECT * 
    FROM `general` 
    LIMIT 1000
 --> Execution Time: 0.00042390823364258, Seconds : 0.42390823364258
admin - Tanggal/Waktu : 20-Oct-2021/17:35:54 PM => 
 --> 
    SELECT i.* 
    FROM invoice i 
    JOIN ( 
    SELECT max( id)  id, invoice 
    FROM invoice_status 
    GROUP     BY invoice)  iss on iss.invoice = i.id 
    JOIN invoice_status isa on isa.id = iss.id 
    WHERE isa.status = 'DRAFT' 
    AND i.deleted = 0 
    ORDER     BY i.id 
    DESC     LIMIT 5 
    OFFSET 0
 --> Execution Time: 0.00076413154602051, Seconds : 0.76413154602051
admin - Tanggal/Waktu : 20-Oct-2021/17:35:54 PM => 
 --> 
    SELECT o.* 
    FROM `order` o 
    JOIN ( 
    SELECT max( id)  id, `order` 
    FROM order_status 
    GROUP     BY `order`)  oss on oss.order = o.id 
    JOIN order_status os on os.id = oss.id 
    WHERE os.status = 'DRAFT' 
    AND o.deleted = 0 
    ORDER     BY o.id 
    DESC     LIMIT 5 
    OFFSET 0
 --> Execution Time: 0.00086593627929688, Seconds : 0.86593627929688
admin - Tanggal/Waktu : 20-Oct-2021/17:35:54 PM => 
 --> 
    SELECT ro.* 
    FROM retur_order ro 
    JOIN `order` o on o.id = ro.id 
    JOIN ( 
    SELECT max( id)  id, `order` 
    FROM order_status 
    GROUP     BY `order`)  oss on oss.order = o.id 
    JOIN order_status os on os.id = oss.id 
    WHERE ro.deleted = 0 
    AND os.status = 'DRAFT' 
    AND ro.deleted = 0 
    ORDER     BY ro.id 
    DESC     LIMIT 5 
    OFFSET 0
 --> Execution Time: 0.00060391426086426, Seconds : 0.60391426086426
