
----------../modules/template/controllers/satuan/add----------
administrator - Tanggal/Waktu : 07-Aug-2021/08:39:53 AM => 
 --> 
    SELECT `p`.* 
    FROM `product` `p` 
    WHERE `p`.`deleted` =0 
    OR `p`.`deleted` 
    IS     NULL     LIMIT 1000
 --> Execution Time: 0.0012838840484619, Seconds : 1.2838840484619
administrator - Tanggal/Waktu : 07-Aug-2021/08:39:53 AM => 
 --> 
    SELECT `sa`.*, `s`.`nama_satuan` as `satuan_parent` 
    FROM `satuan` `sa` 
    LEFT     JOIN `satuan` `s` ON `sa`.`parent` = `s`.`id` 
    WHERE `sa`.`deleted` =0 
    LIMIT 1000
 --> Execution Time: 0.00057005882263184, Seconds : 0.57005882263184
administrator - Tanggal/Waktu : 07-Aug-2021/08:39:53 AM => 
 --> 
    SELECT * 
    FROM `general` 
    LIMIT 1000
 --> Execution Time: 0.0013270378112793, Seconds : 1.3270378112793
administrator - Tanggal/Waktu : 07-Aug-2021/08:39:53 AM => 
 --> 
    SELECT i.* 
    FROM invoice i 
    JOIN ( 
    SELECT max( id)  id, invoice 
    FROM invoice_status 
    GROUP     BY invoice)  iss on iss.invoice = i.id 
    JOIN invoice_status isa on isa.id = iss.id 
    WHERE isa.status = 'DRAFT' 
    AND i.deleted = 0 
    ORDER     BY i.id 
    DESC     LIMIT 5 
    OFFSET 0
 --> Execution Time: 0.0011160373687744, Seconds : 1.1160373687744
administrator - Tanggal/Waktu : 07-Aug-2021/08:39:53 AM => 
 --> 
    SELECT o.* 
    FROM `order` o 
    JOIN ( 
    SELECT max( id)  id, `order` 
    FROM order_status 
    GROUP     BY `order`)  oss on oss.order = o.id 
    JOIN order_status os on os.id = oss.id 
    WHERE os.status = 'DRAFT' 
    AND o.deleted = 0 
    ORDER     BY o.id 
    DESC     LIMIT 5 
    OFFSET 0
 --> Execution Time: 0.0013210773468018, Seconds : 1.3210773468018
administrator - Tanggal/Waktu : 07-Aug-2021/08:39:53 AM => 
 --> 
    SELECT ro.* 
    FROM retur_order ro 
    JOIN `order` o on o.id = ro.id 
    JOIN ( 
    SELECT max( id)  id, `order` 
    FROM order_status 
    GROUP     BY `order`)  oss on oss.order = o.id 
    JOIN order_status os on os.id = oss.id 
    WHERE ro.deleted = 0 
    AND os.status = 'DRAFT' 
    AND ro.deleted = 0 
    ORDER     BY ro.id 
    DESC     LIMIT 5 
    OFFSET 0
 --> Execution Time: 0.00074100494384766, Seconds : 0.74100494384766
