
----------../modules/template/controllers/unit/detail----------
admin - Tanggal/Waktu : 08-Aug-2021/12:54:32 PM => 
 --> 
    SELECT `kr`.*, `s`.`nama_satuan` as `nama_group` 
    FROM `satuan` `kr` 
    LEFT     JOIN `satuan` `s` ON `kr`.`parent` = `s`.`id` 
    WHERE `kr`.`id` = '1' 
    LIMIT 1000
 --> Execution Time: 0.0006260871887207, Seconds : 0.6260871887207
admin - Tanggal/Waktu : 08-Aug-2021/12:54:32 PM => 
 --> 
    SELECT * 
    FROM `general` 
    LIMIT 1000
 --> Execution Time: 0.00045609474182129, Seconds : 0.45609474182129
admin - Tanggal/Waktu : 08-Aug-2021/12:54:32 PM => 
 --> 
    SELECT i.* 
    FROM invoice i 
    JOIN ( 
    SELECT max( id)  id, invoice 
    FROM invoice_status 
    GROUP     BY invoice)  iss on iss.invoice = i.id 
    JOIN invoice_status isa on isa.id = iss.id 
    WHERE isa.status = 'DRAFT' 
    AND i.deleted = 0 
    ORDER     BY i.id 
    DESC     LIMIT 5 
    OFFSET 0
 --> Execution Time: 0.00086402893066406, Seconds : 0.86402893066406
admin - Tanggal/Waktu : 08-Aug-2021/12:54:32 PM => 
 --> 
    SELECT o.* 
    FROM `order` o 
    JOIN ( 
    SELECT max( id)  id, `order` 
    FROM order_status 
    GROUP     BY `order`)  oss on oss.order = o.id 
    JOIN order_status os on os.id = oss.id 
    WHERE os.status = 'DRAFT' 
    AND o.deleted = 0 
    ORDER     BY o.id 
    DESC     LIMIT 5 
    OFFSET 0
 --> Execution Time: 0.00075292587280273, Seconds : 0.75292587280273
admin - Tanggal/Waktu : 08-Aug-2021/12:54:32 PM => 
 --> 
    SELECT ro.* 
    FROM retur_order ro 
    JOIN `order` o on o.id = ro.id 
    JOIN ( 
    SELECT max( id)  id, `order` 
    FROM order_status 
    GROUP     BY `order`)  oss on oss.order = o.id 
    JOIN order_status os on os.id = oss.id 
    WHERE ro.deleted = 0 
    AND os.status = 'DRAFT' 
    AND ro.deleted = 0 
    ORDER     BY ro.id 
    DESC     LIMIT 5 
    OFFSET 0
 --> Execution Time: 0.00083708763122559, Seconds : 0.83708763122559
