
----------../modules/database/controllers/satuan/simpan----------
administrator - Tanggal/Waktu : 07-Aug-2021/08:54:19 AM => 
 --> 
    INSERT     INTO `product_satuan` ( `product`, `satuan`, `qty`, `harga`, `harga_beli`, `ket_harga`, `satuan_terkecil`, `createddate`, `createdby`)  
    VALUES ( '3161', '958', '1', '4000', '3500', '-', NULL, '2021-08-07 08:54:19', '1') 
 --> Execution Time: 0.0036170482635498, Seconds : 3.6170482635498
administrator - Tanggal/Waktu : 07-Aug-2021/08:54:19 AM => 
 --> 
    INSERT     INTO `product_has_harga_jual` ( `product_satuan`, `harga`, `createddate`, `createdby`)  
    VALUES ( 13, '4000', '2021-08-07 08:54:19', '1') 
 --> Execution Time: 0.00088405609130859, Seconds : 0.88405609130859
