
----------../modules/template/controllers/produk/index----------
administrator - Tanggal/Waktu : 07-Aug-2021/08:38:17 AM => 
 --> 
    SELECT `r`.*, `tr`.`tipe`, `kr`.`kategori` 
    FROM `product` `r` 
    JOIN `kategori_product` `kr` ON `r`.`kategori_product` = `kr`.`id` 
    JOIN `tipe_product` `tr` ON `r`.`tipe_product` = `tr`.`id` 
    WHERE `r`.`deleted` =0 
    OR `r`.`deleted` 
    IS     NULL     LIMIT 10
 --> Execution Time: 0.0013890266418457, Seconds : 1.3890266418457
administrator - Tanggal/Waktu : 07-Aug-2021/08:38:17 AM => 
 --> 
    SELECT COUNT( *)  AS `numrows` 
    FROM `product` `r` 
    JOIN `kategori_product` `kr` ON `r`.`kategori_product` = `kr`.`id` 
    JOIN `tipe_product` `tr` ON `r`.`tipe_product` = `tr`.`id` 
    WHERE `r`.`deleted` =0 
    OR `r`.`deleted` 
    IS null
 --> Execution Time: 0.00058293342590332, Seconds : 0.58293342590332
administrator - Tanggal/Waktu : 07-Aug-2021/08:38:17 AM => 
 --> 
    SELECT * 
    FROM `general` 
    LIMIT 1000
 --> Execution Time: 0.0025568008422852, Seconds : 2.5568008422852
administrator - Tanggal/Waktu : 07-Aug-2021/08:38:17 AM => 
 --> 
    SELECT i.* 
    FROM invoice i 
    JOIN ( 
    SELECT max( id)  id, invoice 
    FROM invoice_status 
    GROUP     BY invoice)  iss on iss.invoice = i.id 
    JOIN invoice_status isa on isa.id = iss.id 
    WHERE isa.status = 'DRAFT' 
    AND i.deleted = 0 
    ORDER     BY i.id 
    DESC     LIMIT 5 
    OFFSET 0
 --> Execution Time: 0.0011789798736572, Seconds : 1.1789798736572
administrator - Tanggal/Waktu : 07-Aug-2021/08:38:17 AM => 
 --> 
    SELECT o.* 
    FROM `order` o 
    JOIN ( 
    SELECT max( id)  id, `order` 
    FROM order_status 
    GROUP     BY `order`)  oss on oss.order = o.id 
    JOIN order_status os on os.id = oss.id 
    WHERE os.status = 'DRAFT' 
    AND o.deleted = 0 
    ORDER     BY o.id 
    DESC     LIMIT 5 
    OFFSET 0
 --> Execution Time: 0.0014610290527344, Seconds : 1.4610290527344
administrator - Tanggal/Waktu : 07-Aug-2021/08:38:17 AM => 
 --> 
    SELECT ro.* 
    FROM retur_order ro 
    JOIN `order` o on o.id = ro.id 
    JOIN ( 
    SELECT max( id)  id, `order` 
    FROM order_status 
    GROUP     BY `order`)  oss on oss.order = o.id 
    JOIN order_status os on os.id = oss.id 
    WHERE ro.deleted = 0 
    AND os.status = 'DRAFT' 
    AND ro.deleted = 0 
    ORDER     BY ro.id 
    DESC     LIMIT 5 
    OFFSET 0
 --> Execution Time: 0.00082516670227051, Seconds : 0.82516670227051
