
----------../modules/template/controllers/satuan/index----------
admin - Tanggal/Waktu : 08-Aug-2021/16:45:57 PM => 
 --> 
    SELECT `k`.*, `p`.`product` as `nama_product`, `s`.`nama_satuan`, `hg`.`harga` as `harga_jual_fix` 
    FROM `product_satuan` `k` 
    JOIN `product` `p` ON `k`.`product` = `p`.`id` 
    JOIN ( 
    SELECT max( id)  id, product_satuan 
    FROM product_has_harga_jual 
    GROUP     BY product_satuan)  hg_max ON `hg_max`.`product_satuan` = `k`.`id` 
    JOIN `product_has_harga_jual` `hg` ON `hg`.`id` = `hg_max`.`id` 
    LEFT     JOIN `satuan` `s` ON `s`.`id` = `k`.`satuan` 
    WHERE `k`.`deleted` 
    IS     NULL     OR `k`.`deleted` =0 
    LIMIT 10
 --> Execution Time: 0.0042049884796143, Seconds : 4.2049884796143
admin - Tanggal/Waktu : 08-Aug-2021/16:45:57 PM => 
 --> 
    SELECT COUNT( *)  AS `numrows` 
    FROM `product_satuan` `k` 
    JOIN `product` `p` ON `k`.`product` = `p`.`id` 
    LEFT     JOIN `satuan` `s` ON `s`.`id` = `k`.`satuan` 
    WHERE `k`.`deleted` 
    IS     NULL     OR `k`.`deleted` =0
 --> Execution Time: 0.0068449974060059, Seconds : 6.8449974060059
admin - Tanggal/Waktu : 08-Aug-2021/16:45:57 PM => 
 --> 
    SELECT * 
    FROM `general` 
    LIMIT 1000
 --> Execution Time: 0.00045680999755859, Seconds : 0.45680999755859
admin - Tanggal/Waktu : 08-Aug-2021/16:45:57 PM => 
 --> 
    SELECT i.* 
    FROM invoice i 
    JOIN ( 
    SELECT max( id)  id, invoice 
    FROM invoice_status 
    GROUP     BY invoice)  iss on iss.invoice = i.id 
    JOIN invoice_status isa on isa.id = iss.id 
    WHERE isa.status = 'DRAFT' 
    AND i.deleted = 0 
    ORDER     BY i.id 
    DESC     LIMIT 5 
    OFFSET 0
 --> Execution Time: 0.00072693824768066, Seconds : 0.72693824768066
admin - Tanggal/Waktu : 08-Aug-2021/16:45:57 PM => 
 --> 
    SELECT o.* 
    FROM `order` o 
    JOIN ( 
    SELECT max( id)  id, `order` 
    FROM order_status 
    GROUP     BY `order`)  oss on oss.order = o.id 
    JOIN order_status os on os.id = oss.id 
    WHERE os.status = 'DRAFT' 
    AND o.deleted = 0 
    ORDER     BY o.id 
    DESC     LIMIT 5 
    OFFSET 0
 --> Execution Time: 0.00054597854614258, Seconds : 0.54597854614258
admin - Tanggal/Waktu : 08-Aug-2021/16:45:57 PM => 
 --> 
    SELECT ro.* 
    FROM retur_order ro 
    JOIN `order` o on o.id = ro.id 
    JOIN ( 
    SELECT max( id)  id, `order` 
    FROM order_status 
    GROUP     BY `order`)  oss on oss.order = o.id 
    JOIN order_status os on os.id = oss.id 
    WHERE ro.deleted = 0 
    AND os.status = 'DRAFT' 
    AND ro.deleted = 0 
    ORDER     BY ro.id 
    DESC     LIMIT 5 
    OFFSET 0
 --> Execution Time: 0.00063800811767578, Seconds : 0.63800811767578
