
----------../modules/template/controllers/order/index----------
admin - Tanggal/Waktu : 17-Aug-2021/08:33:31 AM => 
 --> 
    SELECT `o`.*, `isa`.`status`, `pb`.`nama` as `nama_pembeli` 
    FROM `order` `o` 
    JOIN ( 
    SELECT max( id)  id, `order` 
    FROM order_status 
    GROUP     BY `order`)  iss ON `iss`.`order` = `o`.`id` 
    JOIN `order_status` `isa` ON `isa`.`id` = `iss`.`id` 
    JOIN `pembeli` `pb` ON `pb`.`id` = `o`.`pembeli` 
    WHERE `o`.`deleted` 
    IS     NULL     OR `o`.`deleted` =0 
    ORDER     BY `o`.`id` 
    DESC     LIMIT 10
 --> Execution Time: 0.0018777847290039, Seconds : 1.8777847290039
admin - Tanggal/Waktu : 17-Aug-2021/08:33:31 AM => 
 --> 
    SELECT COUNT( *)  AS `numrows` 
    FROM `order` `o` 
    JOIN ( 
    SELECT max( id)  id, `order` 
    FROM order_status 
    GROUP     BY `order`)  iss ON `iss`.`order` = `o`.`id` 
    JOIN `order_status` `isa` ON `isa`.`id` = `iss`.`id` 
    JOIN `pembeli` `pb` ON `pb`.`id` = `o`.`pembeli` 
    WHERE `o`.`deleted` 
    IS     NULL     OR `o`.`deleted` =0
 --> Execution Time: 0.0011641979217529, Seconds : 1.1641979217529
admin - Tanggal/Waktu : 17-Aug-2021/08:33:31 AM => 
 --> 
    SELECT * 
    FROM `general` 
    LIMIT 1000
 --> Execution Time: 0.0030219554901123, Seconds : 3.0219554901123
admin - Tanggal/Waktu : 17-Aug-2021/08:33:31 AM => 
 --> 
    SELECT i.* 
    FROM invoice i 
    JOIN ( 
    SELECT max( id)  id, invoice 
    FROM invoice_status 
    GROUP     BY invoice)  iss on iss.invoice = i.id 
    JOIN invoice_status isa on isa.id = iss.id 
    WHERE isa.status = 'DRAFT' 
    AND i.deleted = 0 
    ORDER     BY i.id 
    DESC     LIMIT 5 
    OFFSET 0
 --> Execution Time: 0.00084209442138672, Seconds : 0.84209442138672
admin - Tanggal/Waktu : 17-Aug-2021/08:33:31 AM => 
 --> 
    SELECT o.* 
    FROM `order` o 
    JOIN ( 
    SELECT max( id)  id, `order` 
    FROM order_status 
    GROUP     BY `order`)  oss on oss.order = o.id 
    JOIN order_status os on os.id = oss.id 
    WHERE os.status = 'DRAFT' 
    AND o.deleted = 0 
    ORDER     BY o.id 
    DESC     LIMIT 5 
    OFFSET 0
 --> Execution Time: 0.00071597099304199, Seconds : 0.71597099304199
admin - Tanggal/Waktu : 17-Aug-2021/08:33:31 AM => 
 --> 
    SELECT ro.* 
    FROM retur_order ro 
    JOIN `order` o on o.id = ro.id 
    JOIN ( 
    SELECT max( id)  id, `order` 
    FROM order_status 
    GROUP     BY `order`)  oss on oss.order = o.id 
    JOIN order_status os on os.id = oss.id 
    WHERE ro.deleted = 0 
    AND os.status = 'DRAFT' 
    AND ro.deleted = 0 
    ORDER     BY ro.id 
    DESC     LIMIT 5 
    OFFSET 0
 --> Execution Time: 0.00066685676574707, Seconds : 0.66685676574707
