
----------../modules/database/controllers/product_stock/getSatuanProduk----------
admin - Tanggal/Waktu : 01-Nov-2021/19:53:18 PM => 
 --> 
    SELECT `ps`.*, `s`.`nama_satuan`, `sp`.`nama_satuan` as `satuan_parent` 
    FROM `product_satuan` `ps` 
    LEFT     JOIN `satuan` `s` ON `ps`.`satuan` = `s`.`id` 
    LEFT     JOIN `satuan` `sp` ON `s`.`parent` = `sp`.`id` 
    WHERE `ps`.`deleted` =0 
    AND `ps`.`product` = '2513' 
    AND `ps`.`satuan_terkecil` = 1 
    ORDER     BY `ps`.`id` 
    ASC     LIMIT 1
 --> Execution Time: 0.0027561187744141, Seconds : 2.7561187744141
