
----------../modules/order/controllers/order/chooseProduk----------
admin - Tanggal/Waktu : 17-Aug-2021/08:01:32 AM => 
 --> 
    SELECT ps.* , s.nama_satuan , ps.qty as konversi , ps.ket_harga as keterangan 
    FROM product_satuan ps 
    JOIN satuan s on s.id = ps.satuan 
    WHERE ps.product = 1677 
    AND ps.deleted = 0
 --> Execution Time: 0.00088000297546387, Seconds : 0.88000297546387
admin - Tanggal/Waktu : 17-Aug-2021/08:01:32 AM => 
 --> 
    SELECT ps.* , s.nama_satuan , ps.qty as konversi , ps.ket_harga as keterangan 
    FROM product_satuan ps 
    JOIN satuan s on s.id = ps.satuan 
    WHERE ps.product = 1677 
    AND ps.deleted = 0 
    AND ps.satuan_terkecil = 1
 --> Execution Time: 0.0010569095611572, Seconds : 1.0569095611572
