
----------../modules/template/controllers/pengadaan/index----------
admin - Tanggal/Waktu : 20-Oct-2021/17:35:46 PM => 
 --> 
    SELECT `p`.*, `v`.`nama_vendor` 
    FROM `procurement` `p` 
    JOIN `vendor` `v` ON `v`.`id` = `p`.`vendor` 
    WHERE `p`.`deleted` 
    IS     NULL     OR `p`.`deleted` =0 
    LIMIT 10
 --> Execution Time: 0.0025069713592529, Seconds : 2.5069713592529
admin - Tanggal/Waktu : 20-Oct-2021/17:35:46 PM => 
 --> 
    SELECT COUNT( *)  AS `numrows` 
    FROM `procurement` `p` 
    JOIN `vendor` `v` ON `v`.`id` = `p`.`vendor` 
    WHERE `p`.`deleted` 
    IS     NULL     OR `p`.`deleted` =0
 --> Execution Time: 0.00052785873413086, Seconds : 0.52785873413086
admin - Tanggal/Waktu : 20-Oct-2021/17:35:46 PM => 
 --> 
    SELECT * 
    FROM `general` 
    LIMIT 1000
 --> Execution Time: 0.00090909004211426, Seconds : 0.90909004211426
admin - Tanggal/Waktu : 20-Oct-2021/17:35:46 PM => 
 --> 
    SELECT i.* 
    FROM invoice i 
    JOIN ( 
    SELECT max( id)  id, invoice 
    FROM invoice_status 
    GROUP     BY invoice)  iss on iss.invoice = i.id 
    JOIN invoice_status isa on isa.id = iss.id 
    WHERE isa.status = 'DRAFT' 
    AND i.deleted = 0 
    ORDER     BY i.id 
    DESC     LIMIT 5 
    OFFSET 0
 --> Execution Time: 0.0023519992828369, Seconds : 2.3519992828369
admin - Tanggal/Waktu : 20-Oct-2021/17:35:46 PM => 
 --> 
    SELECT o.* 
    FROM `order` o 
    JOIN ( 
    SELECT max( id)  id, `order` 
    FROM order_status 
    GROUP     BY `order`)  oss on oss.order = o.id 
    JOIN order_status os on os.id = oss.id 
    WHERE os.status = 'DRAFT' 
    AND o.deleted = 0 
    ORDER     BY o.id 
    DESC     LIMIT 5 
    OFFSET 0
 --> Execution Time: 0.0011310577392578, Seconds : 1.1310577392578
admin - Tanggal/Waktu : 20-Oct-2021/17:35:46 PM => 
 --> 
    SELECT ro.* 
    FROM retur_order ro 
    JOIN `order` o on o.id = ro.id 
    JOIN ( 
    SELECT max( id)  id, `order` 
    FROM order_status 
    GROUP     BY `order`)  oss on oss.order = o.id 
    JOIN order_status os on os.id = oss.id 
    WHERE ro.deleted = 0 
    AND os.status = 'DRAFT' 
    AND ro.deleted = 0 
    ORDER     BY ro.id 
    DESC     LIMIT 5 
    OFFSET 0
 --> Execution Time: 0.00082921981811523, Seconds : 0.82921981811523
