
----------../modules/database/controllers/login/index----------
 - Tanggal/Waktu : 07-Aug-2021/09:48:25 AM => 
 --> 
    SELECT * 
    FROM `general` 
    LIMIT 1000
 --> Execution Time: 0.000762939453125, Seconds : 0.762939453125
