
----------../modules/order/controllers/order/scanCariProduk----------
admin - Tanggal/Waktu : 08-Aug-2021/13:26:51 PM => 
 --> 
    SELECT p.* , ps.stock 
    FROM product p 
    LEFT     JOIN ( 
    SELECT max( id)  id, product 
    FROM product_stock 
    GROUP     BY product)  ps_max on ps_max.product = p.id 
    LEFT     JOIN product_stock ps on ps.id = ps_max.id 
    LEFT     JOIN product_satuan pst on ps.product_satuan = pst.id 
    LEFT     JOIN satuan s on s.id = pst.satuan 
    WHERE p.deleted = 0 
    AND pst.satuan_terkecil = 1 
    AND p.product 
    LIKE '%kepi%'
 --> Execution Time: 0.0050590038299561, Seconds : 5.0590038299561
