
----------../modules/template/controllers/supplier/index----------
admin - Tanggal/Waktu : 11-Nov-2021/17:56:12 PM => 
 --> 
    SELECT `v`.* 
    FROM `vendor` `v` 
    WHERE `v`.`deleted` =0 
    LIMIT 25
 --> Execution Time: 0.00055813789367676, Seconds : 0.55813789367676
admin - Tanggal/Waktu : 11-Nov-2021/17:56:12 PM => 
 --> 
    SELECT COUNT( *)  AS `numrows` 
    FROM `vendor` `v` 
    WHERE `v`.`deleted` =0
 --> Execution Time: 0.00045895576477051, Seconds : 0.45895576477051

----------../modules/not_found/controllers//index----------
