
----------../modules/database/controllers/order/simpan----------
admin - Tanggal/Waktu : 17-Aug-2021/08:45:25 AM => 
 --> 
    SELECT * 
    FROM `order` 
    WHERE `no_order` 
    LIKE '%OR21AUG%' 
    ESCAPE '!' 
    ORDER     BY `id` 
    DESC     LIMIT 1000
 --> Execution Time: 0.00052618980407715, Seconds : 0.52618980407715
admin - Tanggal/Waktu : 17-Aug-2021/08:45:25 AM => 
 --> 
    INSERT     INTO `order` ( `no_order`, `pembeli`, `potongan`, `metode_bayar`, `pot_faktur`, `tanggal_faktur`, `total`, `createddate`, `createdby`)  
    VALUES ( 'OR21AUG005', '1', '3', '1', '0', '2021-08-17 08:45:25', '24000', '2021-08-17 08:45:25', '3') 
 --> Execution Time: 0.00042915344238281, Seconds : 0.42915344238281
admin - Tanggal/Waktu : 17-Aug-2021/08:45:25 AM => 
 --> 
    INSERT     INTO `order_product` ( `order`, `product_satuan`, `qty`, `sub_total`, `createddate`, `createdby`)  
    VALUES ( 5, '1675', '1', '24000', '2021-08-17 08:45:25', '3') 
 --> Execution Time: 0.00030779838562012, Seconds : 0.30779838562012
admin - Tanggal/Waktu : 17-Aug-2021/08:45:25 AM => 
 --> 
    INSERT     INTO `order_status` ( `order`, `status`, `createddate`, `createdby`)  
    VALUES ( 5, 'DRAFT', '2021-08-17 08:45:25', '3') 
 --> Execution Time: 0.00025105476379395, Seconds : 0.25105476379395
