
----------../modules/template/controllers/pengadaan/add----------
admin - Tanggal/Waktu : 20-Oct-2021/17:36:11 PM => 
 --> 
    SELECT * 
    FROM `vendor` 
    WHERE `deleted` =0 
    LIMIT 1000
 --> Execution Time: 0.00057721138000488, Seconds : 0.57721138000488
admin - Tanggal/Waktu : 20-Oct-2021/17:36:11 PM => 
 --> 
    SELECT * 
    FROM `general` 
    LIMIT 1000
 --> Execution Time: 0.00046515464782715, Seconds : 0.46515464782715
admin - Tanggal/Waktu : 20-Oct-2021/17:36:11 PM => 
 --> 
    SELECT i.* 
    FROM invoice i 
    JOIN ( 
    SELECT max( id)  id, invoice 
    FROM invoice_status 
    GROUP     BY invoice)  iss on iss.invoice = i.id 
    JOIN invoice_status isa on isa.id = iss.id 
    WHERE isa.status = 'DRAFT' 
    AND i.deleted = 0 
    ORDER     BY i.id 
    DESC     LIMIT 5 
    OFFSET 0
 --> Execution Time: 0.00095200538635254, Seconds : 0.95200538635254
admin - Tanggal/Waktu : 20-Oct-2021/17:36:11 PM => 
 --> 
    SELECT o.* 
    FROM `order` o 
    JOIN ( 
    SELECT max( id)  id, `order` 
    FROM order_status 
    GROUP     BY `order`)  oss on oss.order = o.id 
    JOIN order_status os on os.id = oss.id 
    WHERE os.status = 'DRAFT' 
    AND o.deleted = 0 
    ORDER     BY o.id 
    DESC     LIMIT 5 
    OFFSET 0
 --> Execution Time: 0.0010910034179688, Seconds : 1.0910034179688
admin - Tanggal/Waktu : 20-Oct-2021/17:36:11 PM => 
 --> 
    SELECT ro.* 
    FROM retur_order ro 
    JOIN `order` o on o.id = ro.id 
    JOIN ( 
    SELECT max( id)  id, `order` 
    FROM order_status 
    GROUP     BY `order`)  oss on oss.order = o.id 
    JOIN order_status os on os.id = oss.id 
    WHERE ro.deleted = 0 
    AND os.status = 'DRAFT' 
    AND ro.deleted = 0 
    ORDER     BY ro.id 
    DESC     LIMIT 5 
    OFFSET 0
 --> Execution Time: 0.00087690353393555, Seconds : 0.87690353393555
