
----------../modules/template/controllers/supplier/index----------
admin - Tanggal/Waktu : 11-Nov-2021/17:50:21 PM => 
 --> 
    SELECT `v`.* 
    FROM `vendor` `v` 
    WHERE `v`.`deleted` =0 
    OR `v`.`deleted` 
    IS     NULL     LIMIT 25
 --> Execution Time: 0.00065207481384277, Seconds : 0.65207481384277
admin - Tanggal/Waktu : 11-Nov-2021/17:50:21 PM => 
 --> 
    SELECT COUNT( *)  AS `numrows` 
    FROM `vendor` `v` 
    WHERE `v`.`deleted` =0 
    OR `v`.`deleted` 
    IS null
 --> Execution Time: 0.0015227794647217, Seconds : 1.5227794647217

----------../modules/not_found/controllers//index----------
